%YAML 1.1
%TAG !u! tag:unity3d.com,2011:
--- !u!1 &100016
GameObject:
  m_ObjectHideFlags: 1
  m_CorrespondingSourceObject: {fileID: 0}
  m_PrefabInternal: {fileID: 100100000}
  serializedVersion: 6
  m_Component:
  - component: {fileID: 401522}
  m_Layer: 0
  m_Name: mixamorig:Spine2
  m_TagString: Untagged
  m_Icon: {fileID: 0}
  m_NavMeshLayer: 0
  m_StaticEditorFlags: 0
  m_IsActive: 1
--- !u!1 &101086
GameObject:
  m_ObjectHideFlags: 1
  m_CorrespondingSourceObject: {fileID: 0}
  m_PrefabInternal: {fileID: 100100000}
  serializedVersion: 6
  m_Component:
  - component: {fileID: 459956}
  m_Layer: 0
  m_Name: mixamorig:Head
  m_TagString: Untagged
  m_Icon: {fileID: 0}
  m_NavMeshLayer: 0
  m_StaticEditorFlags: 0
  m_IsActive: 1
--- !u!1 &101460
GameObject:
  m_ObjectHideFlags: 1
  m_CorrespondingSourceObject: {fileID: 0}
  m_PrefabInternal: {fileID: 100100000}
  serializedVersion: 6
  m_Component:
  - component: {fileID: 457952}
  m_Layer: 0
  m_Name: mixamorig:LeftHandThumb2
  m_TagString: Untagged
  m_Icon: {fileID: 0}
  m_NavMeshLayer: 0
  m_StaticEditorFlags: 0
  m_IsActive: 1
--- !u!1 &102834
GameObject:
  m_ObjectHideFlags: 1
  m_CorrespondingSourceObject: {fileID: 0}
  m_PrefabInternal: {fileID: 100100000}
  serializedVersion: 6
  m_Component:
  - component: {fileID: 477632}
  m_Layer: 0
  m_Name: mixamorig:RightHandRing4
  m_TagString: Untagged
  m_Icon: {fileID: 0}
  m_NavMeshLayer: 0
  m_StaticEditorFlags: 0
  m_IsActive: 1
--- !u!1 &104730
GameObject:
  m_ObjectHideFlags: 1
  m_CorrespondingSourceObject: {fileID: 0}
  m_PrefabInternal: {fileID: 100100000}
  serializedVersion: 6
  m_Component:
  - component: {fileID: 444122}
  m_Layer: 0
  m_Name: mixamorig:LeftShoulder
  m_TagString: Untagged
  m_Icon: {fileID: 0}
  m_NavMeshLayer: 0
  m_StaticEditorFlags: 0
  m_IsActive: 1
--- !u!1 &105424
GameObject:
  m_ObjectHideFlags: 1
  m_CorrespondingSourceObject: {fileID: 0}
  m_PrefabInternal: {fileID: 100100000}
  serializedVersion: 6
  m_Component:
  - component: {fileID: 495386}
  m_Layer: 0
  m_Name: mixamorig:LeftHandIndex4
  m_TagString: Untagged
  m_Icon: {fileID: 0}
  m_NavMeshLayer: 0
  m_StaticEditorFlags: 0
  m_IsActive: 1
--- !u!1 &108620
GameObject:
  m_ObjectHideFlags: 1
  m_CorrespondingSourceObject: {fileID: 0}
  m_PrefabInternal: {fileID: 100100000}
  serializedVersion: 6
  m_Component:
  - component: {fileID: 453260}
  m_Layer: 0
  m_Name: mixamorig:LeftHandMiddle2
  m_TagString: Untagged
  m_Icon: {fileID: 0}
  m_NavMeshLayer: 0
  m_StaticEditorFlags: 0
  m_IsActive: 1
--- !u!1 &109994
GameObject:
  m_ObjectHideFlags: 1
  m_CorrespondingSourceObject: {fileID: 0}
  m_PrefabInternal: {fileID: 100100000}
  serializedVersion: 6
  m_Component:
  - component: {fileID: 417972}
  m_Layer: 0
  m_Name: mixamorig:LeftHand
  m_TagString: Untagged
  m_Icon: {fileID: 0}
  m_NavMeshLayer: 0
  m_StaticEditorFlags: 0
  m_IsActive: 1
--- !u!1 &110672
GameObject:
  m_ObjectHideFlags: 1
  m_CorrespondingSourceObject: {fileID: 0}
  m_PrefabInternal: {fileID: 100100000}
  serializedVersion: 6
  m_Component:
  - component: {fileID: 493390}
  m_Layer: 0
  m_Name: mixamorig:LeftHandIndex1
  m_TagString: Untagged
  m_Icon: {fileID: 0}
  m_NavMeshLayer: 0
  m_StaticEditorFlags: 0
  m_IsActive: 1
--- !u!1 &111644
GameObject:
  m_ObjectHideFlags: 1
  m_CorrespondingSourceObject: {fileID: 0}
  m_PrefabInternal: {fileID: 100100000}
  serializedVersion: 6
  m_Component:
  - component: {fileID: 497560}
  m_Layer: 0
  m_Name: mixamorig:RightFoot
  m_TagString: Untagged
  m_Icon: {fileID: 0}
  m_NavMeshLayer: 0
  m_StaticEditorFlags: 0
  m_IsActive: 1
--- !u!1 &111908
GameObject:
  m_ObjectHideFlags: 1
  m_CorrespondingSourceObject: {fileID: 0}
  m_PrefabInternal: {fileID: 100100000}
  serializedVersion: 6
  m_Component:
  - component: {fileID: 497916}
  m_Layer: 0
  m_Name: mixamorig:RightHandPinky1
  m_TagString: Untagged
  m_Icon: {fileID: 0}
  m_NavMeshLayer: 0
  m_StaticEditorFlags: 0
  m_IsActive: 1
--- !u!1 &114302
GameObject:
  m_ObjectHideFlags: 0
  m_CorrespondingSourceObject: {fileID: 0}
  m_PrefabInternal: {fileID: 100100000}
  serializedVersion: 6
  m_Component:
  - component: {fileID: 495316}
  - component: {fileID: 13799678}
  m_Layer: 0
  m_Name: Tops
  m_TagString: Untagged
  m_Icon: {fileID: 0}
  m_NavMeshLayer: 0
  m_StaticEditorFlags: 0
  m_IsActive: 1
--- !u!1 &114480
GameObject:
  m_ObjectHideFlags: 0
  m_CorrespondingSourceObject: {fileID: 0}
  m_PrefabInternal: {fileID: 100100000}
  serializedVersion: 6
  m_Component:
  - component: {fileID: 471738}
  - component: {fileID: 13779542}
  m_Layer: 0
  m_Name: Bottoms
  m_TagString: Untagged
  m_Icon: {fileID: 0}
  m_NavMeshLayer: 0
  m_StaticEditorFlags: 0
  m_IsActive: 1
--- !u!1 &117236
GameObject:
  m_ObjectHideFlags: 1
  m_CorrespondingSourceObject: {fileID: 0}
  m_PrefabInternal: {fileID: 100100000}
  serializedVersion: 6
  m_Component:
  - component: {fileID: 416854}
  m_Layer: 0
  m_Name: mixamorig:RightHand
  m_TagString: Untagged
  m_Icon: {fileID: 0}
  m_NavMeshLayer: 0
  m_StaticEditorFlags: 0
  m_IsActive: 1
--- !u!1 &124856
GameObject:
  m_ObjectHideFlags: 1
  m_CorrespondingSourceObject: {fileID: 0}
  m_PrefabInternal: {fileID: 100100000}
  serializedVersion: 6
  m_Component:
  - component: {fileID: 451484}
  m_Layer: 0
  m_Name: mixamorig:LeftHandPinky1
  m_TagString: Untagged
  m_Icon: {fileID: 0}
  m_NavMeshLayer: 0
  m_StaticEditorFlags: 0
  m_IsActive: 1
--- !u!1 &125120
GameObject:
  m_ObjectHideFlags: 1
  m_CorrespondingSourceObject: {fileID: 0}
  m_PrefabInternal: {fileID: 100100000}
  serializedVersion: 6
  m_Component:
  - component: {fileID: 486578}
  m_Layer: 0
  m_Name: mixamorig:LeftHandRing2
  m_TagString: Untagged
  m_Icon: {fileID: 0}
  m_NavMeshLayer: 0
  m_StaticEditorFlags: 0
  m_IsActive: 1
--- !u!1 &126872
GameObject:
  m_ObjectHideFlags: 1
  m_CorrespondingSourceObject: {fileID: 0}
  m_PrefabInternal: {fileID: 100100000}
  serializedVersion: 6
  m_Component:
  - component: {fileID: 408590}
  m_Layer: 0
  m_Name: mixamorig:LeftHandMiddle4
  m_TagString: Untagged
  m_Icon: {fileID: 0}
  m_NavMeshLayer: 0
  m_StaticEditorFlags: 0
  m_IsActive: 1
--- !u!1 &129324
GameObject:
  m_ObjectHideFlags: 0
  m_CorrespondingSourceObject: {fileID: 0}
  m_PrefabInternal: {fileID: 100100000}
  serializedVersion: 6
  m_Component:
  - component: {fileID: 464874}
  - component: {fileID: 13706202}
  m_Layer: 0
  m_Name: Shoes
  m_TagString: Untagged
  m_Icon: {fileID: 0}
  m_NavMeshLayer: 0
  m_StaticEditorFlags: 0
  m_IsActive: 1
--- !u!1 &132940
GameObject:
  m_ObjectHideFlags: 0
  m_CorrespondingSourceObject: {fileID: 0}
  m_PrefabInternal: {fileID: 100100000}
  serializedVersion: 6
  m_Component:
  - component: {fileID: 434304}
  m_Layer: 0
  m_Name: mixamorig:Hips
  m_TagString: Untagged
  m_Icon: {fileID: 0}
  m_NavMeshLayer: 0
  m_StaticEditorFlags: 0
  m_IsActive: 1
--- !u!1 &134738
GameObject:
  m_ObjectHideFlags: 1
  m_CorrespondingSourceObject: {fileID: 0}
  m_PrefabInternal: {fileID: 100100000}
  serializedVersion: 6
  m_Component:
  - component: {fileID: 495062}
  m_Layer: 0
  m_Name: mixamorig:LeftHandIndex3
  m_TagString: Untagged
  m_Icon: {fileID: 0}
  m_NavMeshLayer: 0
  m_StaticEditorFlags: 0
  m_IsActive: 1
--- !u!1 &135312
GameObject:
  m_ObjectHideFlags: 1
  m_CorrespondingSourceObject: {fileID: 0}
  m_PrefabInternal: {fileID: 100100000}
  serializedVersion: 6
  m_Component:
  - component: {fileID: 473914}
  m_Layer: 0
  m_Name: mixamorig:LeftHandThumb1
  m_TagString: Untagged
  m_Icon: {fileID: 0}
  m_NavMeshLayer: 0
  m_StaticEditorFlags: 0
  m_IsActive: 1
--- !u!1 &136496
GameObject:
  m_ObjectHideFlags: 1
  m_CorrespondingSourceObject: {fileID: 0}
  m_PrefabInternal: {fileID: 100100000}
  serializedVersion: 6
  m_Component:
  - component: {fileID: 458860}
  m_Layer: 0
  m_Name: mixamorig:RightEye
  m_TagString: Untagged
  m_Icon: {fileID: 0}
  m_NavMeshLayer: 0
  m_StaticEditorFlags: 0
  m_IsActive: 1
--- !u!1 &137354
GameObject:
  m_ObjectHideFlags: 1
  m_CorrespondingSourceObject: {fileID: 0}
  m_PrefabInternal: {fileID: 100100000}
  serializedVersion: 6
  m_Component:
  - component: {fileID: 432718}
  m_Layer: 0
  m_Name: mixamorig:LeftHandPinky4
  m_TagString: Untagged
  m_Icon: {fileID: 0}
  m_NavMeshLayer: 0
  m_StaticEditorFlags: 0
  m_IsActive: 1
--- !u!1 &140808
GameObject:
  m_ObjectHideFlags: 1
  m_CorrespondingSourceObject: {fileID: 0}
  m_PrefabInternal: {fileID: 100100000}
  serializedVersion: 6
  m_Component:
  - component: {fileID: 413118}
  m_Layer: 0
  m_Name: mixamorig:RightHandPinky2
  m_TagString: Untagged
  m_Icon: {fileID: 0}
  m_NavMeshLayer: 0
  m_StaticEditorFlags: 0
  m_IsActive: 1
--- !u!1 &141292
GameObject:
  m_ObjectHideFlags: 1
  m_CorrespondingSourceObject: {fileID: 0}
  m_PrefabInternal: {fileID: 100100000}
  serializedVersion: 6
  m_Component:
  - component: {fileID: 485612}
  m_Layer: 0
  m_Name: mixamorig:LeftToe_End
  m_TagString: Untagged
  m_Icon: {fileID: 0}
  m_NavMeshLayer: 0
  m_StaticEditorFlags: 0
  m_IsActive: 1
--- !u!1 &144010
GameObject:
  m_ObjectHideFlags: 1
  m_CorrespondingSourceObject: {fileID: 0}
  m_PrefabInternal: {fileID: 100100000}
  serializedVersion: 6
  m_Component:
  - component: {fileID: 456994}
  m_Layer: 0
  m_Name: mixamorig:RightHandIndex4
  m_TagString: Untagged
  m_Icon: {fileID: 0}
  m_NavMeshLayer: 0
  m_StaticEditorFlags: 0
  m_IsActive: 1
--- !u!1 &144060
GameObject:
  m_ObjectHideFlags: 1
  m_CorrespondingSourceObject: {fileID: 0}
  m_PrefabInternal: {fileID: 100100000}
  serializedVersion: 6
  m_Component:
  - component: {fileID: 447654}
  m_Layer: 0
  m_Name: mixamorig:LeftHandMiddle1
  m_TagString: Untagged
  m_Icon: {fileID: 0}
  m_NavMeshLayer: 0
  m_StaticEditorFlags: 0
  m_IsActive: 1
--- !u!1 &146508
GameObject:
  m_ObjectHideFlags: 1
  m_CorrespondingSourceObject: {fileID: 0}
  m_PrefabInternal: {fileID: 100100000}
  serializedVersion: 6
  m_Component:
  - component: {fileID: 470628}
  m_Layer: 0
  m_Name: mixamorig:RightForeArm
  m_TagString: Untagged
  m_Icon: {fileID: 0}
  m_NavMeshLayer: 0
  m_StaticEditorFlags: 0
  m_IsActive: 1
--- !u!1 &146612
GameObject:
  m_ObjectHideFlags: 1
  m_CorrespondingSourceObject: {fileID: 0}
  m_PrefabInternal: {fileID: 100100000}
  serializedVersion: 6
  m_Component:
  - component: {fileID: 471858}
  m_Layer: 0
  m_Name: mixamorig:RightHandPinky4
  m_TagString: Untagged
  m_Icon: {fileID: 0}
  m_NavMeshLayer: 0
  m_StaticEditorFlags: 0
  m_IsActive: 1
--- !u!1 &148210
GameObject:
  m_ObjectHideFlags: 1
  m_CorrespondingSourceObject: {fileID: 0}
  m_PrefabInternal: {fileID: 100100000}
  serializedVersion: 6
  m_Component:
  - component: {fileID: 498572}
  m_Layer: 0
  m_Name: mixamorig:LeftToeBase
  m_TagString: Untagged
  m_Icon: {fileID: 0}
  m_NavMeshLayer: 0
  m_StaticEditorFlags: 0
  m_IsActive: 1
--- !u!1 &148526
GameObject:
  m_ObjectHideFlags: 1
  m_CorrespondingSourceObject: {fileID: 0}
  m_PrefabInternal: {fileID: 100100000}
  serializedVersion: 6
  m_Component:
  - component: {fileID: 433958}
  m_Layer: 0
  m_Name: mixamorig:Spine
  m_TagString: Untagged
  m_Icon: {fileID: 0}
  m_NavMeshLayer: 0
  m_StaticEditorFlags: 0
  m_IsActive: 1
--- !u!1 &148826
GameObject:
  m_ObjectHideFlags: 1
  m_CorrespondingSourceObject: {fileID: 0}
  m_PrefabInternal: {fileID: 100100000}
  serializedVersion: 6
  m_Component:
  - component: {fileID: 493858}
  m_Layer: 0
  m_Name: mixamorig:RightHandPinky3
  m_TagString: Untagged
  m_Icon: {fileID: 0}
  m_NavMeshLayer: 0
  m_StaticEditorFlags: 0
  m_IsActive: 1
--- !u!1 &150076
GameObject:
  m_ObjectHideFlags: 1
  m_CorrespondingSourceObject: {fileID: 0}
  m_PrefabInternal: {fileID: 100100000}
  serializedVersion: 6
  m_Component:
  - component: {fileID: 441322}
  m_Layer: 0
  m_Name: mixamorig:LeftArm
  m_TagString: Untagged
  m_Icon: {fileID: 0}
  m_NavMeshLayer: 0
  m_StaticEditorFlags: 0
  m_IsActive: 1
--- !u!1 &151300
GameObject:
  m_ObjectHideFlags: 1
  m_CorrespondingSourceObject: {fileID: 0}
  m_PrefabInternal: {fileID: 100100000}
  serializedVersion: 6
  m_Component:
  - component: {fileID: 416916}
  m_Layer: 0
  m_Name: mixamorig:RightToe_End
  m_TagString: Untagged
  m_Icon: {fileID: 0}
  m_NavMeshLayer: 0
  m_StaticEditorFlags: 0
  m_IsActive: 1
--- !u!1 &151964
GameObject:
  m_ObjectHideFlags: 1
  m_CorrespondingSourceObject: {fileID: 0}
  m_PrefabInternal: {fileID: 100100000}
  serializedVersion: 6
  m_Component:
  - component: {fileID: 455562}
  m_Layer: 0
  m_Name: mixamorig:RightHandRing2
  m_TagString: Untagged
  m_Icon: {fileID: 0}
  m_NavMeshLayer: 0
  m_StaticEditorFlags: 0
  m_IsActive: 1
--- !u!1 &152868
GameObject:
  m_ObjectHideFlags: 1
  m_CorrespondingSourceObject: {fileID: 0}
  m_PrefabInternal: {fileID: 100100000}
  serializedVersion: 6
  m_Component:
  - component: {fileID: 461834}
  m_Layer: 0
  m_Name: mixamorig:LeftHandIndex2
  m_TagString: Untagged
  m_Icon: {fileID: 0}
  m_NavMeshLayer: 0
  m_StaticEditorFlags: 0
  m_IsActive: 1
--- !u!1 &154386
GameObject:
  m_ObjectHideFlags: 1
  m_CorrespondingSourceObject: {fileID: 0}
  m_PrefabInternal: {fileID: 100100000}
  serializedVersion: 6
  m_Component:
  - component: {fileID: 408096}
  m_Layer: 0
  m_Name: mixamorig:RightToeBase
  m_TagString: Untagged
  m_Icon: {fileID: 0}
  m_NavMeshLayer: 0
  m_StaticEditorFlags: 0
  m_IsActive: 1
--- !u!1 &154596
GameObject:
  m_ObjectHideFlags: 1
  m_CorrespondingSourceObject: {fileID: 0}
  m_PrefabInternal: {fileID: 100100000}
  serializedVersion: 6
  m_Component:
  - component: {fileID: 451832}
  m_Layer: 0
  m_Name: mixamorig:RightHandThumb2
  m_TagString: Untagged
  m_Icon: {fileID: 0}
  m_NavMeshLayer: 0
  m_StaticEditorFlags: 0
  m_IsActive: 1
--- !u!1 &155128
GameObject:
  m_ObjectHideFlags: 1
  m_CorrespondingSourceObject: {fileID: 0}
  m_PrefabInternal: {fileID: 100100000}
  serializedVersion: 6
  m_Component:
  - component: {fileID: 473318}
  m_Layer: 0
  m_Name: mixamorig:LeftHandMiddle3
  m_TagString: Untagged
  m_Icon: {fileID: 0}
  m_NavMeshLayer: 0
  m_StaticEditorFlags: 0
  m_IsActive: 1
--- !u!1 &155412
GameObject:
  m_ObjectHideFlags: 1
  m_CorrespondingSourceObject: {fileID: 0}
  m_PrefabInternal: {fileID: 100100000}
  serializedVersion: 6
  m_Component:
  - component: {fileID: 452376}
  m_Layer: 0
  m_Name: mixamorig:RightHandThumb1
  m_TagString: Untagged
  m_Icon: {fileID: 0}
  m_NavMeshLayer: 0
  m_StaticEditorFlags: 0
  m_IsActive: 1
--- !u!1 &157294
GameObject:
  m_ObjectHideFlags: 1
  m_CorrespondingSourceObject: {fileID: 0}
  m_PrefabInternal: {fileID: 100100000}
  serializedVersion: 6
  m_Component:
  - component: {fileID: 497070}
  m_Layer: 0
  m_Name: mixamorig:LeftHandPinky3
  m_TagString: Untagged
  m_Icon: {fileID: 0}
  m_NavMeshLayer: 0
  m_StaticEditorFlags: 0
  m_IsActive: 1
--- !u!1 &159500
GameObject:
  m_ObjectHideFlags: 1
  m_CorrespondingSourceObject: {fileID: 0}
  m_PrefabInternal: {fileID: 100100000}
  serializedVersion: 6
  m_Component:
  - component: {fileID: 461536}
  m_Layer: 0
  m_Name: mixamorig:HeadTop_End
  m_TagString: Untagged
  m_Icon: {fileID: 0}
  m_NavMeshLayer: 0
  m_StaticEditorFlags: 0
  m_IsActive: 1
--- !u!1 &160572
GameObject:
  m_ObjectHideFlags: 1
  m_CorrespondingSourceObject: {fileID: 0}
  m_PrefabInternal: {fileID: 100100000}
  serializedVersion: 6
  m_Component:
  - component: {fileID: 439308}
  m_Layer: 0
  m_Name: mixamorig:RightHandRing1
  m_TagString: Untagged
  m_Icon: {fileID: 0}
  m_NavMeshLayer: 0
  m_StaticEditorFlags: 0
  m_IsActive: 1
--- !u!1 &160744
GameObject:
  m_ObjectHideFlags: 1
  m_CorrespondingSourceObject: {fileID: 0}
  m_PrefabInternal: {fileID: 100100000}
  serializedVersion: 6
  m_Component:
  - component: {fileID: 439230}
  m_Layer: 0
  m_Name: mixamorig:LeftHandRing3
  m_TagString: Untagged
  m_Icon: {fileID: 0}
  m_NavMeshLayer: 0
  m_StaticEditorFlags: 0
  m_IsActive: 1
--- !u!1 &161374
GameObject:
  m_ObjectHideFlags: 1
  m_CorrespondingSourceObject: {fileID: 0}
  m_PrefabInternal: {fileID: 100100000}
  serializedVersion: 6
  m_Component:
  - component: {fileID: 457122}
  m_Layer: 0
  m_Name: mixamorig:RightHandMiddle1
  m_TagString: Untagged
  m_Icon: {fileID: 0}
  m_NavMeshLayer: 0
  m_StaticEditorFlags: 0
  m_IsActive: 1
--- !u!1 &162052
GameObject:
  m_ObjectHideFlags: 1
  m_CorrespondingSourceObject: {fileID: 0}
  m_PrefabInternal: {fileID: 100100000}
  serializedVersion: 6
  m_Component:
  - component: {fileID: 475456}
  m_Layer: 0
  m_Name: mixamorig:LeftHandThumb4
  m_TagString: Untagged
  m_Icon: {fileID: 0}
  m_NavMeshLayer: 0
  m_StaticEditorFlags: 0
  m_IsActive: 1
--- !u!1 &163082
GameObject:
  m_ObjectHideFlags: 1
  m_CorrespondingSourceObject: {fileID: 0}
  m_PrefabInternal: {fileID: 100100000}
  serializedVersion: 6
  m_Component:
  - component: {fileID: 453562}
  m_Layer: 0
  m_Name: mixamorig:RightHandThumb3
  m_TagString: Untagged
  m_Icon: {fileID: 0}
  m_NavMeshLayer: 0
  m_StaticEditorFlags: 0
  m_IsActive: 1
--- !u!1 &163366
GameObject:
  m_ObjectHideFlags: 1
  m_CorrespondingSourceObject: {fileID: 0}
  m_PrefabInternal: {fileID: 100100000}
  serializedVersion: 6
  m_Component:
  - component: {fileID: 405698}
  m_Layer: 0
  m_Name: mixamorig:RightUpLeg
  m_TagString: Untagged
  m_Icon: {fileID: 0}
  m_NavMeshLayer: 0
  m_StaticEditorFlags: 0
  m_IsActive: 1
--- !u!1 &163720
GameObject:
  m_ObjectHideFlags: 1
  m_CorrespondingSourceObject: {fileID: 0}
  m_PrefabInternal: {fileID: 100100000}
  serializedVersion: 6
  m_Component:
  - component: {fileID: 497780}
  m_Layer: 0
  m_Name: mixamorig:LeftHandRing4
  m_TagString: Untagged
  m_Icon: {fileID: 0}
  m_NavMeshLayer: 0
  m_StaticEditorFlags: 0
  m_IsActive: 1
--- !u!1 &165804
GameObject:
  m_ObjectHideFlags: 1
  m_CorrespondingSourceObject: {fileID: 0}
  m_PrefabInternal: {fileID: 100100000}
  serializedVersion: 6
  m_Component:
  - component: {fileID: 485652}
  m_Layer: 0
  m_Name: mixamorig:RightHandIndex3
  m_TagString: Untagged
  m_Icon: {fileID: 0}
  m_NavMeshLayer: 0
  m_StaticEditorFlags: 0
  m_IsActive: 1
--- !u!1 &166322
GameObject:
  m_ObjectHideFlags: 1
  m_CorrespondingSourceObject: {fileID: 0}
  m_PrefabInternal: {fileID: 100100000}
  serializedVersion: 6
  m_Component:
  - component: {fileID: 492044}
  m_Layer: 0
  m_Name: mixamorig:LeftHandThumb3
  m_TagString: Untagged
  m_Icon: {fileID: 0}
  m_NavMeshLayer: 0
  m_StaticEditorFlags: 0
  m_IsActive: 1
--- !u!1 &167852
GameObject:
  m_ObjectHideFlags: 0
  m_CorrespondingSourceObject: {fileID: 0}
  m_PrefabInternal: {fileID: 100100000}
  serializedVersion: 6
  m_Component:
  - component: {fileID: 475618}
  - component: {fileID: 13798914}
  m_Layer: 0
  m_Name: default
  m_TagString: Untagged
  m_Icon: {fileID: 0}
  m_NavMeshLayer: 0
  m_StaticEditorFlags: 0
  m_IsActive: 1
--- !u!1 &168564
GameObject:
  m_ObjectHideFlags: 0
  m_CorrespondingSourceObject: {fileID: 0}
  m_PrefabInternal: {fileID: 100100000}
  serializedVersion: 6
  m_Component:
  - component: {fileID: 444828}
  - component: {fileID: 13705084}
  m_Layer: 0
  m_Name: Body
  m_TagString: Untagged
  m_Icon: {fileID: 0}
  m_NavMeshLayer: 0
  m_StaticEditorFlags: 0
  m_IsActive: 1
--- !u!1 &170376
GameObject:
  m_ObjectHideFlags: 1
  m_CorrespondingSourceObject: {fileID: 0}
  m_PrefabInternal: {fileID: 100100000}
  serializedVersion: 6
  m_Component:
  - component: {fileID: 400362}
  m_Layer: 0
  m_Name: mixamorig:LeftHandPinky2
  m_TagString: Untagged
  m_Icon: {fileID: 0}
  m_NavMeshLayer: 0
  m_StaticEditorFlags: 0
  m_IsActive: 1
--- !u!1 &170862
GameObject:
  m_ObjectHideFlags: 1
  m_CorrespondingSourceObject: {fileID: 0}
  m_PrefabInternal: {fileID: 100100000}
  serializedVersion: 6
  m_Component:
  - component: {fileID: 439310}
  m_Layer: 0
  m_Name: mixamorig:RightHandMiddle4
  m_TagString: Untagged
  m_Icon: {fileID: 0}
  m_NavMeshLayer: 0
  m_StaticEditorFlags: 0
  m_IsActive: 1
--- !u!1 &171296
GameObject:
  m_ObjectHideFlags: 1
  m_CorrespondingSourceObject: {fileID: 0}
  m_PrefabInternal: {fileID: 100100000}
  serializedVersion: 6
  m_Component:
  - component: {fileID: 482162}
  m_Layer: 0
  m_Name: mixamorig:RightHandIndex1
  m_TagString: Untagged
  m_Icon: {fileID: 0}
  m_NavMeshLayer: 0
  m_StaticEditorFlags: 0
  m_IsActive: 1
--- !u!1 &171402
GameObject:
  m_ObjectHideFlags: 0
  m_CorrespondingSourceObject: {fileID: 0}
  m_PrefabInternal: {fileID: 100100000}
  serializedVersion: 6
  m_Component:
  - component: {fileID: 476046}
  - component: {fileID: 11493072}
  - component: {fileID: 11133816}
  m_Layer: 0
  m_Name: PlayerRegina
  m_TagString: Untagged
  m_Icon: {fileID: 0}
  m_NavMeshLayer: 0
  m_StaticEditorFlags: 0
  m_IsActive: 1
--- !u!1 &173108
GameObject:
  m_ObjectHideFlags: 1
  m_CorrespondingSourceObject: {fileID: 0}
  m_PrefabInternal: {fileID: 100100000}
  serializedVersion: 6
  m_Component:
  - component: {fileID: 427084}
  m_Layer: 0
  m_Name: mixamorig:LeftFoot
  m_TagString: Untagged
  m_Icon: {fileID: 0}
  m_NavMeshLayer: 0
  m_StaticEditorFlags: 0
  m_IsActive: 1
--- !u!1 &173190
GameObject:
  m_ObjectHideFlags: 1
  m_CorrespondingSourceObject: {fileID: 0}
  m_PrefabInternal: {fileID: 100100000}
  serializedVersion: 6
  m_Component:
  - component: {fileID: 436082}
  m_Layer: 0
  m_Name: mixamorig:RightShoulder
  m_TagString: Untagged
  m_Icon: {fileID: 0}
  m_NavMeshLayer: 0
  m_StaticEditorFlags: 0
  m_IsActive: 1
--- !u!1 &174510
GameObject:
  m_ObjectHideFlags: 1
  m_CorrespondingSourceObject: {fileID: 0}
  m_PrefabInternal: {fileID: 100100000}
  serializedVersion: 6
  m_Component:
  - component: {fileID: 497202}
  m_Layer: 0
  m_Name: mixamorig:RightHandRing3
  m_TagString: Untagged
  m_Icon: {fileID: 0}
  m_NavMeshLayer: 0
  m_StaticEditorFlags: 0
  m_IsActive: 1
--- !u!1 &175670
GameObject:
  m_ObjectHideFlags: 0
  m_CorrespondingSourceObject: {fileID: 0}
  m_PrefabInternal: {fileID: 100100000}
  serializedVersion: 6
  m_Component:
  - component: {fileID: 458280}
  - component: {fileID: 13791504}
  m_Layer: 0
  m_Name: Eyes
  m_TagString: Untagged
  m_Icon: {fileID: 0}
  m_NavMeshLayer: 0
  m_StaticEditorFlags: 0
  m_IsActive: 1
--- !u!1 &178342
GameObject:
  m_ObjectHideFlags: 0
  m_CorrespondingSourceObject: {fileID: 0}
  m_PrefabInternal: {fileID: 100100000}
  serializedVersion: 6
  m_Component:
  - component: {fileID: 465448}
  - component: {fileID: 13773390}
  m_Layer: 0
  m_Name: Hats
  m_TagString: Untagged
  m_Icon: {fileID: 0}
  m_NavMeshLayer: 0
  m_StaticEditorFlags: 0
  m_IsActive: 1
--- !u!1 &180598
GameObject:
  m_ObjectHideFlags: 1
  m_CorrespondingSourceObject: {fileID: 0}
  m_PrefabInternal: {fileID: 100100000}
  serializedVersion: 6
  m_Component:
  - component: {fileID: 414304}
  m_Layer: 0
  m_Name: mixamorig:RightLeg
  m_TagString: Untagged
  m_Icon: {fileID: 0}
  m_NavMeshLayer: 0
  m_StaticEditorFlags: 0
  m_IsActive: 1
--- !u!1 &180600
GameObject:
  m_ObjectHideFlags: 1
  m_CorrespondingSourceObject: {fileID: 0}
  m_PrefabInternal: {fileID: 100100000}
  serializedVersion: 6
  m_Component:
  - component: {fileID: 479208}
  m_Layer: 0
  m_Name: mixamorig:LeftEye
  m_TagString: Untagged
  m_Icon: {fileID: 0}
  m_NavMeshLayer: 0
  m_StaticEditorFlags: 0
  m_IsActive: 1
--- !u!1 &183042
GameObject:
  m_ObjectHideFlags: 1
  m_CorrespondingSourceObject: {fileID: 0}
  m_PrefabInternal: {fileID: 100100000}
  serializedVersion: 6
  m_Component:
  - component: {fileID: 441662}
  m_Layer: 0
  m_Name: mixamorig:Spine1
  m_TagString: Untagged
  m_Icon: {fileID: 0}
  m_NavMeshLayer: 0
  m_StaticEditorFlags: 0
  m_IsActive: 1
--- !u!1 &183106
GameObject:
  m_ObjectHideFlags: 1
  m_CorrespondingSourceObject: {fileID: 0}
  m_PrefabInternal: {fileID: 100100000}
  serializedVersion: 6
  m_Component:
  - component: {fileID: 416600}
  m_Layer: 0
  m_Name: mixamorig:LeftHandRing1
  m_TagString: Untagged
  m_Icon: {fileID: 0}
  m_NavMeshLayer: 0
  m_StaticEditorFlags: 0
  m_IsActive: 1
--- !u!1 &185472
GameObject:
  m_ObjectHideFlags: 1
  m_CorrespondingSourceObject: {fileID: 0}
  m_PrefabInternal: {fileID: 100100000}
  serializedVersion: 6
  m_Component:
  - component: {fileID: 455404}
  m_Layer: 0
  m_Name: mixamorig:RightHandIndex2
  m_TagString: Untagged
  m_Icon: {fileID: 0}
  m_NavMeshLayer: 0
  m_StaticEditorFlags: 0
  m_IsActive: 1
--- !u!1 &187756
GameObject:
  m_ObjectHideFlags: 1
  m_CorrespondingSourceObject: {fileID: 0}
  m_PrefabInternal: {fileID: 100100000}
  serializedVersion: 6
  m_Component:
  - component: {fileID: 429988}
  m_Layer: 0
  m_Name: mixamorig:LeftForeArm
  m_TagString: Untagged
  m_Icon: {fileID: 0}
  m_NavMeshLayer: 0
  m_StaticEditorFlags: 0
  m_IsActive: 1
--- !u!1 &187832
GameObject:
  m_ObjectHideFlags: 0
  m_CorrespondingSourceObject: {fileID: 0}
  m_PrefabInternal: {fileID: 100100000}
  serializedVersion: 6
  m_Component:
  - component: {fileID: 486588}
  - component: {fileID: 13784798}
  m_Layer: 0
  m_Name: Hair
  m_TagString: Untagged
  m_Icon: {fileID: 0}
  m_NavMeshLayer: 0
  m_StaticEditorFlags: 0
  m_IsActive: 1
--- !u!1 &188694
GameObject:
  m_ObjectHideFlags: 1
  m_CorrespondingSourceObject: {fileID: 0}
  m_PrefabInternal: {fileID: 100100000}
  serializedVersion: 6
  m_Component:
  - component: {fileID: 494596}
  m_Layer: 0
  m_Name: mixamorig:LeftUpLeg
  m_TagString: Untagged
  m_Icon: {fileID: 0}
  m_NavMeshLayer: 0
  m_StaticEditorFlags: 0
  m_IsActive: 1
--- !u!1 &188962
GameObject:
  m_ObjectHideFlags: 1
  m_CorrespondingSourceObject: {fileID: 0}
  m_PrefabInternal: {fileID: 100100000}
  serializedVersion: 6
  m_Component:
  - component: {fileID: 476132}
  m_Layer: 0
  m_Name: mixamorig:LeftLeg
  m_TagString: Untagged
  m_Icon: {fileID: 0}
  m_NavMeshLayer: 0
  m_StaticEditorFlags: 0
  m_IsActive: 1
--- !u!1 &189046
GameObject:
  m_ObjectHideFlags: 1
  m_CorrespondingSourceObject: {fileID: 0}
  m_PrefabInternal: {fileID: 100100000}
  serializedVersion: 6
  m_Component:
  - component: {fileID: 433338}
  m_Layer: 0
  m_Name: mixamorig:Neck
  m_TagString: Untagged
  m_Icon: {fileID: 0}
  m_NavMeshLayer: 0
  m_StaticEditorFlags: 0
  m_IsActive: 1
--- !u!1 &189678
GameObject:
  m_ObjectHideFlags: 1
  m_CorrespondingSourceObject: {fileID: 0}
  m_PrefabInternal: {fileID: 100100000}
  serializedVersion: 6
  m_Component:
  - component: {fileID: 495876}
  m_Layer: 0
  m_Name: mixamorig:RightHandMiddle2
  m_TagString: Untagged
  m_Icon: {fileID: 0}
  m_NavMeshLayer: 0
  m_StaticEditorFlags: 0
  m_IsActive: 1
--- !u!1 &190156
GameObject:
  m_ObjectHideFlags: 1
  m_CorrespondingSourceObject: {fileID: 0}
  m_PrefabInternal: {fileID: 100100000}
  serializedVersion: 6
  m_Component:
  - component: {fileID: 401722}
  m_Layer: 0
  m_Name: mixamorig:RightHandThumb4
  m_TagString: Untagged
  m_Icon: {fileID: 0}
  m_NavMeshLayer: 0
  m_StaticEditorFlags: 0
  m_IsActive: 1
--- !u!1 &195376
GameObject:
  m_ObjectHideFlags: 1
  m_CorrespondingSourceObject: {fileID: 0}
  m_PrefabInternal: {fileID: 100100000}
  serializedVersion: 6
  m_Component:
  - component: {fileID: 447618}
  m_Layer: 0
  m_Name: mixamorig:RightHandMiddle3
  m_TagString: Untagged
  m_Icon: {fileID: 0}
  m_NavMeshLayer: 0
  m_StaticEditorFlags: 0
  m_IsActive: 1
--- !u!1 &195764
GameObject:
  m_ObjectHideFlags: 1
  m_CorrespondingSourceObject: {fileID: 0}
  m_PrefabInternal: {fileID: 100100000}
  serializedVersion: 6
  m_Component:
  - component: {fileID: 460038}
  m_Layer: 0
  m_Name: mixamorig:RightArm
  m_TagString: Untagged
  m_Icon: {fileID: 0}
  m_NavMeshLayer: 0
  m_StaticEditorFlags: 0
  m_IsActive: 1
--- !u!4 &400362
Transform:
  m_ObjectHideFlags: 1
  m_CorrespondingSourceObject: {fileID: 0}
  m_PrefabInternal: {fileID: 100100000}
  m_GameObject: {fileID: 170376}
  m_LocalRotation: {x: 0.00000012359006, y: -0.00004058596, z: -0.013978543, w: 0.9999023}
  m_LocalPosition: {x: 0.00055758207, y: 0.048942983, z: -5.684342e-16}
  m_LocalScale: {x: 1, y: 1, z: 1}
  m_Children:
  - {fileID: 497070}
  m_Father: {fileID: 451484}
  m_RootOrder: 0
  m_LocalEulerAnglesHint: {x: 0, y: -0.0047, z: -1.6019}
--- !u!4 &401522
Transform:
  m_ObjectHideFlags: 1
  m_CorrespondingSourceObject: {fileID: 0}
  m_PrefabInternal: {fileID: 100100000}
  m_GameObject: {fileID: 100016}
  m_LocalRotation: {x: 6.061143e-39, y: -5.421011e-20, z: 1.1180835e-19, w: 1}
  m_LocalPosition: {x: -0, y: 0.21729271, z: 0}
  m_LocalScale: {x: 1, y: 1, z: 1}
  m_Children:
  - {fileID: 444122}
  - {fileID: 433338}
  - {fileID: 436082}
  m_Father: {fileID: 441662}
  m_RootOrder: 0
  m_LocalEulerAnglesHint: {x: 0, y: 0, z: 0}
--- !u!4 &401722
Transform:
  m_ObjectHideFlags: 1
  m_CorrespondingSourceObject: {fileID: 0}
  m_PrefabInternal: {fileID: 100100000}
  m_GameObject: {fileID: 190156}
  m_LocalRotation: {x: 0, y: 0, z: 0, w: 1}
  m_LocalPosition: {x: -0.0021227067, y: 0.04510858, z: 0}
  m_LocalScale: {x: 1, y: 1, z: 1}
  m_Children: []
  m_Father: {fileID: 453562}
  m_RootOrder: 0
  m_LocalEulerAnglesHint: {x: 0, y: 0, z: 0}
--- !u!4 &405698
Transform:
  m_ObjectHideFlags: 1
  m_CorrespondingSourceObject: {fileID: 0}
  m_PrefabInternal: {fileID: 100100000}
  m_GameObject: {fileID: 163366}
  m_LocalRotation: {x: 0.000030607964, y: 0.02810152, z: 0.9995953, w: 0.0044225184}
  m_LocalPosition: {x: 0.17163675, y: -0.13178997, z: 0.003873493}
  m_LocalScale: {x: 1, y: 1, z: 1}
  m_Children:
  - {fileID: 414304}
  m_Father: {fileID: 434304}
  m_RootOrder: 1
  m_LocalEulerAnglesHint: {x: -3.2206, y: 0.0178, z: 179.4925}
--- !u!4 &408096
Transform:
  m_ObjectHideFlags: 1
  m_CorrespondingSourceObject: {fileID: 0}
  m_PrefabInternal: {fileID: 100100000}
  m_GameObject: {fileID: 154386}
  m_LocalRotation: {x: 0.39021283, y: 0.02166248, z: -0.009183776, w: 0.92042404}
  m_LocalPosition: {x: 3.5527136e-17, y: 0.26586354, z: 0}
  m_LocalScale: {x: 1, y: 1, z: 1}
  m_Children:
  - {fileID: 416916}
  m_Father: {fileID: 497560}
  m_RootOrder: 0
  m_LocalEulerAnglesHint: {x: 45.9489, y: 2.6964998, z: 0}
--- !u!4 &408590
Transform:
  m_ObjectHideFlags: 1
  m_CorrespondingSourceObject: {fileID: 0}
  m_PrefabInternal: {fileID: 100100000}
  m_GameObject: {fileID: 126872}
  m_LocalRotation: {x: 0, y: 0, z: 0, w: 1}
  m_LocalPosition: {x: -0.000102303326, y: 0.06602154, z: 0}
  m_LocalScale: {x: 1, y: 1, z: 1}
  m_Children: []
  m_Father: {fileID: 473318}
  m_RootOrder: 0
  m_LocalEulerAnglesHint: {x: 0, y: 0, z: 0}
--- !u!4 &413118
Transform:
  m_ObjectHideFlags: 1
  m_CorrespondingSourceObject: {fileID: 0}
  m_PrefabInternal: {fileID: 100100000}
  m_GameObject: {fileID: 140808}
  m_LocalRotation: {x: 0.0000003151589, y: -0.00002385194, z: 0.026030252, w: 0.99966115}
  m_LocalPosition: {x: -0.0019611388, y: 0.053614955, z: 5.684342e-16}
  m_LocalScale: {x: 1, y: 1, z: 1}
  m_Children:
  - {fileID: 493858}
  m_Father: {fileID: 497916}
  m_RootOrder: 0
  m_LocalEulerAnglesHint: {x: 0.0001, y: -0.0026999998, z: 2.9831998}
--- !u!4 &414304
Transform:
  m_ObjectHideFlags: 1
  m_CorrespondingSourceObject: {fileID: 0}
  m_PrefabInternal: {fileID: 100100000}
  m_GameObject: {fileID: 180598}
  m_LocalRotation: {x: -0.08702776, y: -0.0004672593, z: 0.0075666145, w: 0.9961771}
  m_LocalPosition: {x: -0, y: 0.8034513, z: 0}
  m_LocalScale: {x: 1, y: 1, z: 1}
  m_Children:
  - {fileID: 497560}
  m_Father: {fileID: 405698}
  m_RootOrder: 0
  m_LocalEulerAnglesHint: {x: -9.9846, y: -0.1308, z: 0.8818}
--- !u!4 &416600
Transform:
  m_ObjectHideFlags: 1
  m_CorrespondingSourceObject: {fileID: 0}
  m_PrefabInternal: {fileID: 100100000}
  m_GameObject: {fileID: 183106}
  m_LocalRotation: {x: -0.0054656137, y: -0.0022545531, z: -0.05204889, w: 0.99862707}
  m_LocalPosition: {x: -0.01769442, y: 0.19463757, z: -0.0035343766}
  m_LocalScale: {x: 1, y: 1, z: 1}
  m_Children:
  - {fileID: 486578}
  m_Father: {fileID: 417972}
  m_RootOrder: 3
  m_LocalEulerAnglesHint: {x: -0.6389, y: -0.22549999, z: -5.9659}
--- !u!4 &416854
Transform:
  m_ObjectHideFlags: 1
  m_CorrespondingSourceObject: {fileID: 0}
  m_PrefabInternal: {fileID: 100100000}
  m_GameObject: {fileID: 117236}
  m_LocalRotation: {x: 0.011298234, y: -0.06767083, z: -0.039243303, w: 0.9968716}
  m_LocalPosition: {x: -0, y: 0.43644905, z: 0}
  m_LocalScale: {x: 1, y: 1, z: 1}
  m_Children:
  - {fileID: 482162}
  - {fileID: 457122}
  - {fileID: 497916}
  - {fileID: 439308}
  - {fileID: 452376}
  m_Father: {fileID: 470628}
  m_RootOrder: 0
  m_LocalEulerAnglesHint: {x: 0.98639995, y: -7.8062997, z: -4.5759997}
--- !u!4 &416916
Transform:
  m_ObjectHideFlags: 1
  m_CorrespondingSourceObject: {fileID: 0}
  m_PrefabInternal: {fileID: 100100000}
  m_GameObject: {fileID: 151300}
  m_LocalRotation: {x: 0, y: 0, z: 0, w: 1}
  m_LocalPosition: {x: -3.5527136e-17, y: 0.18411209, z: -1.110223e-18}
  m_LocalScale: {x: 1, y: 1, z: 1}
  m_Children: []
  m_Father: {fileID: 408096}
  m_RootOrder: 0
  m_LocalEulerAnglesHint: {x: 0, y: 0, z: 0}
--- !u!4 &417972
Transform:
  m_ObjectHideFlags: 1
  m_CorrespondingSourceObject: {fileID: 0}
  m_PrefabInternal: {fileID: 100100000}
  m_GameObject: {fileID: 109994}
  m_LocalRotation: {x: 0.009164935, y: 0.09301844, z: 0.039996937, w: 0.9948185}
  m_LocalPosition: {x: -0, y: 0.44030058, z: 0}
  m_LocalScale: {x: 1, y: 1, z: 1}
  m_Children:
  - {fileID: 493390}
  - {fileID: 447654}
  - {fileID: 451484}
  - {fileID: 416600}
  - {fileID: 473914}
  m_Father: {fileID: 429988}
  m_RootOrder: 0
  m_LocalEulerAnglesHint: {x: 0.6185, y: 10.708799, z: 4.6626997}
--- !u!4 &427084
Transform:
  m_ObjectHideFlags: 1
  m_CorrespondingSourceObject: {fileID: 0}
  m_PrefabInternal: {fileID: 100100000}
  m_GameObject: {fileID: 173108}
  m_LocalRotation: {x: 0.43689314, y: -0.08001775, z: 0.032164913, w: 0.8953697}
  m_LocalPosition: {x: -0, y: 0.8221937, z: 1.7763568e-17}
  m_LocalScale: {x: 1, y: 1, z: 1}
  m_Children:
  - {fileID: 498572}
  m_Father: {fileID: 476132}
  m_RootOrder: 0
  m_LocalEulerAnglesHint: {x: 51.9534, y: -10.7719, z: -1.1453999}
--- !u!4 &429988
Transform:
  m_ObjectHideFlags: 1
  m_CorrespondingSourceObject: {fileID: 0}
  m_PrefabInternal: {fileID: 100100000}
  m_GameObject: {fileID: 187756}
  m_LocalRotation: {x: -0.00000013713895, y: 0.000043063417, z: -0.00000008378019,
    w: 1}
  m_LocalPosition: {x: -0, y: 0.53431344, z: 0}
  m_LocalScale: {x: 1, y: 1, z: 1}
  m_Children:
  - {fileID: 417972}
  m_Father: {fileID: 441322}
  m_RootOrder: 0
  m_LocalEulerAnglesHint: {x: 0, y: 0.0049, z: 0}
--- !u!4 &432718
Transform:
  m_ObjectHideFlags: 1
  m_CorrespondingSourceObject: {fileID: 0}
  m_PrefabInternal: {fileID: 100100000}
  m_GameObject: {fileID: 137354}
  m_LocalRotation: {x: 0, y: 0, z: 0, w: 1}
  m_LocalPosition: {x: -0.00009545728, y: 0.03182479, z: 0}
  m_LocalScale: {x: 1, y: 1, z: 1}
  m_Children: []
  m_Father: {fileID: 497070}
  m_RootOrder: 0
  m_LocalEulerAnglesHint: {x: 0, y: 0, z: 0}
--- !u!4 &433338
Transform:
  m_ObjectHideFlags: 1
  m_CorrespondingSourceObject: {fileID: 0}
  m_PrefabInternal: {fileID: 100100000}
  m_GameObject: {fileID: 189046}
  m_LocalRotation: {x: 0.013368384, y: -0.00032655033, z: 0.003227791, w: 0.9999054}
  m_LocalPosition: {x: -0.0009299961, y: 0.2426881, z: 0.012282429}
  m_LocalScale: {x: 1, y: 1, z: 1}
  m_Children:
  - {fileID: 459956}
  m_Father: {fileID: 401522}
  m_RootOrder: 1
  m_LocalEulerAnglesHint: {x: 1.5321, y: -0.0325, z: 0.36949998}
--- !u!4 &433958
Transform:
  m_ObjectHideFlags: 1
  m_CorrespondingSourceObject: {fileID: 0}
  m_PrefabInternal: {fileID: 100100000}
  m_GameObject: {fileID: 148526}
  m_LocalRotation: {x: -0.034155425, y: 0.0002962378, z: -0.008047401, w: 0.9993841}
  m_LocalPosition: {x: -0.00044598608, y: 0.17963174, z: -0.012442382}
  m_LocalScale: {x: 1, y: 1, z: 1}
  m_Children:
  - {fileID: 441662}
  m_Father: {fileID: 434304}
  m_RootOrder: 2
  m_LocalEulerAnglesHint: {x: -3.9143, y: 0.0656, z: -0.9249}
--- !u!4 &434304
Transform:
  m_ObjectHideFlags: 1
  m_CorrespondingSourceObject: {fileID: 0}
  m_PrefabInternal: {fileID: 100100000}
  m_GameObject: {fileID: 132940}
  m_LocalRotation: {x: 0.0000066169114, y: -0.000021297941, z: 0.0006793325, w: 0.99999976}
  m_LocalPosition: {x: -0.0016822353, y: 1.9359251, z: -0.005900015}
  m_LocalScale: {x: 1, y: 1, z: 1}
  m_Children:
  - {fileID: 494596}
  - {fileID: 405698}
  - {fileID: 433958}
  m_Father: {fileID: 476046}
  m_RootOrder: 6
  m_LocalEulerAnglesHint: {x: 0.0008, y: -0.0023999999, z: 0.0779}
--- !u!4 &436082
Transform:
  m_ObjectHideFlags: 1
  m_CorrespondingSourceObject: {fileID: 0}
  m_PrefabInternal: {fileID: 100100000}
  m_GameObject: {fileID: 173190}
  m_LocalRotation: {x: 0.4920843, y: 0.58005637, z: -0.52656025, w: 0.37963414}
  m_LocalPosition: {x: 0.09588516, y: 0.15165868, z: 0.005412818}
  m_LocalScale: {x: 1, y: 1, z: 1}
  m_Children:
  - {fileID: 460038}
  m_Father: {fileID: 401522}
  m_RootOrder: 2
  m_LocalEulerAnglesHint: {x: 79.8968, y: -153.6706, z: 102.7867}
--- !u!4 &439230
Transform:
  m_ObjectHideFlags: 1
  m_CorrespondingSourceObject: {fileID: 0}
  m_PrefabInternal: {fileID: 100100000}
  m_GameObject: {fileID: 160744}
  m_LocalRotation: {x: 0.0000019432405, y: 0.00018376947, z: -0.014719786, w: 0.99989164}
  m_LocalPosition: {x: 0.0012929781, y: 0.04791555, z: 0}
  m_LocalScale: {x: 1, y: 1, z: 1}
  m_Children:
  - {fileID: 497780}
  m_Father: {fileID: 486578}
  m_RootOrder: 0
  m_LocalEulerAnglesHint: {x: 0.00049999997, y: 0.0211, z: -1.6868}
--- !u!4 &439308
Transform:
  m_ObjectHideFlags: 1
  m_CorrespondingSourceObject: {fileID: 0}
  m_PrefabInternal: {fileID: 100100000}
  m_GameObject: {fileID: 160572}
  m_LocalRotation: {x: -0.008622544, y: 0.0009647011, z: 0.065079145, w: 0.99784243}
  m_LocalPosition: {x: 0.017664228, y: 0.19391993, z: -0.0029952535}
  m_LocalScale: {x: 1, y: 1, z: 1}
  m_Children:
  - {fileID: 455562}
  m_Father: {fileID: 416854}
  m_RootOrder: 3
  m_LocalEulerAnglesHint: {x: -0.9932, y: 0.046, z: 7.4627}
--- !u!4 &439310
Transform:
  m_ObjectHideFlags: 1
  m_CorrespondingSourceObject: {fileID: 0}
  m_PrefabInternal: {fileID: 100100000}
  m_GameObject: {fileID: 170862}
  m_LocalRotation: {x: 0, y: 0, z: 0, w: 1}
  m_LocalPosition: {x: 0.0006666051, y: 0.053053655, z: -1.1368684e-15}
  m_LocalScale: {x: 1, y: 1, z: 1}
  m_Children: []
  m_Father: {fileID: 447618}
  m_RootOrder: 0
  m_LocalEulerAnglesHint: {x: 0, y: 0, z: 0}
--- !u!4 &441322
Transform:
  m_ObjectHideFlags: 1
  m_CorrespondingSourceObject: {fileID: 0}
  m_PrefabInternal: {fileID: 100100000}
  m_GameObject: {fileID: 150076}
  m_LocalRotation: {x: -0.043687306, y: 0.0038834126, z: -0.09448997, w: 0.99455917}
  m_LocalPosition: {x: -0, y: 0.18928668, z: 0}
  m_LocalScale: {x: 1, y: 1, z: 1}
  m_Children:
  - {fileID: 429988}
  m_Father: {fileID: 444122}
  m_RootOrder: 0
  m_LocalEulerAnglesHint: {x: -4.9431, y: 0.9191, z: -10.894}
--- !u!4 &441662
Transform:
  m_ObjectHideFlags: 1
  m_CorrespondingSourceObject: {fileID: 0}
  m_PrefabInternal: {fileID: 100100000}
  m_GameObject: {fileID: 183042}
  m_LocalRotation: {x: 0.020783791, y: 0.00008628198, z: 0.0041504786, w: 0.9997754}
  m_LocalPosition: {x: 4.440892e-18, y: 0.18711716, z: 0}
  m_LocalScale: {x: 1, y: 1, z: 1}
  m_Children:
  - {fileID: 401522}
  m_Father: {fileID: 433958}
  m_RootOrder: 0
  m_LocalEulerAnglesHint: {x: 2.3818, y: 0.0198, z: 0.4761}
--- !u!4 &444122
Transform:
  m_ObjectHideFlags: 1
  m_CorrespondingSourceObject: {fileID: 0}
  m_PrefabInternal: {fileID: 100100000}
  m_GameObject: {fileID: 104730}
  m_LocalRotation: {x: -0.5182941, y: 0.5803382, z: -0.5065997, w: -0.3713968}
  m_LocalPosition: {x: -0.09573541, y: 0.14969142, z: 0.015861867}
  m_LocalScale: {x: 1, y: 1, z: 1}
  m_Children:
  - {fileID: 441322}
  m_Father: {fileID: 401522}
  m_RootOrder: 0
  m_LocalEulerAnglesHint: {x: 76.6515, y: 155.9567, z: -102.6459}
--- !u!4 &444828
Transform:
  m_ObjectHideFlags: 1
  m_CorrespondingSourceObject: {fileID: 0}
  m_PrefabInternal: {fileID: 100100000}
  m_GameObject: {fileID: 168564}
  m_LocalRotation: {x: 0, y: 0, z: 0, w: 1}
  m_LocalPosition: {x: 0, y: 0, z: 0}
  m_LocalScale: {x: 1, y: 1, z: 1}
  m_Children: []
  m_Father: {fileID: 476046}
  m_RootOrder: 0
  m_LocalEulerAnglesHint: {x: 0, y: 0, z: 0}
--- !u!4 &447618
Transform:
  m_ObjectHideFlags: 1
  m_CorrespondingSourceObject: {fileID: 0}
  m_PrefabInternal: {fileID: 100100000}
  m_GameObject: {fileID: 195376}
  m_LocalRotation: {x: 0.000000044919357, y: -0.00008615949, z: 0.007944265, w: 0.99996847}
  m_LocalPosition: {x: -0.00018537021, y: 0.055766396, z: 0}
  m_LocalScale: {x: 1, y: 1, z: 1}
  m_Children:
  - {fileID: 439310}
  m_Father: {fileID: 495876}
  m_RootOrder: 0
  m_LocalEulerAnglesHint: {x: 0.0001, y: -0.0099, z: 0.9104}
--- !u!4 &447654
Transform:
  m_ObjectHideFlags: 1
  m_CorrespondingSourceObject: {fileID: 0}
  m_PrefabInternal: {fileID: 100100000}
  m_GameObject: {fileID: 144060}
  m_LocalRotation: {x: -0.005426289, y: -0.00051225495, z: -0.03507701, w: 0.99936974}
  m_LocalPosition: {x: 0.016567755, y: 0.20314115, z: -0.0022000712}
  m_LocalScale: {x: 1, y: 1, z: 1}
  m_Children:
  - {fileID: 453260}
  m_Father: {fileID: 417972}
  m_RootOrder: 1
  m_LocalEulerAnglesHint: {x: -0.6235, y: -0.0369, z: -4.0203}
--- !u!4 &451484
Transform:
  m_ObjectHideFlags: 1
  m_CorrespondingSourceObject: {fileID: 0}
  m_PrefabInternal: {fileID: 100100000}
  m_GameObject: {fileID: 124856}
  m_LocalRotation: {x: -0.0054573175, y: -0.0011808047, z: -0.03497374, w: 0.99937266}
  m_LocalPosition: {x: -0.0566908, y: 0.18193609, z: 0.0037184895}
  m_LocalScale: {x: 1, y: 1, z: 1}
  m_Children:
  - {fileID: 400362}
  m_Father: {fileID: 417972}
  m_RootOrder: 2
  m_LocalEulerAnglesHint: {x: -0.62979996, y: -0.1134, z: -4.0078998}
--- !u!4 &451832
Transform:
  m_ObjectHideFlags: 1
  m_CorrespondingSourceObject: {fileID: 0}
  m_PrefabInternal: {fileID: 100100000}
  m_GameObject: {fileID: 154596}
  m_LocalRotation: {x: 0.0000062167446, y: 0.0003456749, z: 0.00048168853, w: 0.9999998}
  m_LocalPosition: {x: 0.0011401655, y: 0.070760645, z: 0}
  m_LocalScale: {x: 1, y: 1, z: 1}
  m_Children:
  - {fileID: 453562}
  m_Father: {fileID: 452376}
  m_RootOrder: 0
  m_LocalEulerAnglesHint: {x: 0.0007, y: 0.0396, z: 0.0552}
--- !u!4 &452376
Transform:
  m_ObjectHideFlags: 1
  m_CorrespondingSourceObject: {fileID: 0}
  m_PrefabInternal: {fileID: 100100000}
  m_GameObject: {fileID: 155412}
  m_LocalRotation: {x: 0.20771809, y: 0.08056288, z: 0.29928944, w: 0.92778695}
  m_LocalPosition: {x: -0.05100177, y: 0.06934366, z: 0.03325393}
  m_LocalScale: {x: 1, y: 1, z: 1}
  m_Children:
  - {fileID: 451832}
  m_Father: {fileID: 416854}
  m_RootOrder: 4
  m_LocalEulerAnglesHint: {x: 19.7072, y: 16.9096, z: 38.7157}
--- !u!4 &453260
Transform:
  m_ObjectHideFlags: 1
  m_CorrespondingSourceObject: {fileID: 0}
  m_PrefabInternal: {fileID: 100100000}
  m_GameObject: {fileID: 108620}
  m_LocalRotation: {x: -0.00000026126554, y: 0.000007739323, z: -0.010707856, w: 0.99994266}
  m_LocalPosition: {x: 0.00058584363, y: 0.05231141, z: 5.684342e-16}
  m_LocalScale: {x: 1, y: 1, z: 1}
  m_Children:
  - {fileID: 473318}
  m_Father: {fileID: 447654}
  m_RootOrder: 0
  m_LocalEulerAnglesHint: {x: 0, y: 0.0009, z: -1.2271}
--- !u!4 &453562
Transform:
  m_ObjectHideFlags: 1
  m_CorrespondingSourceObject: {fileID: 0}
  m_PrefabInternal: {fileID: 100100000}
  m_GameObject: {fileID: 163082}
  m_LocalRotation: {x: -0.000011858299, y: 0.0007703245, z: -0.032045502, w: 0.99948615}
  m_LocalPosition: {x: 0.0009825414, y: 0.05757128, z: 0}
  m_LocalScale: {x: 1, y: 1, z: 1}
  m_Children:
  - {fileID: 401722}
  m_Father: {fileID: 451832}
  m_RootOrder: 0
  m_LocalEulerAnglesHint: {x: 0.0015, y: 0.0883, z: -3.6727998}
--- !u!4 &455404
Transform:
  m_ObjectHideFlags: 1
  m_CorrespondingSourceObject: {fileID: 0}
  m_PrefabInternal: {fileID: 100100000}
  m_GameObject: {fileID: 185472}
  m_LocalRotation: {x: 0.00000012441487, y: 0.00004939589, z: -0.01737169, w: 0.99984914}
  m_LocalPosition: {x: 0.00092710694, y: 0.06031185, z: 0}
  m_LocalScale: {x: 1, y: 1, z: 1}
  m_Children:
  - {fileID: 485652}
  m_Father: {fileID: 482162}
  m_RootOrder: 0
  m_LocalEulerAnglesHint: {x: 0.0001, y: 0.0056999996, z: -1.9907}
--- !u!4 &455562
Transform:
  m_ObjectHideFlags: 1
  m_CorrespondingSourceObject: {fileID: 0}
  m_PrefabInternal: {fileID: 100100000}
  m_GameObject: {fileID: 151964}
  m_LocalRotation: {x: -0.00000042614215, y: -0.000027431914, z: -0.04784817, w: 0.99885464}
  m_LocalPosition: {x: 0.0026311022, y: 0.05215044, z: 5.684342e-16}
  m_LocalScale: {x: 1, y: 1, z: 1}
  m_Children:
  - {fileID: 497202}
  m_Father: {fileID: 439308}
  m_RootOrder: 0
  m_LocalEulerAnglesHint: {x: -0.0002, y: -0.0030999999, z: -5.4851}
--- !u!4 &456994
Transform:
  m_ObjectHideFlags: 1
  m_CorrespondingSourceObject: {fileID: 0}
  m_PrefabInternal: {fileID: 100100000}
  m_GameObject: {fileID: 144010}
  m_LocalRotation: {x: 0, y: 0, z: 0, w: 1}
  m_LocalPosition: {x: 0.00014721835, y: 0.044216007, z: -5.684342e-16}
  m_LocalScale: {x: 1, y: 1, z: 1}
  m_Children: []
  m_Father: {fileID: 485652}
  m_RootOrder: 0
  m_LocalEulerAnglesHint: {x: 0, y: 0, z: 0}
--- !u!4 &457122
Transform:
  m_ObjectHideFlags: 1
  m_CorrespondingSourceObject: {fileID: 0}
  m_PrefabInternal: {fileID: 100100000}
  m_GameObject: {fileID: 161374}
  m_LocalRotation: {x: -0.008625934, y: 0.0002170934, z: 0.035689488, w: 0.9993257}
  m_LocalPosition: {x: -0.016283168, y: 0.20344284, z: -0.0035135755}
  m_LocalScale: {x: 1, y: 1, z: 1}
  m_Children:
  - {fileID: 495876}
  m_Father: {fileID: 416854}
  m_RootOrder: 1
  m_LocalEulerAnglesHint: {x: -0.9888, y: -0.0104, z: 4.0908}
--- !u!4 &457952
Transform:
  m_ObjectHideFlags: 1
  m_CorrespondingSourceObject: {fileID: 0}
  m_PrefabInternal: {fileID: 100100000}
  m_GameObject: {fileID: 101460}
  m_LocalRotation: {x: 0.000013577687, y: -0.0008077429, z: 0.0141315255, w: 0.99989986}
  m_LocalPosition: {x: -0.0021941373, y: 0.071098104, z: 5.684342e-16}
  m_LocalScale: {x: 1, y: 1, z: 1}
  m_Children:
  - {fileID: 492044}
  m_Father: {fileID: 473914}
  m_RootOrder: 0
  m_LocalEulerAnglesHint: {x: 0.0029, y: -0.0925, z: 1.6193999}
--- !u!4 &458280
Transform:
  m_ObjectHideFlags: 1
  m_CorrespondingSourceObject: {fileID: 0}
  m_PrefabInternal: {fileID: 100100000}
  m_GameObject: {fileID: 175670}
  m_LocalRotation: {x: 0, y: 0, z: 0, w: 1}
  m_LocalPosition: {x: 0, y: 0, z: 0}
  m_LocalScale: {x: 1, y: 1, z: 1}
  m_Children: []
  m_Father: {fileID: 476046}
  m_RootOrder: 3
  m_LocalEulerAnglesHint: {x: 0, y: 0, z: 0}
--- !u!4 &458860
Transform:
  m_ObjectHideFlags: 1
  m_CorrespondingSourceObject: {fileID: 0}
  m_PrefabInternal: {fileID: 100100000}
  m_GameObject: {fileID: 136496}
  m_LocalRotation: {x: -0, y: -1.4105932e-37, z: -1.0285576e-37, w: 1}
  m_LocalPosition: {x: 0.061974704, y: 0.13971728, z: 0.17375068}
  m_LocalScale: {x: 1, y: 1, z: 1}
  m_Children: []
  m_Father: {fileID: 459956}
  m_RootOrder: 2
  m_LocalEulerAnglesHint: {x: 0, y: 0, z: 0}
--- !u!4 &459956
Transform:
  m_ObjectHideFlags: 1
  m_CorrespondingSourceObject: {fileID: 0}
  m_PrefabInternal: {fileID: 100100000}
  m_GameObject: {fileID: 101086}
  m_LocalRotation: {x: 2.646978e-23, y: 5.293956e-23, z: -1.0065537e-23, w: 1}
  m_LocalPosition: {x: 0.0027409294, y: 0.1632001, z: 0.041786216}
  m_LocalScale: {x: 1, y: 1, z: 1}
  m_Children:
  - {fileID: 461536}
  - {fileID: 479208}
  - {fileID: 458860}
  m_Father: {fileID: 433338}
  m_RootOrder: 0
  m_LocalEulerAnglesHint: {x: 0, y: 0, z: 0}
--- !u!4 &460038
Transform:
  m_ObjectHideFlags: 1
  m_CorrespondingSourceObject: {fileID: 0}
  m_PrefabInternal: {fileID: 100100000}
  m_GameObject: {fileID: 195764}
  m_LocalRotation: {x: -0.042279005, y: -0.0014862338, z: 0.1144496, w: 0.9925279}
  m_LocalPosition: {x: -7.105427e-17, y: 0.19480345, z: 5.684342e-16}
  m_LocalScale: {x: 1, y: 1, z: 1}
  m_Children:
  - {fileID: 470628}
  m_Father: {fileID: 436082}
  m_RootOrder: 0
  m_LocalEulerAnglesHint: {x: -4.7946997, y: -0.72609997, z: 13.186}
--- !u!4 &461536
Transform:
  m_ObjectHideFlags: 1
  m_CorrespondingSourceObject: {fileID: 0}
  m_PrefabInternal: {fileID: 100100000}
  m_GameObject: {fileID: 159500}
  m_LocalRotation: {x: 0, y: 0, z: 0, w: 1}
  m_LocalPosition: {x: -0.001302147, y: 0.35706165, z: 0.10855964}
  m_LocalScale: {x: 1, y: 1, z: 1}
  m_Children: []
  m_Father: {fileID: 459956}
  m_RootOrder: 0
  m_LocalEulerAnglesHint: {x: 0, y: 0, z: 0}
--- !u!4 &461834
Transform:
  m_ObjectHideFlags: 1
  m_CorrespondingSourceObject: {fileID: 0}
  m_PrefabInternal: {fileID: 100100000}
  m_GameObject: {fileID: 152868}
  m_LocalRotation: {x: -0.0000007920445, y: 0.00009730796, z: 0.0031304252, w: 0.9999951}
  m_LocalPosition: {x: -0.00038165424, y: 0.057114933, z: -5.684342e-16}
  m_LocalScale: {x: 1, y: 1, z: 1}
  m_Children:
  - {fileID: 495062}
  m_Father: {fileID: 493390}
  m_RootOrder: 0
  m_LocalEulerAnglesHint: {x: -0.0001, y: 0.0112, z: 0.35869998}
--- !u!4 &464874
Transform:
  m_ObjectHideFlags: 1
  m_CorrespondingSourceObject: {fileID: 0}
  m_PrefabInternal: {fileID: 100100000}
  m_GameObject: {fileID: 129324}
  m_LocalRotation: {x: 0, y: 0, z: 0, w: 1}
  m_LocalPosition: {x: 0, y: 0, z: 0}
  m_LocalScale: {x: 1, y: 1, z: 1}
  m_Children: []
  m_Father: {fileID: 476046}
  m_RootOrder: 7
  m_LocalEulerAnglesHint: {x: 0, y: 0, z: 0}
--- !u!4 &465448
Transform:
  m_ObjectHideFlags: 1
  m_CorrespondingSourceObject: {fileID: 0}
  m_PrefabInternal: {fileID: 100100000}
  m_GameObject: {fileID: 178342}
  m_LocalRotation: {x: 0, y: 0, z: 0, w: 1}
  m_LocalPosition: {x: 0, y: 0, z: 0}
  m_LocalScale: {x: 1, y: 1, z: 1}
  m_Children: []
  m_Father: {fileID: 476046}
  m_RootOrder: 5
  m_LocalEulerAnglesHint: {x: 0, y: 0, z: 0}
--- !u!4 &470628
Transform:
  m_ObjectHideFlags: 1
  m_CorrespondingSourceObject: {fileID: 0}
  m_PrefabInternal: {fileID: 100100000}
  m_GameObject: {fileID: 146508}
  m_LocalRotation: {x: -0.0000003075512, y: -0.0003896509, z: 0.00000040456354, w: 0.99999994}
  m_LocalPosition: {x: 7.105427e-17, y: 0.5344249, z: 5.684342e-16}
  m_LocalScale: {x: 1, y: 1, z: 1}
  m_Children:
  - {fileID: 416854}
  m_Father: {fileID: 460038}
  m_RootOrder: 0
  m_LocalEulerAnglesHint: {x: 0, y: -0.0447, z: 0}
--- !u!4 &471738
Transform:
  m_ObjectHideFlags: 1
  m_CorrespondingSourceObject: {fileID: 0}
  m_PrefabInternal: {fileID: 100100000}
  m_GameObject: {fileID: 114480}
  m_LocalRotation: {x: 0, y: 0, z: 0, w: 1}
  m_LocalPosition: {x: 0, y: 0, z: 0}
  m_LocalScale: {x: 1, y: 1, z: 1}
  m_Children: []
  m_Father: {fileID: 476046}
  m_RootOrder: 1
  m_LocalEulerAnglesHint: {x: 0, y: 0, z: 0}
--- !u!4 &471858
Transform:
  m_ObjectHideFlags: 1
  m_CorrespondingSourceObject: {fileID: 0}
  m_PrefabInternal: {fileID: 100100000}
  m_GameObject: {fileID: 146612}
  m_LocalRotation: {x: 0, y: 0, z: 0, w: 1}
  m_LocalPosition: {x: 0.0015216168, y: 0.03509113, z: 0}
  m_LocalScale: {x: 1, y: 1, z: 1}
  m_Children: []
  m_Father: {fileID: 493858}
  m_RootOrder: 0
  m_LocalEulerAnglesHint: {x: 0, y: 0, z: 0}
--- !u!4 &473318
Transform:
  m_ObjectHideFlags: 1
  m_CorrespondingSourceObject: {fileID: 0}
  m_PrefabInternal: {fileID: 100100000}
  m_GameObject: {fileID: 155128}
  m_LocalRotation: {x: -0.00000058869824, y: 0.0000630295, z: 0.004334674, w: 0.99999064}
  m_LocalPosition: {x: -0.0004835403, y: 0.047383256, z: 0}
  m_LocalScale: {x: 1, y: 1, z: 1}
  m_Children:
  - {fileID: 408590}
  m_Father: {fileID: 453260}
  m_RootOrder: 0
  m_LocalEulerAnglesHint: {x: -0.0001, y: 0.0072, z: 0.4967}
--- !u!4 &473914
Transform:
  m_ObjectHideFlags: 1
  m_CorrespondingSourceObject: {fileID: 0}
  m_PrefabInternal: {fileID: 100100000}
  m_GameObject: {fileID: 135312}
  m_LocalRotation: {x: 0.21631277, y: -0.062513284, z: -0.30313677, w: 0.9259638}
  m_LocalPosition: {x: 0.049973663, y: 0.06908231, z: 0.030781997}
  m_LocalScale: {x: 1, y: 1, z: 1}
  m_Children:
  - {fileID: 457952}
  m_Father: {fileID: 417972}
  m_RootOrder: 4
  m_LocalEulerAnglesHint: {x: 21.265799, y: -15.3644, z: -39.1555}
--- !u!4 &475456
Transform:
  m_ObjectHideFlags: 1
  m_CorrespondingSourceObject: {fileID: 0}
  m_PrefabInternal: {fileID: 100100000}
  m_GameObject: {fileID: 162052}
  m_LocalRotation: {x: 0, y: 0, z: 0, w: 1}
  m_LocalPosition: {x: 0.0023492994, y: 0.03949, z: 0}
  m_LocalScale: {x: 1, y: 1, z: 1}
  m_Children: []
  m_Father: {fileID: 492044}
  m_RootOrder: 0
  m_LocalEulerAnglesHint: {x: 0, y: 0, z: 0}
--- !u!4 &475618
Transform:
  m_ObjectHideFlags: 1
  m_CorrespondingSourceObject: {fileID: 0}
  m_PrefabInternal: {fileID: 100100000}
  m_GameObject: {fileID: 167852}
  m_LocalRotation: {x: 0, y: 0, z: 0, w: 1}
  m_LocalPosition: {x: 0, y: 0, z: 0}
  m_LocalScale: {x: 1, y: 1, z: 1}
  m_Children: []
  m_Father: {fileID: 476046}
  m_RootOrder: 2
  m_LocalEulerAnglesHint: {x: 0, y: 0, z: 0}
--- !u!4 &476046
Transform:
  m_ObjectHideFlags: 1
  m_CorrespondingSourceObject: {fileID: 0}
  m_PrefabInternal: {fileID: 100100000}
  m_GameObject: {fileID: 171402}
  m_LocalRotation: {x: 0, y: 0, z: 0, w: 1}
  m_LocalPosition: {x: 0, y: 0, z: 0}
  m_LocalScale: {x: 1, y: 1, z: 1}
  m_Children:
  - {fileID: 444828}
  - {fileID: 471738}
  - {fileID: 475618}
  - {fileID: 458280}
  - {fileID: 486588}
  - {fileID: 465448}
  - {fileID: 434304}
  - {fileID: 464874}
  - {fileID: 495316}
  m_Father: {fileID: 0}
  m_RootOrder: 0
  m_LocalEulerAnglesHint: {x: 0, y: 0, z: 0}
--- !u!4 &476132
Transform:
  m_ObjectHideFlags: 1
  m_CorrespondingSourceObject: {fileID: 0}
  m_PrefabInternal: {fileID: 100100000}
  m_GameObject: {fileID: 188962}
  m_LocalRotation: {x: -0.09992798, y: 0.0018485574, z: -0.020747744, w: 0.9947766}
  m_LocalPosition: {x: -0, y: 0.77615863, z: 0}
  m_LocalScale: {x: 1, y: 1, z: 1}
  m_Children:
  - {fileID: 427084}
  m_Father: {fileID: 494596}
  m_RootOrder: 0
  m_LocalEulerAnglesHint: {x: -11.462999, y: 0.4574, z: -2.4355}
--- !u!4 &477632
Transform:
  m_ObjectHideFlags: 1
  m_CorrespondingSourceObject: {fileID: 0}
  m_PrefabInternal: {fileID: 100100000}
  m_GameObject: {fileID: 102834}
  m_LocalRotation: {x: 0, y: 0, z: 0, w: 1}
  m_LocalPosition: {x: -0.0005156669, y: 0.050124593, z: 0}
  m_LocalScale: {x: 1, y: 1, z: 1}
  m_Children: []
  m_Father: {fileID: 497202}
  m_RootOrder: 0
  m_LocalEulerAnglesHint: {x: 0, y: 0, z: 0}
--- !u!4 &479208
Transform:
  m_ObjectHideFlags: 1
  m_CorrespondingSourceObject: {fileID: 0}
  m_PrefabInternal: {fileID: 100100000}
  m_GameObject: {fileID: 180600}
  m_LocalRotation: {x: -0, y: -1.4105932e-37, z: -1.0285576e-37, w: 1}
  m_LocalPosition: {x: -0.06658941, y: 0.13933057, z: 0.17686428}
  m_LocalScale: {x: 1, y: 1, z: 1}
  m_Children: []
  m_Father: {fileID: 459956}
  m_RootOrder: 1
  m_LocalEulerAnglesHint: {x: 0, y: 0, z: 0}
--- !u!4 &482162
Transform:
  m_ObjectHideFlags: 1
  m_CorrespondingSourceObject: {fileID: 0}
  m_PrefabInternal: {fileID: 100100000}
  m_GameObject: {fileID: 171296}
  m_LocalRotation: {x: -0.008608508, y: -0.000114335504, z: 0.047596674, w: 0.99882954}
  m_LocalPosition: {x: -0.05702773, y: 0.19526291, z: 0.0049139075}
  m_LocalScale: {x: 1, y: 1, z: 1}
  m_Children:
  - {fileID: 455404}
  m_Father: {fileID: 416854}
  m_RootOrder: 0
  m_LocalEulerAnglesHint: {x: -0.98469996, y: -0.060099997, z: 5.457}
--- !u!4 &485612
Transform:
  m_ObjectHideFlags: 1
  m_CorrespondingSourceObject: {fileID: 0}
  m_PrefabInternal: {fileID: 100100000}
  m_GameObject: {fileID: 141292}
  m_LocalRotation: {x: 0, y: 0, z: 0, w: 1}
  m_LocalPosition: {x: -0, y: 0.18054922, z: -4.440892e-18}
  m_LocalScale: {x: 1, y: 1, z: 1}
  m_Children: []
  m_Father: {fileID: 498572}
  m_RootOrder: 0
  m_LocalEulerAnglesHint: {x: 0, y: 0, z: 0}
--- !u!4 &485652
Transform:
  m_ObjectHideFlags: 1
  m_CorrespondingSourceObject: {fileID: 0}
  m_PrefabInternal: {fileID: 100100000}
  m_GameObject: {fileID: 165804}
  m_LocalRotation: {x: 0.00000091808903, y: -0.00014574392, z: 0.01135022, w: 0.99993557}
  m_LocalPosition: {x: -0.0010743253, y: 0.055420652, z: 0}
  m_LocalScale: {x: 1, y: 1, z: 1}
  m_Children:
  - {fileID: 456994}
  m_Father: {fileID: 455404}
  m_RootOrder: 0
  m_LocalEulerAnglesHint: {x: 0.00029999999, y: -0.0167, z: 1.3007}
--- !u!4 &486578
Transform:
  m_ObjectHideFlags: 1
  m_CorrespondingSourceObject: {fileID: 0}
  m_PrefabInternal: {fileID: 100100000}
  m_GameObject: {fileID: 125120}
  m_LocalRotation: {x: 0.00000007286154, y: 0.000027181351, z: 0.024883265, w: 0.99969035}
  m_LocalPosition: {x: -0.0011732479, y: 0.051453218, z: 0}
  m_LocalScale: {x: 1, y: 1, z: 1}
  m_Children:
  - {fileID: 439230}
  m_Father: {fileID: 416600}
  m_RootOrder: 0
  m_LocalEulerAnglesHint: {x: -0.0001, y: 0.0030999999, z: 2.8516998}
--- !u!4 &486588
Transform:
  m_ObjectHideFlags: 1
  m_CorrespondingSourceObject: {fileID: 0}
  m_PrefabInternal: {fileID: 100100000}
  m_GameObject: {fileID: 187832}
  m_LocalRotation: {x: 0, y: 0, z: 0, w: 1}
  m_LocalPosition: {x: 0, y: 0, z: 0}
  m_LocalScale: {x: 1, y: 1, z: 1}
  m_Children: []
  m_Father: {fileID: 476046}
  m_RootOrder: 4
  m_LocalEulerAnglesHint: {x: 0, y: 0, z: 0}
--- !u!4 &492044
Transform:
  m_ObjectHideFlags: 1
  m_CorrespondingSourceObject: {fileID: 0}
  m_PrefabInternal: {fileID: 100100000}
  m_GameObject: {fileID: 166322}
  m_LocalRotation: {x: -0.00004565751, y: -0.0016110354, z: 0.03099476, w: 0.9995183}
  m_LocalPosition: {x: -0.00015516196, y: 0.05994131, z: 0}
  m_LocalScale: {x: 1, y: 1, z: 1}
  m_Children:
  - {fileID: 475456}
  m_Father: {fileID: 457952}
  m_RootOrder: 0
  m_LocalEulerAnglesHint: {x: 0.00049999997, y: -0.1847, z: 3.5523}
--- !u!4 &493390
Transform:
  m_ObjectHideFlags: 1
  m_CorrespondingSourceObject: {fileID: 0}
  m_PrefabInternal: {fileID: 100100000}
  m_GameObject: {fileID: 110672}
  m_LocalRotation: {x: -0.005396004, y: 0.00011693409, z: -0.04401826, w: 0.99901617}
  m_LocalPosition: {x: 0.057817463, y: 0.20107597, z: 0.0031949298}
  m_LocalScale: {x: 1, y: 1, z: 1}
  m_Children:
  - {fileID: 461834}
  m_Father: {fileID: 417972}
  m_RootOrder: 0
  m_LocalEulerAnglesHint: {x: -0.61719996, y: 0.040599998, z: -5.046}
--- !u!4 &493858
Transform:
  m_ObjectHideFlags: 1
  m_CorrespondingSourceObject: {fileID: 0}
  m_PrefabInternal: {fileID: 100100000}
  m_GameObject: {fileID: 148826}
  m_LocalRotation: {x: 0.0000035620958, y: 0.00012128203, z: 0.013918825, w: 0.99990314}
  m_LocalPosition: {x: 0.00043952197, y: 0.0283721, z: -5.684342e-16}
  m_LocalScale: {x: 1, y: 1, z: 1}
  m_Children:
  - {fileID: 471858}
  m_Father: {fileID: 413118}
  m_RootOrder: 0
  m_LocalEulerAnglesHint: {x: 0.0002, y: 0.0139, z: 1.5949999}
--- !u!4 &494596
Transform:
  m_ObjectHideFlags: 1
  m_CorrespondingSourceObject: {fileID: 0}
  m_PrefabInternal: {fileID: 100100000}
  m_GameObject: {fileID: 188694}
  m_LocalRotation: {x: 0.000022144031, y: 0.0352884, z: 0.99932796, w: -0.009919081}
  m_LocalPosition: {x: -0.16862652, y: -0.13176669, z: 0.0071878755}
  m_LocalScale: {x: 1, y: 1, z: 1}
  m_Children:
  - {fileID: 476132}
  m_Father: {fileID: 434304}
  m_RootOrder: 0
  m_LocalEulerAnglesHint: {x: -4.0443997, y: -0.037699997, z: -178.8613}
--- !u!4 &495062
Transform:
  m_ObjectHideFlags: 1
  m_CorrespondingSourceObject: {fileID: 0}
  m_PrefabInternal: {fileID: 100100000}
  m_GameObject: {fileID: 134738}
  m_LocalRotation: {x: -0.0000006741727, y: -0.00023722513, z: 0.004862847, w: 0.99998814}
  m_LocalPosition: {x: -0.000023169869, y: 0.053839996, z: 0}
  m_LocalScale: {x: 1, y: 1, z: 1}
  m_Children:
  - {fileID: 495386}
  m_Father: {fileID: 461834}
  m_RootOrder: 0
  m_LocalEulerAnglesHint: {x: 0.0001, y: -0.027199998, z: 0.5573}
--- !u!4 &495316
Transform:
  m_ObjectHideFlags: 1
  m_CorrespondingSourceObject: {fileID: 0}
  m_PrefabInternal: {fileID: 100100000}
  m_GameObject: {fileID: 114302}
  m_LocalRotation: {x: 0, y: 0, z: 0, w: 1}
  m_LocalPosition: {x: 0, y: 0, z: 0}
  m_LocalScale: {x: 1, y: 1, z: 1}
  m_Children: []
  m_Father: {fileID: 476046}
  m_RootOrder: 8
  m_LocalEulerAnglesHint: {x: 0, y: 0, z: 0}
--- !u!4 &495386
Transform:
  m_ObjectHideFlags: 1
  m_CorrespondingSourceObject: {fileID: 0}
  m_PrefabInternal: {fileID: 100100000}
  m_GameObject: {fileID: 105424}
  m_LocalRotation: {x: 0, y: 0, z: 0, w: 1}
  m_LocalPosition: {x: 0.0004048241, y: 0.04355361, z: 0}
  m_LocalScale: {x: 1, y: 1, z: 1}
  m_Children: []
  m_Father: {fileID: 495062}
  m_RootOrder: 0
  m_LocalEulerAnglesHint: {x: 0, y: 0, z: 0}
--- !u!4 &495876
Transform:
  m_ObjectHideFlags: 1
  m_CorrespondingSourceObject: {fileID: 0}
  m_PrefabInternal: {fileID: 100100000}
  m_GameObject: {fileID: 189678}
  m_LocalRotation: {x: 0.0000023934322, y: -0.00035356675, z: 0.0025715372, w: 0.99999666}
  m_LocalPosition: {x: -0.0004812349, y: 0.05685056, z: 0}
  m_LocalScale: {x: 1, y: 1, z: 1}
  m_Children:
  - {fileID: 447618}
  m_Father: {fileID: 457122}
  m_RootOrder: 0
  m_LocalEulerAnglesHint: {x: 0.0004, y: -0.0405, z: 0.2947}
--- !u!4 &497070
Transform:
  m_ObjectHideFlags: 1
  m_CorrespondingSourceObject: {fileID: 0}
  m_PrefabInternal: {fileID: 100100000}
  m_GameObject: {fileID: 157294}
  m_LocalRotation: {x: -0.00000014744178, y: 0.0000482268, z: 0.0067861346, w: 0.999977}
  m_LocalPosition: {x: -0.0004621248, y: 0.02790036, z: 5.684342e-16}
  m_LocalScale: {x: 1, y: 1, z: 1}
  m_Children:
  - {fileID: 432718}
  m_Father: {fileID: 400362}
  m_RootOrder: 0
  m_LocalEulerAnglesHint: {x: -0.0001, y: 0.0055, z: 0.7776}
--- !u!4 &497202
Transform:
  m_ObjectHideFlags: 1
  m_CorrespondingSourceObject: {fileID: 0}
  m_PrefabInternal: {fileID: 100100000}
  m_GameObject: {fileID: 174510}
  m_LocalRotation: {x: 0.00003842058, y: -0.001390983, z: 0.017514654, w: 0.9998457}
  m_LocalPosition: {x: -0.0021154354, y: 0.046631407, z: -5.684342e-16}
  m_LocalScale: {x: 1, y: 1, z: 1}
  m_Children:
  - {fileID: 477632}
  m_Father: {fileID: 455562}
  m_RootOrder: 0
  m_LocalEulerAnglesHint: {x: 0.0072, y: -0.1593, z: 2.0070999}
--- !u!4 &497560
Transform:
  m_ObjectHideFlags: 1
  m_CorrespondingSourceObject: {fileID: 0}
  m_PrefabInternal: {fileID: 100100000}
  m_GameObject: {fileID: 111644}
  m_LocalRotation: {x: 0.42449299, y: 0.015981773, z: 0.0034092765, w: 0.90528375}
  m_LocalPosition: {x: -0, y: 0.79327327, z: 0}
  m_LocalScale: {x: 1, y: 1, z: 1}
  m_Children:
  - {fileID: 408096}
  m_Father: {fileID: 414304}
  m_RootOrder: 0
  m_LocalEulerAnglesHint: {x: 50.216198, y: 2.8513, z: 1.7679}
--- !u!4 &497780
Transform:
  m_ObjectHideFlags: 1
  m_CorrespondingSourceObject: {fileID: 0}
  m_PrefabInternal: {fileID: 100100000}
  m_GameObject: {fileID: 163720}
  m_LocalRotation: {x: 0, y: 0, z: 0, w: 1}
  m_LocalPosition: {x: -0.00011973017, y: 0.048730396, z: 0}
  m_LocalScale: {x: 1, y: 1, z: 1}
  m_Children: []
  m_Father: {fileID: 439230}
  m_RootOrder: 0
  m_LocalEulerAnglesHint: {x: 0, y: 0, z: 0}
--- !u!4 &497916
Transform:
  m_ObjectHideFlags: 1
  m_CorrespondingSourceObject: {fileID: 0}
  m_PrefabInternal: {fileID: 100100000}
  m_GameObject: {fileID: 111908}
  m_LocalRotation: {x: -0.008640079, y: 0.00030697105, z: 0.021644587, w: 0.9997284}
  m_LocalPosition: {x: 0.055646673, y: 0.17144929, z: 0.004958609}
  m_LocalScale: {x: 1, y: 1, z: 1}
  m_Children:
  - {fileID: 413118}
  m_Father: {fileID: 416854}
  m_RootOrder: 2
  m_LocalEulerAnglesHint: {x: -0.9906, y: 0.0137, z: 2.4805}
--- !u!4 &498572
Transform:
  m_ObjectHideFlags: 1
  m_CorrespondingSourceObject: {fileID: 0}
  m_PrefabInternal: {fileID: 100100000}
  m_GameObject: {fileID: 148210}
  m_LocalRotation: {x: 0.38651288, y: 0.027057024, z: -0.011344864, w: 0.9218173}
  m_LocalPosition: {x: 3.5527136e-17, y: 0.27105573, z: -1.7763568e-17}
  m_LocalScale: {x: 1, y: 1, z: 1}
  m_Children:
  - {fileID: 485612}
  m_Father: {fileID: 427084}
  m_RootOrder: 0
  m_LocalEulerAnglesHint: {x: 45.496098, y: 3.3625, z: 0}
--- !u!111 &11133816
Animation:
  m_ObjectHideFlags: 1
  m_CorrespondingSourceObject: {fileID: 0}
  m_PrefabInternal: {fileID: 100100000}
  m_GameObject: {fileID: 171402}
  m_Enabled: 1
  serializedVersion: 3
  m_Animation: {fileID: 7400000, guid: 8d99e04d2f1e14202b292750dd504ef1, type: 3}
  m_Animations:
  - {fileID: 7400000, guid: 79eb7bd767dbf4141afa7c5af17b08a8, type: 3}
  - {fileID: 7400000, guid: 8e937ab173ff02f4db6545f3c276202f, type: 3}
  - {fileID: 7400000, guid: b955551abdf560446b2d6c5adf7b3dc5, type: 3}
  - {fileID: 7400000, guid: 25adc013f432bf948891afb2d89e066c, type: 3}
  - {fileID: 7400000, guid: 0d9ea0f99e5488b429cefb737c74a14a, type: 3}
  - {fileID: 7400000, guid: 2e1cc2b4e857a764a84174718af50873, type: 3}
  - {fileID: 7400000, guid: 0bf879ad199ee504eb3b8fb6ccfc03d5, type: 3}
  - {fileID: 7400000, guid: 3093119225087124288afbb7b7cbbe04, type: 3}
  - {fileID: 7400000, guid: ed769213b26d7ea4aa25d7bbe7b63f10, type: 3}
  - {fileID: 7400000, guid: d9680bdd25f11fd4e9108afdb323e037, type: 3}
  - {fileID: 7400000, guid: c102cab26d45d64469d2d9337509e374, type: 3}
  - {fileID: 7400000, guid: c776c92a600f01a4dacf0704b42c57e6, type: 3}
  - {fileID: 7400000, guid: 0859c7430be99634cbda5661cf68507c, type: 3}
  - {fileID: 7400000, guid: d187c45af7a768744b0246c7bde7b76e, type: 3}
  - {fileID: 7400000, guid: 5dff154b3299d1140a8a7ca1dddf8a01, type: 3}
  - {fileID: 7400000, guid: 1f4c625922a726f46b51d393ed9a028b, type: 3}
  - {fileID: 7400000, guid: b06d26fcfbddfd84bbb151007347b915, type: 3}
  - {fileID: 7400000, guid: a151ccca9adf28845bf231f6e829669a, type: 3}
  - {fileID: 7400000, guid: 7d477d502d74d8a47bccb9a3d3f1042f, type: 3}
  - {fileID: 7400000, guid: c998c5ae20cb034449fc08fb63d888ca, type: 3}
  - {fileID: 7400000, guid: 117e9c008ec7361428564e93fa79f0cd, type: 3}
  - {fileID: 7400000, guid: 8d99e04d2f1e14202b292750dd504ef1, type: 3}
  - {fileID: 7400000, guid: d4558187b478fd348b621513b411c227, type: 3}
  - {fileID: 7400000, guid: 9059171338dface488c7fc408bb3bb31, type: 3}
  - {fileID: 7400000, guid: 0c51cc3fdeaaaad46b16a4d3a609a055, type: 3}
  - {fileID: 7400000, guid: 8d99e04d2f1e14202b292750dd504ef1, type: 3}
  - {fileID: 7400000, guid: 8d99e04d2f1e14202b292750dd504ef1, type: 3}
  - {fileID: 7400000, guid: 8d99e04d2f1e14202b292750dd504ef1, type: 3}
  - {fileID: 7400000, guid: 8d99e04d2f1e14202b292750dd504ef1, type: 3}
  - {fileID: 7400000, guid: 8d99e04d2f1e14202b292750dd504ef1, type: 3}
  m_WrapMode: 0
  m_PlayAutomatically: 1
  m_AnimatePhysics: 0
  m_CullingType: 0
--- !u!114 &11493072
MonoBehaviour:
  m_ObjectHideFlags: 1
  m_CorrespondingSourceObject: {fileID: 0}
  m_PrefabInternal: {fileID: 100100000}
  m_GameObject: {fileID: 171402}
  m_Enabled: 1
  m_EditorHideFlags: 0
  m_Script: {fileID: 11500000, guid: fe014fe2d0ac4ca418e82dbd785e084c, type: 3}
  m_Name: 
  m_EditorClassIdentifier: 
  Id: 0
  InEventRadius: 0
  IsInEvent: 0
  IsEventActor: 0
  MyActingEvent: {fileID: 0}
  FirstAction: 0
  Animator: {fileID: 0}
  MyEvent: {fileID: 0}
  MovementController: {fileID: 0}
  CurrentActionPosition: {x: -1, y: -1, z: -1}
--- !u!137 &13705084
SkinnedMeshRenderer:
  m_ObjectHideFlags: 1
  m_CorrespondingSourceObject: {fileID: 0}
  m_PrefabInternal: {fileID: 100100000}
  m_GameObject: {fileID: 168564}
  m_Enabled: 1
  m_CastShadows: 1
  m_ReceiveShadows: 1
  m_DynamicOccludee: 1
  m_MotionVectors: 1
  m_LightProbeUsage: 1
  m_ReflectionProbeUsage: 1
  m_RenderingLayerMask: 4294967295
  m_Materials:
  - {fileID: 2100000, guid: c88724e3b1dd439408b7f28320d927f9, type: 2}
  m_StaticBatchInfo:
    firstSubMesh: 0
    subMeshCount: 0
  m_StaticBatchRoot: {fileID: 0}
  m_ProbeAnchor: {fileID: 0}
  m_LightProbeVolumeOverride: {fileID: 0}
  m_ScaleInLightmap: 1
  m_PreserveUVs: 0
  m_IgnoreNormalsForChartDetection: 0
  m_ImportantGI: 0
  m_StitchLightmapSeams: 0
  m_SelectedEditorRenderState: 3
  m_MinimumChartSize: 4
  m_AutoUVMaxDistance: 0.5
  m_AutoUVMaxAngle: 89
  m_LightmapParameters: {fileID: 0}
  m_SortingLayerID: 0
  m_SortingLayer: 0
  m_SortingOrder: 0
  serializedVersion: 2
  m_Quality: 0
  m_UpdateWhenOffscreen: 0
  m_SkinnedMotionVectors: 1
  m_Mesh: {fileID: 4300004, guid: 9b63d7e018876334cac6b7baaef0e884, type: 3}
  m_Bones:
  - {fileID: 434304}
  - {fileID: 494596}
  - {fileID: 405698}
  - {fileID: 414304}
  - {fileID: 433958}
  - {fileID: 476132}
  - {fileID: 441662}
  - {fileID: 401522}
  - {fileID: 433338}
  - {fileID: 459956}
  - {fileID: 444122}
  - {fileID: 436082}
  - {fileID: 441322}
  - {fileID: 460038}
  - {fileID: 429988}
  - {fileID: 470628}
  - {fileID: 416854}
  - {fileID: 452376}
  - {fileID: 457122}
  - {fileID: 482162}
  - {fileID: 439308}
  - {fileID: 451832}
  - {fileID: 497916}
  - {fileID: 413118}
  - {fileID: 493858}
  - {fileID: 455562}
  - {fileID: 497202}
  - {fileID: 495876}
  - {fileID: 447618}
  - {fileID: 455404}
  - {fileID: 485652}
  - {fileID: 453562}
  - {fileID: 401722}
  - {fileID: 456994}
  - {fileID: 471858}
  - {fileID: 439310}
  - {fileID: 477632}
  - {fileID: 417972}
  - {fileID: 473914}
  - {fileID: 447654}
  - {fileID: 416600}
  - {fileID: 493390}
  - {fileID: 457952}
  - {fileID: 475456}
  - {fileID: 492044}
  - {fileID: 451484}
  - {fileID: 400362}
  - {fileID: 497070}
  - {fileID: 486578}
  - {fileID: 439230}
  - {fileID: 453260}
  - {fileID: 473318}
  - {fileID: 461834}
  - {fileID: 495062}
  - {fileID: 495386}
  - {fileID: 432718}
  - {fileID: 408590}
  - {fileID: 497780}
  m_BlendShapeWeights: []
  m_RootBone: {fileID: 434304}
  m_AABB:
    m_Center: {x: 0.0051651, y: 0.41660407, z: -0.050199717}
    m_Extent: {x: 1.6311741, y: 0.8314067, z: 0.35190025}
  m_DirtyAABB: 0
--- !u!137 &13706202
SkinnedMeshRenderer:
  m_ObjectHideFlags: 1
  m_CorrespondingSourceObject: {fileID: 0}
  m_PrefabInternal: {fileID: 100100000}
  m_GameObject: {fileID: 129324}
  m_Enabled: 1
  m_CastShadows: 1
  m_ReceiveShadows: 1
  m_DynamicOccludee: 1
  m_MotionVectors: 1
  m_LightProbeUsage: 1
  m_ReflectionProbeUsage: 1
  m_RenderingLayerMask: 4294967295
  m_Materials:
  - {fileID: 2100000, guid: 76f3736cc14e6a846b74a85e2f5cef93, type: 2}
  m_StaticBatchInfo:
    firstSubMesh: 0
    subMeshCount: 0
  m_StaticBatchRoot: {fileID: 0}
  m_ProbeAnchor: {fileID: 0}
  m_LightProbeVolumeOverride: {fileID: 0}
  m_ScaleInLightmap: 1
  m_PreserveUVs: 0
  m_IgnoreNormalsForChartDetection: 0
  m_ImportantGI: 0
  m_StitchLightmapSeams: 0
  m_SelectedEditorRenderState: 3
  m_MinimumChartSize: 4
  m_AutoUVMaxDistance: 0.5
  m_AutoUVMaxAngle: 89
  m_LightmapParameters: {fileID: 0}
  m_SortingLayerID: 0
  m_SortingLayer: 0
  m_SortingOrder: 0
  serializedVersion: 2
  m_Quality: 0
  m_UpdateWhenOffscreen: 0
  m_SkinnedMotionVectors: 1
  m_Mesh: {fileID: 4300008, guid: 9b63d7e018876334cac6b7baaef0e884, type: 3}
  m_Bones:
  - {fileID: 476132}
  - {fileID: 427084}
  - {fileID: 498572}
  - {fileID: 485612}
  - {fileID: 414304}
  - {fileID: 497560}
  - {fileID: 408096}
  - {fileID: 416916}
  m_BlendShapeWeights: []
  m_RootBone: {fileID: 414304}
  m_AABB:
    m_Center: {x: 0.18915668, y: 0.89196646, z: 0.09057909}
    m_Extent: {x: 0.32541028, y: 0.34898314, z: 0.37111652}
  m_DirtyAABB: 0
--- !u!137 &13773390
SkinnedMeshRenderer:
  m_ObjectHideFlags: 1
  m_CorrespondingSourceObject: {fileID: 0}
  m_PrefabInternal: {fileID: 100100000}
  m_GameObject: {fileID: 178342}
  m_Enabled: 1
  m_CastShadows: 1
  m_ReceiveShadows: 1
  m_DynamicOccludee: 1
  m_MotionVectors: 1
  m_LightProbeUsage: 1
  m_ReflectionProbeUsage: 1
  m_RenderingLayerMask: 4294967295
  m_Materials:
  - {fileID: 2100000, guid: 7ff56b79d63dd8c43a59f8ae097fac5a, type: 2}
  m_StaticBatchInfo:
    firstSubMesh: 0
    subMeshCount: 0
  m_StaticBatchRoot: {fileID: 0}
  m_ProbeAnchor: {fileID: 0}
  m_LightProbeVolumeOverride: {fileID: 0}
  m_ScaleInLightmap: 1
  m_PreserveUVs: 0
  m_IgnoreNormalsForChartDetection: 0
  m_ImportantGI: 0
  m_StitchLightmapSeams: 0
  m_SelectedEditorRenderState: 3
  m_MinimumChartSize: 4
  m_AutoUVMaxDistance: 0.5
  m_AutoUVMaxAngle: 89
  m_LightmapParameters: {fileID: 0}
  m_SortingLayerID: 0
  m_SortingLayer: 0
  m_SortingOrder: 0
  serializedVersion: 2
  m_Quality: 0
  m_UpdateWhenOffscreen: 0
  m_SkinnedMotionVectors: 1
  m_Mesh: {fileID: 4300006, guid: 9b63d7e018876334cac6b7baaef0e884, type: 3}
  m_Bones:
  - {fileID: 459956}
  m_BlendShapeWeights: []
  m_RootBone: {fileID: 459956}
  m_AABB:
    m_Center: {x: -0.00070892274, y: 0.29006696, z: 0.052177913}
    m_Extent: {x: 0.24895105, y: 0.13324738, z: 0.2868628}
  m_DirtyAABB: 0
--- !u!137 &13779542
SkinnedMeshRenderer:
  m_ObjectHideFlags: 1
  m_CorrespondingSourceObject: {fileID: 0}
  m_PrefabInternal: {fileID: 100100000}
  m_GameObject: {fileID: 114480}
  m_Enabled: 1
  m_CastShadows: 1
  m_ReceiveShadows: 1
  m_DynamicOccludee: 1
  m_MotionVectors: 1
  m_LightProbeUsage: 1
  m_ReflectionProbeUsage: 1
  m_RenderingLayerMask: 4294967295
  m_Materials:
  - {fileID: 2100000, guid: 01b7b7ec0b85e4e4c846077996bb6080, type: 2}
  m_StaticBatchInfo:
    firstSubMesh: 0
    subMeshCount: 0
  m_StaticBatchRoot: {fileID: 0}
  m_ProbeAnchor: {fileID: 0}
  m_LightProbeVolumeOverride: {fileID: 0}
  m_ScaleInLightmap: 1
  m_PreserveUVs: 0
  m_IgnoreNormalsForChartDetection: 0
  m_ImportantGI: 0
  m_StitchLightmapSeams: 0
  m_SelectedEditorRenderState: 3
  m_MinimumChartSize: 4
  m_AutoUVMaxDistance: 0.5
  m_AutoUVMaxAngle: 89
  m_LightmapParameters: {fileID: 0}
  m_SortingLayerID: 0
  m_SortingLayer: 0
  m_SortingOrder: 0
  serializedVersion: 2
  m_Quality: 0
  m_UpdateWhenOffscreen: 0
  m_SkinnedMotionVectors: 1
  m_Mesh: {fileID: 4300012, guid: 9b63d7e018876334cac6b7baaef0e884, type: 3}
  m_Bones:
  - {fileID: 434304}
  - {fileID: 433958}
  - {fileID: 441662}
  - {fileID: 401522}
  - {fileID: 494596}
  - {fileID: 405698}
  - {fileID: 414304}
  - {fileID: 497560}
  - {fileID: 408096}
  - {fileID: 416916}
  - {fileID: 476132}
  - {fileID: 427084}
  - {fileID: 498572}
  - {fileID: 485612}
  m_BlendShapeWeights: []
  m_RootBone: {fileID: 434304}
  m_AABB:
    m_Center: {x: -0.010809481, y: -0.8312338, z: -0.008859813}
    m_Extent: {x: 0.3923627, y: 0.9839023, z: 0.5697223}
  m_DirtyAABB: 0
--- !u!137 &13784798
SkinnedMeshRenderer:
  m_ObjectHideFlags: 1
  m_CorrespondingSourceObject: {fileID: 0}
  m_PrefabInternal: {fileID: 100100000}
  m_GameObject: {fileID: 187832}
  m_Enabled: 1
  m_CastShadows: 1
  m_ReceiveShadows: 1
  m_DynamicOccludee: 1
  m_MotionVectors: 1
  m_LightProbeUsage: 1
  m_ReflectionProbeUsage: 1
  m_RenderingLayerMask: 4294967295
  m_Materials:
  - {fileID: 2100000, guid: 3ca92963d64d027448cfbc96a65c3cef, type: 2}
  m_StaticBatchInfo:
    firstSubMesh: 0
    subMeshCount: 0
  m_StaticBatchRoot: {fileID: 0}
  m_ProbeAnchor: {fileID: 0}
  m_LightProbeVolumeOverride: {fileID: 0}
  m_ScaleInLightmap: 1
  m_PreserveUVs: 0
  m_IgnoreNormalsForChartDetection: 0
  m_ImportantGI: 0
  m_StitchLightmapSeams: 0
  m_SelectedEditorRenderState: 3
  m_MinimumChartSize: 4
  m_AutoUVMaxDistance: 0.5
  m_AutoUVMaxAngle: 89
  m_LightmapParameters: {fileID: 0}
  m_SortingLayerID: 0
  m_SortingLayer: 0
  m_SortingOrder: 0
  serializedVersion: 2
  m_Quality: 0
  m_UpdateWhenOffscreen: 0
  m_SkinnedMotionVectors: 1
  m_Mesh: {fileID: 4300014, guid: 9b63d7e018876334cac6b7baaef0e884, type: 3}
  m_Bones:
  - {fileID: 401522}
  - {fileID: 433338}
  - {fileID: 459956}
  - {fileID: 444122}
  - {fileID: 436082}
  - {fileID: 441662}
  - {fileID: 460038}
  - {fileID: 441322}
  m_BlendShapeWeights: []
  m_RootBone: {fileID: 441662}
  m_AABB:
    m_Center: {x: 0.0011645406, y: 0.6744402, z: -0.014578208}
    m_Extent: {x: 0.28991145, y: 0.30329937, z: 0.23441263}
  m_DirtyAABB: 0
--- !u!137 &13791504
SkinnedMeshRenderer:
  m_ObjectHideFlags: 1
  m_CorrespondingSourceObject: {fileID: 0}
  m_PrefabInternal: {fileID: 100100000}
  m_GameObject: {fileID: 175670}
  m_Enabled: 1
  m_CastShadows: 1
  m_ReceiveShadows: 1
  m_DynamicOccludee: 1
  m_MotionVectors: 1
  m_LightProbeUsage: 1
  m_ReflectionProbeUsage: 1
  m_RenderingLayerMask: 4294967295
  m_Materials:
  - {fileID: 2100000, guid: c88724e3b1dd439408b7f28320d927f9, type: 2}
  m_StaticBatchInfo:
    firstSubMesh: 0
    subMeshCount: 0
  m_StaticBatchRoot: {fileID: 0}
  m_ProbeAnchor: {fileID: 0}
  m_LightProbeVolumeOverride: {fileID: 0}
  m_ScaleInLightmap: 1
  m_PreserveUVs: 0
  m_IgnoreNormalsForChartDetection: 0
  m_ImportantGI: 0
  m_StitchLightmapSeams: 0
  m_SelectedEditorRenderState: 3
  m_MinimumChartSize: 4
  m_AutoUVMaxDistance: 0.5
  m_AutoUVMaxAngle: 89
  m_LightmapParameters: {fileID: 0}
  m_SortingLayerID: 0
  m_SortingLayer: 0
  m_SortingOrder: 0
  serializedVersion: 2
  m_Quality: 0
  m_UpdateWhenOffscreen: 0
  m_SkinnedMotionVectors: 1
  m_Mesh: {fileID: 4300000, guid: 9b63d7e018876334cac6b7baaef0e884, type: 3}
  m_Bones:
  - {fileID: 459956}
  - {fileID: 479208}
  - {fileID: 458860}
  m_BlendShapeWeights: []
  m_RootBone: {fileID: 459956}
  m_AABB:
    m_Center: {x: -0.0023259744, y: 0.1395123, z: 0.17492501}
    m_Extent: {x: 0.093945876, y: 0.029955387, z: 0.03105779}
  m_DirtyAABB: 0
--- !u!137 &13798914
SkinnedMeshRenderer:
  m_ObjectHideFlags: 1
  m_CorrespondingSourceObject: {fileID: 0}
  m_PrefabInternal: {fileID: 100100000}
  m_GameObject: {fileID: 167852}
  m_Enabled: 1
  m_CastShadows: 1
  m_ReceiveShadows: 1
  m_DynamicOccludee: 1
  m_MotionVectors: 1
  m_LightProbeUsage: 1
  m_ReflectionProbeUsage: 1
  m_RenderingLayerMask: 4294967295
  m_Materials:
  - {fileID: 2100000, guid: c88724e3b1dd439408b7f28320d927f9, type: 2}
  m_StaticBatchInfo:
    firstSubMesh: 0
    subMeshCount: 0
  m_StaticBatchRoot: {fileID: 0}
  m_ProbeAnchor: {fileID: 0}
  m_LightProbeVolumeOverride: {fileID: 0}
  m_ScaleInLightmap: 1
  m_PreserveUVs: 0
  m_IgnoreNormalsForChartDetection: 0
  m_ImportantGI: 0
  m_StitchLightmapSeams: 0
  m_SelectedEditorRenderState: 3
  m_MinimumChartSize: 4
  m_AutoUVMaxDistance: 0.5
  m_AutoUVMaxAngle: 89
  m_LightmapParameters: {fileID: 0}
  m_SortingLayerID: 0
  m_SortingLayer: 0
  m_SortingOrder: 0
  serializedVersion: 2
  m_Quality: 0
  m_UpdateWhenOffscreen: 0
  m_SkinnedMotionVectors: 1
  m_Mesh: {fileID: 4300002, guid: 9b63d7e018876334cac6b7baaef0e884, type: 3}
  m_Bones:
  - {fileID: 459956}
  m_BlendShapeWeights: []
  m_RootBone: {fileID: 459956}
  m_AABB:
    m_Center: {x: -0.001257576, y: 0.13495076, z: 0.20693526}
    m_Extent: {x: 0.11172427, y: 0.01915586, z: 0.025800198}
  m_DirtyAABB: 0
--- !u!137 &13799678
SkinnedMeshRenderer:
  m_ObjectHideFlags: 1
  m_CorrespondingSourceObject: {fileID: 0}
  m_PrefabInternal: {fileID: 100100000}
  m_GameObject: {fileID: 114302}
  m_Enabled: 1
  m_CastShadows: 1
  m_ReceiveShadows: 1
  m_DynamicOccludee: 1
  m_MotionVectors: 1
  m_LightProbeUsage: 1
  m_ReflectionProbeUsage: 1
  m_RenderingLayerMask: 4294967295
  m_Materials:
  - {fileID: 2100000, guid: fe8dda12093e6564ca79e97f974e6eec, type: 2}
  m_StaticBatchInfo:
    firstSubMesh: 0
    subMeshCount: 0
  m_StaticBatchRoot: {fileID: 0}
  m_ProbeAnchor: {fileID: 0}
  m_LightProbeVolumeOverride: {fileID: 0}
  m_ScaleInLightmap: 1
  m_PreserveUVs: 0
  m_IgnoreNormalsForChartDetection: 0
  m_ImportantGI: 0
  m_StitchLightmapSeams: 0
  m_SelectedEditorRenderState: 3
  m_MinimumChartSize: 4
  m_AutoUVMaxDistance: 0.5
  m_AutoUVMaxAngle: 89
  m_LightmapParameters: {fileID: 0}
  m_SortingLayerID: 0
  m_SortingLayer: 0
  m_SortingOrder: 0
  serializedVersion: 2
  m_Quality: 0
  m_UpdateWhenOffscreen: 0
  m_SkinnedMotionVectors: 1
  m_Mesh: {fileID: 4300010, guid: 9b63d7e018876334cac6b7baaef0e884, type: 3}
  m_Bones:
  - {fileID: 441662}
  - {fileID: 401522}
  - {fileID: 433338}
  - {fileID: 444122}
  - {fileID: 441322}
  - {fileID: 436082}
  - {fileID: 460038}
  - {fileID: 433958}
  - {fileID: 429988}
  - {fileID: 434304}
  - {fileID: 470628}
  - {fileID: 494596}
  - {fileID: 405698}
  - {fileID: 476132}
  - {fileID: 414304}
  m_BlendShapeWeights: []
  m_RootBone: {fileID: 434304}
  m_AABB:
    m_Center: {x: 0.019139439, y: 0.31865236, z: 0.015421286}
    m_Extent: {x: 0.385119, y: 0.6074084, z: 0.42243052}
  m_DirtyAABB: 0
--- !u!1001 &100100000
Prefab:
  m_ObjectHideFlags: 1
  serializedVersion: 2
  m_Modification:
    m_TransformParent: {fileID: 0}
    m_Modifications: []
    m_RemovedComponents: []
  m_SourcePrefab: {fileID: 0}
  m_RootGameObject: {fileID: 171402}
  m_IsPrefabAsset: 1
