%YAML 1.1
%TAG !u! tag:unity3d.com,2011:
--- !u!1 &104556
GameObject:
  m_ObjectHideFlags: 1
  m_CorrespondingSourceObject: {fileID: 0}
  m_PrefabInternal: {fileID: 100100000}
  serializedVersion: 6
  m_Component:
  - component: {fileID: 471774}
  m_Layer: 0
  m_Name: mixamorig:LeftHand
  m_TagString: Untagged
  m_Icon: {fileID: 0}
  m_NavMeshLayer: 0
  m_StaticEditorFlags: 0
  m_IsActive: 1
--- !u!1 &104678
GameObject:
  m_ObjectHideFlags: 1
  m_CorrespondingSourceObject: {fileID: 0}
  m_PrefabInternal: {fileID: 100100000}
  serializedVersion: 6
  m_Component:
  - component: {fileID: 447508}
  m_Layer: 0
  m_Name: mixamorig:LeftToe_End
  m_TagString: Untagged
  m_Icon: {fileID: 0}
  m_NavMeshLayer: 0
  m_StaticEditorFlags: 0
  m_IsActive: 1
--- !u!1 &105450
GameObject:
  m_ObjectHideFlags: 0
  m_CorrespondingSourceObject: {fileID: 0}
  m_PrefabInternal: {fileID: 100100000}
  serializedVersion: 6
  m_Component:
  - component: {fileID: 418766}
  - component: {fileID: 13729552}
  m_Layer: 0
  m_Name: default
  m_TagString: Untagged
  m_Icon: {fileID: 0}
  m_NavMeshLayer: 0
  m_StaticEditorFlags: 0
  m_IsActive: 1
--- !u!1 &109150
GameObject:
  m_ObjectHideFlags: 1
  m_CorrespondingSourceObject: {fileID: 0}
  m_PrefabInternal: {fileID: 100100000}
  serializedVersion: 6
  m_Component:
  - component: {fileID: 434214}
  m_Layer: 0
  m_Name: mixamorig:RightFoot
  m_TagString: Untagged
  m_Icon: {fileID: 0}
  m_NavMeshLayer: 0
  m_StaticEditorFlags: 0
  m_IsActive: 1
--- !u!1 &109688
GameObject:
  m_ObjectHideFlags: 1
  m_CorrespondingSourceObject: {fileID: 0}
  m_PrefabInternal: {fileID: 100100000}
  serializedVersion: 6
  m_Component:
  - component: {fileID: 491300}
  m_Layer: 0
  m_Name: mixamorig:Spine
  m_TagString: Untagged
  m_Icon: {fileID: 0}
  m_NavMeshLayer: 0
  m_StaticEditorFlags: 0
  m_IsActive: 1
--- !u!1 &110426
GameObject:
  m_ObjectHideFlags: 1
  m_CorrespondingSourceObject: {fileID: 0}
  m_PrefabInternal: {fileID: 100100000}
  serializedVersion: 6
  m_Component:
  - component: {fileID: 413914}
  m_Layer: 0
  m_Name: mixamorig:RightHandIndex2
  m_TagString: Untagged
  m_Icon: {fileID: 0}
  m_NavMeshLayer: 0
  m_StaticEditorFlags: 0
  m_IsActive: 1
--- !u!1 &112340
GameObject:
  m_ObjectHideFlags: 1
  m_CorrespondingSourceObject: {fileID: 0}
  m_PrefabInternal: {fileID: 100100000}
  serializedVersion: 6
  m_Component:
  - component: {fileID: 437882}
  m_Layer: 0
  m_Name: mixamorig:RightUpLeg
  m_TagString: Untagged
  m_Icon: {fileID: 0}
  m_NavMeshLayer: 0
  m_StaticEditorFlags: 0
  m_IsActive: 1
--- !u!1 &112740
GameObject:
  m_ObjectHideFlags: 1
  m_CorrespondingSourceObject: {fileID: 0}
  m_PrefabInternal: {fileID: 100100000}
  serializedVersion: 6
  m_Component:
  - component: {fileID: 407146}
  m_Layer: 0
  m_Name: mixamorig:RightHandThumb1
  m_TagString: Untagged
  m_Icon: {fileID: 0}
  m_NavMeshLayer: 0
  m_StaticEditorFlags: 0
  m_IsActive: 1
--- !u!1 &115706
GameObject:
  m_ObjectHideFlags: 1
  m_CorrespondingSourceObject: {fileID: 0}
  m_PrefabInternal: {fileID: 100100000}
  serializedVersion: 6
  m_Component:
  - component: {fileID: 438210}
  m_Layer: 0
  m_Name: mixamorig:RightHandThumb2
  m_TagString: Untagged
  m_Icon: {fileID: 0}
  m_NavMeshLayer: 0
  m_StaticEditorFlags: 0
  m_IsActive: 1
--- !u!1 &116346
GameObject:
  m_ObjectHideFlags: 1
  m_CorrespondingSourceObject: {fileID: 0}
  m_PrefabInternal: {fileID: 100100000}
  serializedVersion: 6
  m_Component:
  - component: {fileID: 466466}
  m_Layer: 0
  m_Name: mixamorig:HeadTop_End
  m_TagString: Untagged
  m_Icon: {fileID: 0}
  m_NavMeshLayer: 0
  m_StaticEditorFlags: 0
  m_IsActive: 1
--- !u!1 &117782
GameObject:
  m_ObjectHideFlags: 1
  m_CorrespondingSourceObject: {fileID: 0}
  m_PrefabInternal: {fileID: 100100000}
  serializedVersion: 6
  m_Component:
  - component: {fileID: 418254}
  m_Layer: 0
  m_Name: mixamorig:LeftToeBase
  m_TagString: Untagged
  m_Icon: {fileID: 0}
  m_NavMeshLayer: 0
  m_StaticEditorFlags: 0
  m_IsActive: 1
--- !u!1 &117982
GameObject:
  m_ObjectHideFlags: 1
  m_CorrespondingSourceObject: {fileID: 0}
  m_PrefabInternal: {fileID: 100100000}
  serializedVersion: 6
  m_Component:
  - component: {fileID: 460022}
  m_Layer: 0
  m_Name: mixamorig:RightHandMiddle3
  m_TagString: Untagged
  m_Icon: {fileID: 0}
  m_NavMeshLayer: 0
  m_StaticEditorFlags: 0
  m_IsActive: 1
--- !u!1 &118402
GameObject:
  m_ObjectHideFlags: 1
  m_CorrespondingSourceObject: {fileID: 0}
  m_PrefabInternal: {fileID: 100100000}
  serializedVersion: 6
  m_Component:
  - component: {fileID: 428176}
  m_Layer: 0
  m_Name: mixamorig:RightHandPinky4
  m_TagString: Untagged
  m_Icon: {fileID: 0}
  m_NavMeshLayer: 0
  m_StaticEditorFlags: 0
  m_IsActive: 1
--- !u!1 &118752
GameObject:
  m_ObjectHideFlags: 1
  m_CorrespondingSourceObject: {fileID: 0}
  m_PrefabInternal: {fileID: 100100000}
  serializedVersion: 6
  m_Component:
  - component: {fileID: 430470}
  m_Layer: 0
  m_Name: mixamorig:Head
  m_TagString: Untagged
  m_Icon: {fileID: 0}
  m_NavMeshLayer: 0
  m_StaticEditorFlags: 0
  m_IsActive: 1
--- !u!1 &120204
GameObject:
  m_ObjectHideFlags: 1
  m_CorrespondingSourceObject: {fileID: 0}
  m_PrefabInternal: {fileID: 100100000}
  serializedVersion: 6
  m_Component:
  - component: {fileID: 438676}
  m_Layer: 0
  m_Name: mixamorig:LeftHandRing3
  m_TagString: Untagged
  m_Icon: {fileID: 0}
  m_NavMeshLayer: 0
  m_StaticEditorFlags: 0
  m_IsActive: 1
--- !u!1 &120978
GameObject:
  m_ObjectHideFlags: 1
  m_CorrespondingSourceObject: {fileID: 0}
  m_PrefabInternal: {fileID: 100100000}
  serializedVersion: 6
  m_Component:
  - component: {fileID: 464518}
  m_Layer: 0
  m_Name: mixamorig:LeftHandThumb1
  m_TagString: Untagged
  m_Icon: {fileID: 0}
  m_NavMeshLayer: 0
  m_StaticEditorFlags: 0
  m_IsActive: 1
--- !u!1 &122564
GameObject:
  m_ObjectHideFlags: 1
  m_CorrespondingSourceObject: {fileID: 0}
  m_PrefabInternal: {fileID: 100100000}
  serializedVersion: 6
  m_Component:
  - component: {fileID: 436294}
  m_Layer: 0
  m_Name: mixamorig:RightHandMiddle2
  m_TagString: Untagged
  m_Icon: {fileID: 0}
  m_NavMeshLayer: 0
  m_StaticEditorFlags: 0
  m_IsActive: 1
--- !u!1 &123414
GameObject:
  m_ObjectHideFlags: 1
  m_CorrespondingSourceObject: {fileID: 0}
  m_PrefabInternal: {fileID: 100100000}
  serializedVersion: 6
  m_Component:
  - component: {fileID: 425938}
  m_Layer: 0
  m_Name: mixamorig:RightLeg
  m_TagString: Untagged
  m_Icon: {fileID: 0}
  m_NavMeshLayer: 0
  m_StaticEditorFlags: 0
  m_IsActive: 1
--- !u!1 &123660
GameObject:
  m_ObjectHideFlags: 1
  m_CorrespondingSourceObject: {fileID: 0}
  m_PrefabInternal: {fileID: 100100000}
  serializedVersion: 6
  m_Component:
  - component: {fileID: 452410}
  m_Layer: 0
  m_Name: mixamorig:RightHandThumb3
  m_TagString: Untagged
  m_Icon: {fileID: 0}
  m_NavMeshLayer: 0
  m_StaticEditorFlags: 0
  m_IsActive: 1
--- !u!1 &124188
GameObject:
  m_ObjectHideFlags: 1
  m_CorrespondingSourceObject: {fileID: 0}
  m_PrefabInternal: {fileID: 100100000}
  serializedVersion: 6
  m_Component:
  - component: {fileID: 402712}
  m_Layer: 0
  m_Name: mixamorig:LeftHandIndex1
  m_TagString: Untagged
  m_Icon: {fileID: 0}
  m_NavMeshLayer: 0
  m_StaticEditorFlags: 0
  m_IsActive: 1
--- !u!1 &124580
GameObject:
  m_ObjectHideFlags: 1
  m_CorrespondingSourceObject: {fileID: 0}
  m_PrefabInternal: {fileID: 100100000}
  serializedVersion: 6
  m_Component:
  - component: {fileID: 432024}
  m_Layer: 0
  m_Name: mixamorig:LeftHandRing2
  m_TagString: Untagged
  m_Icon: {fileID: 0}
  m_NavMeshLayer: 0
  m_StaticEditorFlags: 0
  m_IsActive: 1
--- !u!1 &125264
GameObject:
  m_ObjectHideFlags: 1
  m_CorrespondingSourceObject: {fileID: 0}
  m_PrefabInternal: {fileID: 100100000}
  serializedVersion: 6
  m_Component:
  - component: {fileID: 452488}
  m_Layer: 0
  m_Name: mixamorig:RightHandIndex3
  m_TagString: Untagged
  m_Icon: {fileID: 0}
  m_NavMeshLayer: 0
  m_StaticEditorFlags: 0
  m_IsActive: 1
--- !u!1 &130284
GameObject:
  m_ObjectHideFlags: 1
  m_CorrespondingSourceObject: {fileID: 0}
  m_PrefabInternal: {fileID: 100100000}
  serializedVersion: 6
  m_Component:
  - component: {fileID: 432322}
  m_Layer: 0
  m_Name: mixamorig:LeftHandIndex4
  m_TagString: Untagged
  m_Icon: {fileID: 0}
  m_NavMeshLayer: 0
  m_StaticEditorFlags: 0
  m_IsActive: 1
--- !u!1 &131388
GameObject:
  m_ObjectHideFlags: 1
  m_CorrespondingSourceObject: {fileID: 0}
  m_PrefabInternal: {fileID: 100100000}
  serializedVersion: 6
  m_Component:
  - component: {fileID: 482970}
  m_Layer: 0
  m_Name: mixamorig:LeftFoot
  m_TagString: Untagged
  m_Icon: {fileID: 0}
  m_NavMeshLayer: 0
  m_StaticEditorFlags: 0
  m_IsActive: 1
--- !u!1 &135066
GameObject:
  m_ObjectHideFlags: 1
  m_CorrespondingSourceObject: {fileID: 0}
  m_PrefabInternal: {fileID: 100100000}
  serializedVersion: 6
  m_Component:
  - component: {fileID: 424544}
  m_Layer: 0
  m_Name: mixamorig:RightHandRing4
  m_TagString: Untagged
  m_Icon: {fileID: 0}
  m_NavMeshLayer: 0
  m_StaticEditorFlags: 0
  m_IsActive: 1
--- !u!1 &135190
GameObject:
  m_ObjectHideFlags: 1
  m_CorrespondingSourceObject: {fileID: 0}
  m_PrefabInternal: {fileID: 100100000}
  serializedVersion: 6
  m_Component:
  - component: {fileID: 427924}
  m_Layer: 0
  m_Name: mixamorig:LeftEye
  m_TagString: Untagged
  m_Icon: {fileID: 0}
  m_NavMeshLayer: 0
  m_StaticEditorFlags: 0
  m_IsActive: 1
--- !u!1 &136602
GameObject:
  m_ObjectHideFlags: 1
  m_CorrespondingSourceObject: {fileID: 0}
  m_PrefabInternal: {fileID: 100100000}
  serializedVersion: 6
  m_Component:
  - component: {fileID: 464296}
  m_Layer: 0
  m_Name: mixamorig:RightHandIndex4
  m_TagString: Untagged
  m_Icon: {fileID: 0}
  m_NavMeshLayer: 0
  m_StaticEditorFlags: 0
  m_IsActive: 1
--- !u!1 &136674
GameObject:
  m_ObjectHideFlags: 1
  m_CorrespondingSourceObject: {fileID: 0}
  m_PrefabInternal: {fileID: 100100000}
  serializedVersion: 6
  m_Component:
  - component: {fileID: 481402}
  m_Layer: 0
  m_Name: mixamorig:RightToe_End
  m_TagString: Untagged
  m_Icon: {fileID: 0}
  m_NavMeshLayer: 0
  m_StaticEditorFlags: 0
  m_IsActive: 1
--- !u!1 &137840
GameObject:
  m_ObjectHideFlags: 1
  m_CorrespondingSourceObject: {fileID: 0}
  m_PrefabInternal: {fileID: 100100000}
  serializedVersion: 6
  m_Component:
  - component: {fileID: 494324}
  m_Layer: 0
  m_Name: mixamorig:LeftHandThumb4
  m_TagString: Untagged
  m_Icon: {fileID: 0}
  m_NavMeshLayer: 0
  m_StaticEditorFlags: 0
  m_IsActive: 1
--- !u!1 &143138
GameObject:
  m_ObjectHideFlags: 1
  m_CorrespondingSourceObject: {fileID: 0}
  m_PrefabInternal: {fileID: 100100000}
  serializedVersion: 6
  m_Component:
  - component: {fileID: 459398}
  m_Layer: 0
  m_Name: mixamorig:LeftHandIndex3
  m_TagString: Untagged
  m_Icon: {fileID: 0}
  m_NavMeshLayer: 0
  m_StaticEditorFlags: 0
  m_IsActive: 1
--- !u!1 &144774
GameObject:
  m_ObjectHideFlags: 1
  m_CorrespondingSourceObject: {fileID: 0}
  m_PrefabInternal: {fileID: 100100000}
  serializedVersion: 6
  m_Component:
  - component: {fileID: 434120}
  m_Layer: 0
  m_Name: mixamorig:Spine1
  m_TagString: Untagged
  m_Icon: {fileID: 0}
  m_NavMeshLayer: 0
  m_StaticEditorFlags: 0
  m_IsActive: 1
--- !u!1 &146262
GameObject:
  m_ObjectHideFlags: 0
  m_CorrespondingSourceObject: {fileID: 0}
  m_PrefabInternal: {fileID: 100100000}
  serializedVersion: 6
  m_Component:
  - component: {fileID: 457094}
  - component: {fileID: 13786286}
  m_Layer: 0
  m_Name: Tops
  m_TagString: Untagged
  m_Icon: {fileID: 0}
  m_NavMeshLayer: 0
  m_StaticEditorFlags: 0
  m_IsActive: 1
--- !u!1 &147268
GameObject:
  m_ObjectHideFlags: 0
  m_CorrespondingSourceObject: {fileID: 0}
  m_PrefabInternal: {fileID: 100100000}
  serializedVersion: 6
  m_Component:
  - component: {fileID: 486382}
  m_Layer: 0
  m_Name: mixamorig:Hips
  m_TagString: Untagged
  m_Icon: {fileID: 0}
  m_NavMeshLayer: 0
  m_StaticEditorFlags: 0
  m_IsActive: 1
--- !u!1 &148270
GameObject:
  m_ObjectHideFlags: 1
  m_CorrespondingSourceObject: {fileID: 0}
  m_PrefabInternal: {fileID: 100100000}
  serializedVersion: 6
  m_Component:
  - component: {fileID: 410384}
  m_Layer: 0
  m_Name: mixamorig:LeftHandRing4
  m_TagString: Untagged
  m_Icon: {fileID: 0}
  m_NavMeshLayer: 0
  m_StaticEditorFlags: 0
  m_IsActive: 1
--- !u!1 &150914
GameObject:
  m_ObjectHideFlags: 1
  m_CorrespondingSourceObject: {fileID: 0}
  m_PrefabInternal: {fileID: 100100000}
  serializedVersion: 6
  m_Component:
  - component: {fileID: 426690}
  m_Layer: 0
  m_Name: mixamorig:RightHandPinky1
  m_TagString: Untagged
  m_Icon: {fileID: 0}
  m_NavMeshLayer: 0
  m_StaticEditorFlags: 0
  m_IsActive: 1
--- !u!1 &153294
GameObject:
  m_ObjectHideFlags: 1
  m_CorrespondingSourceObject: {fileID: 0}
  m_PrefabInternal: {fileID: 100100000}
  serializedVersion: 6
  m_Component:
  - component: {fileID: 418248}
  m_Layer: 0
  m_Name: mixamorig:LeftHandPinky4
  m_TagString: Untagged
  m_Icon: {fileID: 0}
  m_NavMeshLayer: 0
  m_StaticEditorFlags: 0
  m_IsActive: 1
--- !u!1 &154106
GameObject:
  m_ObjectHideFlags: 1
  m_CorrespondingSourceObject: {fileID: 0}
  m_PrefabInternal: {fileID: 100100000}
  serializedVersion: 6
  m_Component:
  - component: {fileID: 438802}
  m_Layer: 0
  m_Name: mixamorig:LeftHandPinky1
  m_TagString: Untagged
  m_Icon: {fileID: 0}
  m_NavMeshLayer: 0
  m_StaticEditorFlags: 0
  m_IsActive: 1
--- !u!1 &155290
GameObject:
  m_ObjectHideFlags: 0
  m_CorrespondingSourceObject: {fileID: 0}
  m_PrefabInternal: {fileID: 100100000}
  serializedVersion: 6
  m_Component:
  - component: {fileID: 413292}
  - component: {fileID: 13716758}
  m_Layer: 0
  m_Name: Body
  m_TagString: Untagged
  m_Icon: {fileID: 0}
  m_NavMeshLayer: 0
  m_StaticEditorFlags: 0
  m_IsActive: 1
--- !u!1 &155856
GameObject:
  m_ObjectHideFlags: 1
  m_CorrespondingSourceObject: {fileID: 0}
  m_PrefabInternal: {fileID: 100100000}
  serializedVersion: 6
  m_Component:
  - component: {fileID: 490576}
  m_Layer: 0
  m_Name: mixamorig:LeftHandMiddle4
  m_TagString: Untagged
  m_Icon: {fileID: 0}
  m_NavMeshLayer: 0
  m_StaticEditorFlags: 0
  m_IsActive: 1
--- !u!1 &156856
GameObject:
  m_ObjectHideFlags: 1
  m_CorrespondingSourceObject: {fileID: 0}
  m_PrefabInternal: {fileID: 100100000}
  serializedVersion: 6
  m_Component:
  - component: {fileID: 427508}
  m_Layer: 0
  m_Name: mixamorig:RightHandMiddle4
  m_TagString: Untagged
  m_Icon: {fileID: 0}
  m_NavMeshLayer: 0
  m_StaticEditorFlags: 0
  m_IsActive: 1
--- !u!1 &160152
GameObject:
  m_ObjectHideFlags: 1
  m_CorrespondingSourceObject: {fileID: 0}
  m_PrefabInternal: {fileID: 100100000}
  serializedVersion: 6
  m_Component:
  - component: {fileID: 496898}
  m_Layer: 0
  m_Name: mixamorig:RightArm
  m_TagString: Untagged
  m_Icon: {fileID: 0}
  m_NavMeshLayer: 0
  m_StaticEditorFlags: 0
  m_IsActive: 1
--- !u!1 &161724
GameObject:
  m_ObjectHideFlags: 1
  m_CorrespondingSourceObject: {fileID: 0}
  m_PrefabInternal: {fileID: 100100000}
  serializedVersion: 6
  m_Component:
  - component: {fileID: 451776}
  m_Layer: 0
  m_Name: mixamorig:RightHand
  m_TagString: Untagged
  m_Icon: {fileID: 0}
  m_NavMeshLayer: 0
  m_StaticEditorFlags: 0
  m_IsActive: 1
--- !u!1 &162170
GameObject:
  m_ObjectHideFlags: 1
  m_CorrespondingSourceObject: {fileID: 0}
  m_PrefabInternal: {fileID: 100100000}
  serializedVersion: 6
  m_Component:
  - component: {fileID: 414150}
  m_Layer: 0
  m_Name: mixamorig:LeftArm
  m_TagString: Untagged
  m_Icon: {fileID: 0}
  m_NavMeshLayer: 0
  m_StaticEditorFlags: 0
  m_IsActive: 1
--- !u!1 &162234
GameObject:
  m_ObjectHideFlags: 1
  m_CorrespondingSourceObject: {fileID: 0}
  m_PrefabInternal: {fileID: 100100000}
  serializedVersion: 6
  m_Component:
  - component: {fileID: 438196}
  m_Layer: 0
  m_Name: mixamorig:LeftLeg
  m_TagString: Untagged
  m_Icon: {fileID: 0}
  m_NavMeshLayer: 0
  m_StaticEditorFlags: 0
  m_IsActive: 1
--- !u!1 &163608
GameObject:
  m_ObjectHideFlags: 1
  m_CorrespondingSourceObject: {fileID: 0}
  m_PrefabInternal: {fileID: 100100000}
  serializedVersion: 6
  m_Component:
  - component: {fileID: 497538}
  m_Layer: 0
  m_Name: mixamorig:LeftShoulder
  m_TagString: Untagged
  m_Icon: {fileID: 0}
  m_NavMeshLayer: 0
  m_StaticEditorFlags: 0
  m_IsActive: 1
--- !u!1 &163744
GameObject:
  m_ObjectHideFlags: 0
  m_CorrespondingSourceObject: {fileID: 0}
  m_PrefabInternal: {fileID: 100100000}
  serializedVersion: 6
  m_Component:
  - component: {fileID: 432526}
  - component: {fileID: 13751234}
  m_Layer: 0
  m_Name: Bottoms
  m_TagString: Untagged
  m_Icon: {fileID: 0}
  m_NavMeshLayer: 0
  m_StaticEditorFlags: 0
  m_IsActive: 1
--- !u!1 &166604
GameObject:
  m_ObjectHideFlags: 1
  m_CorrespondingSourceObject: {fileID: 0}
  m_PrefabInternal: {fileID: 100100000}
  serializedVersion: 6
  m_Component:
  - component: {fileID: 443246}
  m_Layer: 0
  m_Name: mixamorig:RightForeArm
  m_TagString: Untagged
  m_Icon: {fileID: 0}
  m_NavMeshLayer: 0
  m_StaticEditorFlags: 0
  m_IsActive: 1
--- !u!1 &167032
GameObject:
  m_ObjectHideFlags: 1
  m_CorrespondingSourceObject: {fileID: 0}
  m_PrefabInternal: {fileID: 100100000}
  serializedVersion: 6
  m_Component:
  - component: {fileID: 415276}
  m_Layer: 0
  m_Name: mixamorig:RightHandPinky2
  m_TagString: Untagged
  m_Icon: {fileID: 0}
  m_NavMeshLayer: 0
  m_StaticEditorFlags: 0
  m_IsActive: 1
--- !u!1 &167950
GameObject:
  m_ObjectHideFlags: 0
  m_CorrespondingSourceObject: {fileID: 0}
  m_PrefabInternal: {fileID: 100100000}
  serializedVersion: 6
  m_Component:
  - component: {fileID: 413922}
  - component: {fileID: 11162324}
  - component: {fileID: 11401554}
  - component: {fileID: 2091184}
  m_Layer: 0
  m_Name: PlayerLiam
  m_TagString: Untagged
  m_Icon: {fileID: 0}
  m_NavMeshLayer: 0
  m_StaticEditorFlags: 0
  m_IsActive: 1
--- !u!1 &169360
GameObject:
  m_ObjectHideFlags: 1
  m_CorrespondingSourceObject: {fileID: 0}
  m_PrefabInternal: {fileID: 100100000}
  serializedVersion: 6
  m_Component:
  - component: {fileID: 479380}
  m_Layer: 0
  m_Name: mixamorig:LeftHandThumb2
  m_TagString: Untagged
  m_Icon: {fileID: 0}
  m_NavMeshLayer: 0
  m_StaticEditorFlags: 0
  m_IsActive: 1
--- !u!1 &170026
GameObject:
  m_ObjectHideFlags: 1
  m_CorrespondingSourceObject: {fileID: 0}
  m_PrefabInternal: {fileID: 100100000}
  serializedVersion: 6
  m_Component:
  - component: {fileID: 448414}
  m_Layer: 0
  m_Name: mixamorig:RightEye
  m_TagString: Untagged
  m_Icon: {fileID: 0}
  m_NavMeshLayer: 0
  m_StaticEditorFlags: 0
  m_IsActive: 1
--- !u!1 &172040
GameObject:
  m_ObjectHideFlags: 1
  m_CorrespondingSourceObject: {fileID: 0}
  m_PrefabInternal: {fileID: 100100000}
  serializedVersion: 6
  m_Component:
  - component: {fileID: 482448}
  m_Layer: 0
  m_Name: mixamorig:RightHandPinky3
  m_TagString: Untagged
  m_Icon: {fileID: 0}
  m_NavMeshLayer: 0
  m_StaticEditorFlags: 0
  m_IsActive: 1
--- !u!1 &175068
GameObject:
  m_ObjectHideFlags: 1
  m_CorrespondingSourceObject: {fileID: 0}
  m_PrefabInternal: {fileID: 100100000}
  serializedVersion: 6
  m_Component:
  - component: {fileID: 415470}
  m_Layer: 0
  m_Name: mixamorig:LeftHandMiddle3
  m_TagString: Untagged
  m_Icon: {fileID: 0}
  m_NavMeshLayer: 0
  m_StaticEditorFlags: 0
  m_IsActive: 1
--- !u!1 &177116
GameObject:
  m_ObjectHideFlags: 1
  m_CorrespondingSourceObject: {fileID: 0}
  m_PrefabInternal: {fileID: 100100000}
  serializedVersion: 6
  m_Component:
  - component: {fileID: 431076}
  m_Layer: 0
  m_Name: mixamorig:LeftHandMiddle2
  m_TagString: Untagged
  m_Icon: {fileID: 0}
  m_NavMeshLayer: 0
  m_StaticEditorFlags: 0
  m_IsActive: 1
--- !u!1 &177878
GameObject:
  m_ObjectHideFlags: 1
  m_CorrespondingSourceObject: {fileID: 0}
  m_PrefabInternal: {fileID: 100100000}
  serializedVersion: 6
  m_Component:
  - component: {fileID: 435658}
  m_Layer: 0
  m_Name: mixamorig:Neck
  m_TagString: Untagged
  m_Icon: {fileID: 0}
  m_NavMeshLayer: 0
  m_StaticEditorFlags: 0
  m_IsActive: 1
--- !u!1 &178542
GameObject:
  m_ObjectHideFlags: 1
  m_CorrespondingSourceObject: {fileID: 0}
  m_PrefabInternal: {fileID: 100100000}
  serializedVersion: 6
  m_Component:
  - component: {fileID: 421888}
  m_Layer: 0
  m_Name: mixamorig:LeftHandMiddle1
  m_TagString: Untagged
  m_Icon: {fileID: 0}
  m_NavMeshLayer: 0
  m_StaticEditorFlags: 0
  m_IsActive: 1
--- !u!1 &179618
GameObject:
  m_ObjectHideFlags: 1
  m_CorrespondingSourceObject: {fileID: 0}
  m_PrefabInternal: {fileID: 100100000}
  serializedVersion: 6
  m_Component:
  - component: {fileID: 438984}
  m_Layer: 0
  m_Name: mixamorig:Spine2
  m_TagString: Untagged
  m_Icon: {fileID: 0}
  m_NavMeshLayer: 0
  m_StaticEditorFlags: 0
  m_IsActive: 1
--- !u!1 &180226
GameObject:
  m_ObjectHideFlags: 1
  m_CorrespondingSourceObject: {fileID: 0}
  m_PrefabInternal: {fileID: 100100000}
  serializedVersion: 6
  m_Component:
  - component: {fileID: 413468}
  m_Layer: 0
  m_Name: mixamorig:RightHandRing3
  m_TagString: Untagged
  m_Icon: {fileID: 0}
  m_NavMeshLayer: 0
  m_StaticEditorFlags: 0
  m_IsActive: 1
--- !u!1 &182196
GameObject:
  m_ObjectHideFlags: 1
  m_CorrespondingSourceObject: {fileID: 0}
  m_PrefabInternal: {fileID: 100100000}
  serializedVersion: 6
  m_Component:
  - component: {fileID: 427872}
  m_Layer: 0
  m_Name: mixamorig:LeftHandPinky3
  m_TagString: Untagged
  m_Icon: {fileID: 0}
  m_NavMeshLayer: 0
  m_StaticEditorFlags: 0
  m_IsActive: 1
--- !u!1 &182198
GameObject:
  m_ObjectHideFlags: 1
  m_CorrespondingSourceObject: {fileID: 0}
  m_PrefabInternal: {fileID: 100100000}
  serializedVersion: 6
  m_Component:
  - component: {fileID: 464162}
  m_Layer: 0
  m_Name: mixamorig:LeftHandThumb3
  m_TagString: Untagged
  m_Icon: {fileID: 0}
  m_NavMeshLayer: 0
  m_StaticEditorFlags: 0
  m_IsActive: 1
--- !u!1 &185458
GameObject:
  m_ObjectHideFlags: 1
  m_CorrespondingSourceObject: {fileID: 0}
  m_PrefabInternal: {fileID: 100100000}
  serializedVersion: 6
  m_Component:
  - component: {fileID: 406838}
  m_Layer: 0
  m_Name: mixamorig:RightToeBase
  m_TagString: Untagged
  m_Icon: {fileID: 0}
  m_NavMeshLayer: 0
  m_StaticEditorFlags: 0
  m_IsActive: 1
--- !u!1 &185576
GameObject:
  m_ObjectHideFlags: 0
  m_CorrespondingSourceObject: {fileID: 0}
  m_PrefabInternal: {fileID: 100100000}
  serializedVersion: 6
  m_Component:
  - component: {fileID: 495684}
  - component: {fileID: 13763222}
  m_Layer: 0
  m_Name: Shoes
  m_TagString: Untagged
  m_Icon: {fileID: 0}
  m_NavMeshLayer: 0
  m_StaticEditorFlags: 0
  m_IsActive: 1
--- !u!1 &187166
GameObject:
  m_ObjectHideFlags: 1
  m_CorrespondingSourceObject: {fileID: 0}
  m_PrefabInternal: {fileID: 100100000}
  serializedVersion: 6
  m_Component:
  - component: {fileID: 488904}
  m_Layer: 0
  m_Name: mixamorig:RightHandMiddle1
  m_TagString: Untagged
  m_Icon: {fileID: 0}
  m_NavMeshLayer: 0
  m_StaticEditorFlags: 0
  m_IsActive: 1
--- !u!1 &187410
GameObject:
  m_ObjectHideFlags: 1
  m_CorrespondingSourceObject: {fileID: 0}
  m_PrefabInternal: {fileID: 100100000}
  serializedVersion: 6
  m_Component:
  - component: {fileID: 441992}
  m_Layer: 0
  m_Name: mixamorig:RightHandRing2
  m_TagString: Untagged
  m_Icon: {fileID: 0}
  m_NavMeshLayer: 0
  m_StaticEditorFlags: 0
  m_IsActive: 1
--- !u!1 &188522
GameObject:
  m_ObjectHideFlags: 1
  m_CorrespondingSourceObject: {fileID: 0}
  m_PrefabInternal: {fileID: 100100000}
  serializedVersion: 6
  m_Component:
  - component: {fileID: 427410}
  m_Layer: 0
  m_Name: mixamorig:LeftHandIndex2
  m_TagString: Untagged
  m_Icon: {fileID: 0}
  m_NavMeshLayer: 0
  m_StaticEditorFlags: 0
  m_IsActive: 1
--- !u!1 &190186
GameObject:
  m_ObjectHideFlags: 0
  m_CorrespondingSourceObject: {fileID: 0}
  m_PrefabInternal: {fileID: 100100000}
  serializedVersion: 6
  m_Component:
  - component: {fileID: 487218}
  - component: {fileID: 13756454}
  m_Layer: 0
  m_Name: Eyes
  m_TagString: Untagged
  m_Icon: {fileID: 0}
  m_NavMeshLayer: 0
  m_StaticEditorFlags: 0
  m_IsActive: 1
--- !u!1 &191834
GameObject:
  m_ObjectHideFlags: 1
  m_CorrespondingSourceObject: {fileID: 0}
  m_PrefabInternal: {fileID: 100100000}
  serializedVersion: 6
  m_Component:
  - component: {fileID: 461456}
  m_Layer: 0
  m_Name: mixamorig:RightHandIndex1
  m_TagString: Untagged
  m_Icon: {fileID: 0}
  m_NavMeshLayer: 0
  m_StaticEditorFlags: 0
  m_IsActive: 1
--- !u!1 &192578
GameObject:
  m_ObjectHideFlags: 1
  m_CorrespondingSourceObject: {fileID: 0}
  m_PrefabInternal: {fileID: 100100000}
  serializedVersion: 6
  m_Component:
  - component: {fileID: 489098}
  m_Layer: 0
  m_Name: mixamorig:LeftHandRing1
  m_TagString: Untagged
  m_Icon: {fileID: 0}
  m_NavMeshLayer: 0
  m_StaticEditorFlags: 0
  m_IsActive: 1
--- !u!1 &192672
GameObject:
  m_ObjectHideFlags: 1
  m_CorrespondingSourceObject: {fileID: 0}
  m_PrefabInternal: {fileID: 100100000}
  serializedVersion: 6
  m_Component:
  - component: {fileID: 406714}
  m_Layer: 0
  m_Name: mixamorig:RightShoulder
  m_TagString: Untagged
  m_Icon: {fileID: 0}
  m_NavMeshLayer: 0
  m_StaticEditorFlags: 0
  m_IsActive: 1
--- !u!1 &193226
GameObject:
  m_ObjectHideFlags: 1
  m_CorrespondingSourceObject: {fileID: 0}
  m_PrefabInternal: {fileID: 100100000}
  serializedVersion: 6
  m_Component:
  - component: {fileID: 429596}
  m_Layer: 0
  m_Name: mixamorig:RightHandRing1
  m_TagString: Untagged
  m_Icon: {fileID: 0}
  m_NavMeshLayer: 0
  m_StaticEditorFlags: 0
  m_IsActive: 1
--- !u!1 &193824
GameObject:
  m_ObjectHideFlags: 1
  m_CorrespondingSourceObject: {fileID: 0}
  m_PrefabInternal: {fileID: 100100000}
  serializedVersion: 6
  m_Component:
  - component: {fileID: 476044}
  m_Layer: 0
  m_Name: mixamorig:LeftForeArm
  m_TagString: Untagged
  m_Icon: {fileID: 0}
  m_NavMeshLayer: 0
  m_StaticEditorFlags: 0
  m_IsActive: 1
--- !u!1 &194048
GameObject:
  m_ObjectHideFlags: 1
  m_CorrespondingSourceObject: {fileID: 0}
  m_PrefabInternal: {fileID: 100100000}
  serializedVersion: 6
  m_Component:
  - component: {fileID: 473370}
  m_Layer: 0
  m_Name: mixamorig:LeftHandPinky2
  m_TagString: Untagged
  m_Icon: {fileID: 0}
  m_NavMeshLayer: 0
  m_StaticEditorFlags: 0
  m_IsActive: 1
--- !u!1 &195854
GameObject:
  m_ObjectHideFlags: 1
  m_CorrespondingSourceObject: {fileID: 0}
  m_PrefabInternal: {fileID: 100100000}
  serializedVersion: 6
  m_Component:
  - component: {fileID: 415570}
  m_Layer: 0
  m_Name: mixamorig:LeftUpLeg
  m_TagString: Untagged
  m_Icon: {fileID: 0}
  m_NavMeshLayer: 0
  m_StaticEditorFlags: 0
  m_IsActive: 1
--- !u!1 &199176
GameObject:
  m_ObjectHideFlags: 1
  m_CorrespondingSourceObject: {fileID: 0}
  m_PrefabInternal: {fileID: 100100000}
  serializedVersion: 6
  m_Component:
  - component: {fileID: 448568}
  m_Layer: 0
  m_Name: mixamorig:RightHandThumb4
  m_TagString: Untagged
  m_Icon: {fileID: 0}
  m_NavMeshLayer: 0
  m_StaticEditorFlags: 0
  m_IsActive: 1
--- !u!4 &402712
Transform:
  m_ObjectHideFlags: 1
  m_CorrespondingSourceObject: {fileID: 0}
  m_PrefabInternal: {fileID: 100100000}
  m_GameObject: {fileID: 124188}
  m_LocalRotation: {x: -0.0015231245, y: 0.0010510471, z: -0.02453941, w: 0.99969715}
  m_LocalPosition: {x: 0.0711704, y: 0.2611898, z: 0.003030229}
  m_LocalScale: {x: 1, y: 1, z: 1}
  m_Children:
  - {fileID: 427410}
  m_Father: {fileID: 471774}
  m_RootOrder: 0
  m_LocalEulerAnglesHint: {x: -0.1715, y: 0.124699995, z: -2.8125}
--- !u!4 &406714
Transform:
  m_ObjectHideFlags: 1
  m_CorrespondingSourceObject: {fileID: 0}
  m_PrefabInternal: {fileID: 100100000}
  m_GameObject: {fileID: 192672}
  m_LocalRotation: {x: 0.5002196, y: 0.6067412, z: -0.48380575, w: 0.38415813}
  m_LocalPosition: {x: 0.11978935, y: 0.19051929, z: 0.02122611}
  m_LocalScale: {x: 1, y: 1, z: 1}
  m_Children:
  - {fileID: 496898}
  m_Father: {fileID: 438984}
  m_RootOrder: 2
  m_LocalEulerAnglesHint: {x: 76.268, y: -175.6877, z: 82.3928}
--- !u!4 &406838
Transform:
  m_ObjectHideFlags: 1
  m_CorrespondingSourceObject: {fileID: 0}
  m_PrefabInternal: {fileID: 100100000}
  m_GameObject: {fileID: 185458}
  m_LocalRotation: {x: 0.34454829, y: -0.0427486, z: 0.015708135, w: 0.9376632}
  m_LocalPosition: {x: -3.5527136e-17, y: 0.3073872, z: 0}
  m_LocalScale: {x: 1, y: 1, z: 1}
  m_Children:
  - {fileID: 481402}
  m_Father: {fileID: 434214}
  m_RootOrder: 0
  m_LocalEulerAnglesHint: {x: 40.3521, y: -5.2207, z: 0}
--- !u!4 &407146
Transform:
  m_ObjectHideFlags: 1
  m_CorrespondingSourceObject: {fileID: 0}
  m_PrefabInternal: {fileID: 100100000}
  m_GameObject: {fileID: 112740}
  m_LocalRotation: {x: 0.21898115, y: 0.05679201, z: 0.31449816, w: 0.9219072}
  m_LocalPosition: {x: -0.05269513, y: 0.105571, z: 0.040508457}
  m_LocalScale: {x: 1, y: 1, z: 1}
  m_Children:
  - {fileID: 438210}
  m_Father: {fileID: 451776}
  m_RootOrder: 4
  m_LocalEulerAnglesHint: {x: 21.5947, y: 15.1147995, z: 40.5718}
--- !u!4 &410384
Transform:
  m_ObjectHideFlags: 1
  m_CorrespondingSourceObject: {fileID: 0}
  m_PrefabInternal: {fileID: 100100000}
  m_GameObject: {fileID: 148270}
  m_LocalRotation: {x: 0, y: 0, z: 0, w: 1}
  m_LocalPosition: {x: -0.0010643894, y: 0.06061163, z: -5.684342e-16}
  m_LocalScale: {x: 1, y: 1, z: 1}
  m_Children: []
  m_Father: {fileID: 438676}
  m_RootOrder: 0
  m_LocalEulerAnglesHint: {x: 0, y: 0, z: 0}
--- !u!4 &413292
Transform:
  m_ObjectHideFlags: 1
  m_CorrespondingSourceObject: {fileID: 0}
  m_PrefabInternal: {fileID: 100100000}
  m_GameObject: {fileID: 155290}
  m_LocalRotation: {x: 0, y: 0, z: 0, w: 1}
  m_LocalPosition: {x: 0, y: 0, z: 0}
  m_LocalScale: {x: 1, y: 1, z: 1}
  m_Children: []
  m_Father: {fileID: 413922}
  m_RootOrder: 0
  m_LocalEulerAnglesHint: {x: 0, y: 0, z: 0}
--- !u!4 &413468
Transform:
  m_ObjectHideFlags: 1
  m_CorrespondingSourceObject: {fileID: 0}
  m_PrefabInternal: {fileID: 100100000}
  m_GameObject: {fileID: 180226}
  m_LocalRotation: {x: 0.000000096210115, y: -0.000036368892, z: -0.0075863167, w: 0.9999712}
  m_LocalPosition: {x: -0.00016741609, y: 0.06125335, z: 0}
  m_LocalScale: {x: 1, y: 1, z: 1}
  m_Children:
  - {fileID: 424544}
  m_Father: {fileID: 441992}
  m_RootOrder: 0
  m_LocalEulerAnglesHint: {x: 0, y: -0.0042, z: -0.86939996}
--- !u!4 &413914
Transform:
  m_ObjectHideFlags: 1
  m_CorrespondingSourceObject: {fileID: 0}
  m_PrefabInternal: {fileID: 100100000}
  m_GameObject: {fileID: 110426}
  m_LocalRotation: {x: -0.000001329299, y: 0.0002606657, z: -0.0038477078, w: 0.99999255}
  m_LocalPosition: {x: -0.0001684528, y: 0.06597131, z: 5.684342e-16}
  m_LocalScale: {x: 1, y: 1, z: 1}
  m_Children:
  - {fileID: 452488}
  m_Father: {fileID: 461456}
  m_RootOrder: 0
  m_LocalEulerAnglesHint: {x: 0, y: 0.0299, z: -0.4409}
--- !u!4 &413922
Transform:
  m_ObjectHideFlags: 1
  m_CorrespondingSourceObject: {fileID: 0}
  m_PrefabInternal: {fileID: 100100000}
  m_GameObject: {fileID: 167950}
  m_LocalRotation: {x: 0, y: 0, z: 0, w: 1}
  m_LocalPosition: {x: 0, y: 0, z: 0}
  m_LocalScale: {x: 1, y: 1, z: 1}
  m_Children:
  - {fileID: 413292}
  - {fileID: 432526}
  - {fileID: 418766}
  - {fileID: 487218}
  - {fileID: 486382}
  - {fileID: 495684}
  - {fileID: 457094}
  m_Father: {fileID: 0}
  m_RootOrder: 0
  m_LocalEulerAnglesHint: {x: 0, y: 0, z: 0}
--- !u!4 &414150
Transform:
  m_ObjectHideFlags: 1
  m_CorrespondingSourceObject: {fileID: 0}
  m_PrefabInternal: {fileID: 100100000}
  m_GameObject: {fileID: 162170}
  m_LocalRotation: {x: 0.0006478122, y: 0.00016463085, z: -0.08601684, w: 0.9962935}
  m_LocalPosition: {x: -0, y: 0.21914098, z: 0}
  m_LocalScale: {x: 1, y: 1, z: 1}
  m_Children:
  - {fileID: 476044}
  m_Father: {fileID: 497538}
  m_RootOrder: 0
  m_LocalEulerAnglesHint: {x: 0.0756, y: 0.012399999, z: -9.8689995}
--- !u!4 &415276
Transform:
  m_ObjectHideFlags: 1
  m_CorrespondingSourceObject: {fileID: 0}
  m_PrefabInternal: {fileID: 100100000}
  m_GameObject: {fileID: 167032}
  m_LocalRotation: {x: -0.0000055631153, y: 0.0003052895, z: 0.012477987, w: 0.9999221}
  m_LocalPosition: {x: -0.0018404697, y: 0.057258684, z: 0}
  m_LocalScale: {x: 1, y: 1, z: 1}
  m_Children:
  - {fileID: 482448}
  m_Father: {fileID: 426690}
  m_RootOrder: 0
  m_LocalEulerAnglesHint: {x: -0.0011, y: 0.035, z: 1.4298999}
--- !u!4 &415470
Transform:
  m_ObjectHideFlags: 1
  m_CorrespondingSourceObject: {fileID: 0}
  m_PrefabInternal: {fileID: 100100000}
  m_GameObject: {fileID: 175068}
  m_LocalRotation: {x: 0.00000018443758, y: -0.0000071430045, z: 0.010941014, w: 0.99994016}
  m_LocalPosition: {x: -0.0006793839, y: 0.06382484, z: -5.684342e-16}
  m_LocalScale: {x: 1, y: 1, z: 1}
  m_Children:
  - {fileID: 490576}
  m_Father: {fileID: 431076}
  m_RootOrder: 0
  m_LocalEulerAnglesHint: {x: 0, y: -0.0008, z: 1.2537999}
--- !u!4 &415570
Transform:
  m_ObjectHideFlags: 1
  m_CorrespondingSourceObject: {fileID: 0}
  m_PrefabInternal: {fileID: 100100000}
  m_GameObject: {fileID: 195854}
  m_LocalRotation: {x: -0.00006758085, y: -0.00009143011, z: 0.99994147, w: -0.010820218}
  m_LocalPosition: {x: -0.201965, y: -0.1427708, z: 0.00076496875}
  m_LocalScale: {x: 1, y: 1, z: 1}
  m_Children:
  - {fileID: 438196}
  m_Father: {fileID: 486382}
  m_RootOrder: 0
  m_LocalEulerAnglesHint: {x: 0.0106, y: -0.0075999997, z: -178.7601}
--- !u!4 &418248
Transform:
  m_ObjectHideFlags: 1
  m_CorrespondingSourceObject: {fileID: 0}
  m_PrefabInternal: {fileID: 100100000}
  m_GameObject: {fileID: 153294}
  m_LocalRotation: {x: 0, y: 0, z: 0, w: 1}
  m_LocalPosition: {x: -0.0013782075, y: 0.04544392, z: 5.684342e-16}
  m_LocalScale: {x: 1, y: 1, z: 1}
  m_Children: []
  m_Father: {fileID: 427872}
  m_RootOrder: 0
  m_LocalEulerAnglesHint: {x: 0, y: 0, z: 0}
--- !u!4 &418254
Transform:
  m_ObjectHideFlags: 1
  m_CorrespondingSourceObject: {fileID: 0}
  m_PrefabInternal: {fileID: 100100000}
  m_GameObject: {fileID: 117782}
  m_LocalRotation: {x: 0.35128078, y: 0.0021134815, z: -0.0007929643, w: 0.9362675}
  m_LocalPosition: {x: -0, y: 0.30779245, z: 1.7763568e-17}
  m_LocalScale: {x: 1, y: 1, z: 1}
  m_Children:
  - {fileID: 447508}
  m_Father: {fileID: 482970}
  m_RootOrder: 0
  m_LocalEulerAnglesHint: {x: 41.1315, y: 0.25869998, z: 0}
--- !u!4 &418766
Transform:
  m_ObjectHideFlags: 1
  m_CorrespondingSourceObject: {fileID: 0}
  m_PrefabInternal: {fileID: 100100000}
  m_GameObject: {fileID: 105450}
  m_LocalRotation: {x: 0, y: 0, z: 0, w: 1}
  m_LocalPosition: {x: 0, y: 0, z: 0}
  m_LocalScale: {x: 1, y: 1, z: 1}
  m_Children: []
  m_Father: {fileID: 413922}
  m_RootOrder: 2
  m_LocalEulerAnglesHint: {x: 0, y: 0, z: 0}
--- !u!4 &421888
Transform:
  m_ObjectHideFlags: 1
  m_CorrespondingSourceObject: {fileID: 0}
  m_PrefabInternal: {fileID: 100100000}
  m_GameObject: {fileID: 178542}
  m_LocalRotation: {x: -0.0015754903, y: -0.000044792163, z: -0.036882106, w: 0.99931836}
  m_LocalPosition: {x: 0.01990851, y: 0.26945162, z: -0.00084987737}
  m_LocalScale: {x: 1, y: 1, z: 1}
  m_Children:
  - {fileID: 431076}
  m_Father: {fileID: 471774}
  m_RootOrder: 1
  m_LocalEulerAnglesHint: {x: -0.18069999, y: 0.0015, z: -4.2274}
--- !u!4 &424544
Transform:
  m_ObjectHideFlags: 1
  m_CorrespondingSourceObject: {fileID: 0}
  m_PrefabInternal: {fileID: 100100000}
  m_GameObject: {fileID: 135066}
  m_LocalRotation: {x: 0, y: 0, z: 0, w: 1}
  m_LocalPosition: {x: -0.0012183392, y: 0.06804051, z: 5.684342e-16}
  m_LocalScale: {x: 1, y: 1, z: 1}
  m_Children: []
  m_Father: {fileID: 413468}
  m_RootOrder: 0
  m_LocalEulerAnglesHint: {x: 0, y: 0, z: 0}
--- !u!4 &425938
Transform:
  m_ObjectHideFlags: 1
  m_CorrespondingSourceObject: {fileID: 0}
  m_PrefabInternal: {fileID: 100100000}
  m_GameObject: {fileID: 123414}
  m_LocalRotation: {x: -0.07614499, y: -0.0011036034, z: 0.016691536, w: 0.99695647}
  m_LocalPosition: {x: -0, y: 0.92179906, z: 0}
  m_LocalScale: {x: 1, y: 1, z: 1}
  m_Children:
  - {fileID: 434214}
  m_Father: {fileID: 437882}
  m_RootOrder: 0
  m_LocalEulerAnglesHint: {x: -8.7307, y: -0.2749, z: 1.9394}
--- !u!4 &426690
Transform:
  m_ObjectHideFlags: 1
  m_CorrespondingSourceObject: {fileID: 0}
  m_PrefabInternal: {fileID: 100100000}
  m_GameObject: {fileID: 150914}
  m_LocalRotation: {x: -0.0041287974, y: -0.00014210734, z: 0.02099187, w: 0.9997711}
  m_LocalPosition: {x: 0.06872116, y: 0.23732656, z: 0.0036458347}
  m_LocalScale: {x: 1, y: 1, z: 1}
  m_Children:
  - {fileID: 415276}
  m_Father: {fileID: 451776}
  m_RootOrder: 2
  m_LocalEulerAnglesHint: {x: -0.4727, y: -0.0262, z: 2.4057999}
--- !u!4 &427410
Transform:
  m_ObjectHideFlags: 1
  m_CorrespondingSourceObject: {fileID: 0}
  m_PrefabInternal: {fileID: 100100000}
  m_GameObject: {fileID: 188522}
  m_LocalRotation: {x: -0.000000011303623, y: -0.0000065553536, z: -0.019401522, w: 0.99981177}
  m_LocalPosition: {x: 0.0016300795, y: 0.06605513, z: 5.684342e-16}
  m_LocalScale: {x: 1, y: 1, z: 1}
  m_Children:
  - {fileID: 459398}
  m_Father: {fileID: 402712}
  m_RootOrder: 0
  m_LocalEulerAnglesHint: {x: 0, y: -0.0007, z: -2.2233999}
--- !u!4 &427508
Transform:
  m_ObjectHideFlags: 1
  m_CorrespondingSourceObject: {fileID: 0}
  m_PrefabInternal: {fileID: 100100000}
  m_GameObject: {fileID: 156856}
  m_LocalRotation: {x: 0, y: 0, z: 0, w: 1}
  m_LocalPosition: {x: -0.0012513172, y: 0.07613826, z: -5.684342e-16}
  m_LocalScale: {x: 1, y: 1, z: 1}
  m_Children: []
  m_Father: {fileID: 460022}
  m_RootOrder: 0
  m_LocalEulerAnglesHint: {x: 0, y: 0, z: 0}
--- !u!4 &427872
Transform:
  m_ObjectHideFlags: 1
  m_CorrespondingSourceObject: {fileID: 0}
  m_PrefabInternal: {fileID: 100100000}
  m_GameObject: {fileID: 182196}
  m_LocalRotation: {x: -0.00000004345709, y: 0.000017420456, z: -0.02032584, w: 0.9997934}
  m_LocalPosition: {x: 0.00042995045, y: 0.04158225, z: 0}
  m_LocalScale: {x: 1, y: 1, z: 1}
  m_Children:
  - {fileID: 418248}
  m_Father: {fileID: 473370}
  m_RootOrder: 0
  m_LocalEulerAnglesHint: {x: 0, y: 0.0019999999, z: -2.3293}
--- !u!4 &427924
Transform:
  m_ObjectHideFlags: 1
  m_CorrespondingSourceObject: {fileID: 0}
  m_PrefabInternal: {fileID: 100100000}
  m_GameObject: {fileID: 135190}
  m_LocalRotation: {x: -0, y: -1.4105932e-37, z: -1.0285576e-37, w: 1}
  m_LocalPosition: {x: -0.06583328, y: 0.15572941, z: 0.1885759}
  m_LocalScale: {x: 1, y: 1, z: 1}
  m_Children: []
  m_Father: {fileID: 430470}
  m_RootOrder: 1
  m_LocalEulerAnglesHint: {x: 0, y: 0, z: 0}
--- !u!4 &428176
Transform:
  m_ObjectHideFlags: 1
  m_CorrespondingSourceObject: {fileID: 0}
  m_PrefabInternal: {fileID: 100100000}
  m_GameObject: {fileID: 118402}
  m_LocalRotation: {x: 0, y: 0, z: 0, w: 1}
  m_LocalPosition: {x: 0.0020933212, y: 0.046311744, z: 0}
  m_LocalScale: {x: 1, y: 1, z: 1}
  m_Children: []
  m_Father: {fileID: 482448}
  m_RootOrder: 0
  m_LocalEulerAnglesHint: {x: 0, y: 0, z: 0}
--- !u!4 &429596
Transform:
  m_ObjectHideFlags: 1
  m_CorrespondingSourceObject: {fileID: 0}
  m_PrefabInternal: {fileID: 100100000}
  m_GameObject: {fileID: 193226}
  m_LocalRotation: {x: -0.004132158, y: 0.000026251124, z: 0.0489407, w: 0.9987932}
  m_LocalPosition: {x: 0.023303982, y: 0.2548345, z: -0.0030272992}
  m_LocalScale: {x: 1, y: 1, z: 1}
  m_Children:
  - {fileID: 441992}
  m_Father: {fileID: 451776}
  m_RootOrder: 3
  m_LocalEulerAnglesHint: {x: -0.47309998, y: -0.0201, z: 5.6106}
--- !u!4 &430470
Transform:
  m_ObjectHideFlags: 1
  m_CorrespondingSourceObject: {fileID: 0}
  m_PrefabInternal: {fileID: 100100000}
  m_GameObject: {fileID: 118752}
  m_LocalRotation: {x: 5.293956e-23, y: -1e-45, z: -3.6795846e-23, w: 1}
  m_LocalPosition: {x: -0.0015438028, y: 0.19089389, z: 0.063273534}
  m_LocalScale: {x: 1, y: 1, z: 1}
  m_Children:
  - {fileID: 466466}
  - {fileID: 427924}
  - {fileID: 448414}
  m_Father: {fileID: 435658}
  m_RootOrder: 0
  m_LocalEulerAnglesHint: {x: 0, y: 0, z: 0}
--- !u!4 &431076
Transform:
  m_ObjectHideFlags: 1
  m_CorrespondingSourceObject: {fileID: 0}
  m_PrefabInternal: {fileID: 100100000}
  m_GameObject: {fileID: 177116}
  m_LocalRotation: {x: 0.00000005412031, y: -0.00006627903, z: -0.005305187, w: 0.99998593}
  m_LocalPosition: {x: -0.0000019740835, y: 0.07267848, z: -5.684342e-16}
  m_LocalScale: {x: 1, y: 1, z: 1}
  m_Children:
  - {fileID: 415470}
  m_Father: {fileID: 421888}
  m_RootOrder: 0
  m_LocalEulerAnglesHint: {x: 0, y: -0.0075999997, z: -0.60789996}
--- !u!4 &432024
Transform:
  m_ObjectHideFlags: 1
  m_CorrespondingSourceObject: {fileID: 0}
  m_PrefabInternal: {fileID: 100100000}
  m_GameObject: {fileID: 124580}
  m_LocalRotation: {x: 0.0000020150208, y: 0.00023412459, z: -0.0044367225, w: 0.99999017}
  m_LocalPosition: {x: 0.00083471864, y: 0.06513561, z: 5.684342e-16}
  m_LocalScale: {x: 1, y: 1, z: 1}
  m_Children:
  - {fileID: 438676}
  m_Father: {fileID: 489098}
  m_RootOrder: 0
  m_LocalEulerAnglesHint: {x: 0.0004, y: 0.0268, z: -0.50839996}
--- !u!4 &432322
Transform:
  m_ObjectHideFlags: 1
  m_CorrespondingSourceObject: {fileID: 0}
  m_PrefabInternal: {fileID: 100100000}
  m_GameObject: {fileID: 130284}
  m_LocalRotation: {x: 0, y: 0, z: 0, w: 1}
  m_LocalPosition: {x: -0.00080147997, y: 0.053454638, z: 0}
  m_LocalScale: {x: 1, y: 1, z: 1}
  m_Children: []
  m_Father: {fileID: 459398}
  m_RootOrder: 0
  m_LocalEulerAnglesHint: {x: 0, y: 0, z: 0}
--- !u!4 &432526
Transform:
  m_ObjectHideFlags: 1
  m_CorrespondingSourceObject: {fileID: 0}
  m_PrefabInternal: {fileID: 100100000}
  m_GameObject: {fileID: 163744}
  m_LocalRotation: {x: 0, y: 0, z: 0, w: 1}
  m_LocalPosition: {x: 0, y: 0, z: 0}
  m_LocalScale: {x: 1, y: 1, z: 1}
  m_Children: []
  m_Father: {fileID: 413922}
  m_RootOrder: 1
  m_LocalEulerAnglesHint: {x: 0, y: 0, z: 0}
--- !u!4 &434120
Transform:
  m_ObjectHideFlags: 1
  m_CorrespondingSourceObject: {fileID: 0}
  m_PrefabInternal: {fileID: 100100000}
  m_GameObject: {fileID: 144774}
  m_LocalRotation: {x: 0.01739885, y: -0.00008282328, z: -0.0047595017, w: 0.99983734}
  m_LocalPosition: {x: -0, y: 0.19753997, z: -1.7763568e-17}
  m_LocalScale: {x: 1, y: 1, z: 1}
  m_Children:
  - {fileID: 438984}
  m_Father: {fileID: 491300}
  m_RootOrder: 0
  m_LocalEulerAnglesHint: {x: 1.9937999, y: -0.019, z: -0.5458}
--- !u!4 &434214
Transform:
  m_ObjectHideFlags: 1
  m_CorrespondingSourceObject: {fileID: 0}
  m_PrefabInternal: {fileID: 100100000}
  m_GameObject: {fileID: 109150}
  m_LocalRotation: {x: 0.4604143, y: -0.01172861, z: 0.0033854344, w: 0.8876203}
  m_LocalPosition: {x: 3.5527136e-17, y: 0.8154421, z: 0}
  m_LocalScale: {x: 1, y: 1, z: 1}
  m_Children:
  - {fileID: 406838}
  m_Father: {fileID: 425938}
  m_RootOrder: 0
  m_LocalEulerAnglesHint: {x: 54.8279, y: -1.7612, z: -0.4764}
--- !u!4 &435658
Transform:
  m_ObjectHideFlags: 1
  m_CorrespondingSourceObject: {fileID: 0}
  m_PrefabInternal: {fileID: 100100000}
  m_GameObject: {fileID: 177878}
  m_LocalRotation: {x: 0.0024337794, y: 0.00019604576, z: -0.0029814858, w: 0.9999926}
  m_LocalPosition: {x: -0.0069572977, y: 0.30680463, z: 0.029499039}
  m_LocalScale: {x: 1, y: 1, z: 1}
  m_Children:
  - {fileID: 430470}
  m_Father: {fileID: 438984}
  m_RootOrder: 1
  m_LocalEulerAnglesHint: {x: 0.27899998, y: 0.021599999, z: -0.3416}
--- !u!4 &436294
Transform:
  m_ObjectHideFlags: 1
  m_CorrespondingSourceObject: {fileID: 0}
  m_PrefabInternal: {fileID: 100100000}
  m_GameObject: {fileID: 122564}
  m_LocalRotation: {x: 0.000003229264, y: 0.00029562923, z: -0.009339818, w: 0.99995637}
  m_LocalPosition: {x: 0.0012195675, y: 0.06351094, z: 0}
  m_LocalScale: {x: 1, y: 1, z: 1}
  m_Children:
  - {fileID: 460022}
  m_Father: {fileID: 488904}
  m_RootOrder: 0
  m_LocalEulerAnglesHint: {x: 0.0007, y: 0.0339, z: -1.0703}
--- !u!4 &437882
Transform:
  m_ObjectHideFlags: 1
  m_CorrespondingSourceObject: {fileID: 0}
  m_PrefabInternal: {fileID: 100100000}
  m_GameObject: {fileID: 112340}
  m_LocalRotation: {x: -0.00014261632, y: 0.019138638, z: 0.9997789, w: 0.008708889}
  m_LocalPosition: {x: 0.19350919, y: -0.15749948, z: 0.0060255043}
  m_LocalScale: {x: 1, y: 1, z: 1}
  m_Children:
  - {fileID: 425938}
  m_Father: {fileID: 486382}
  m_RootOrder: 1
  m_LocalEulerAnglesHint: {x: -2.1934, y: 0.0028, z: 179.0018}
--- !u!4 &438196
Transform:
  m_ObjectHideFlags: 1
  m_CorrespondingSourceObject: {fileID: 0}
  m_PrefabInternal: {fileID: 100100000}
  m_GameObject: {fileID: 162234}
  m_LocalRotation: {x: -0.031442214, y: 0.001022641, z: -0.024969472, w: 0.99919313}
  m_LocalPosition: {x: -0, y: 0.9207179, z: 0}
  m_LocalScale: {x: 1, y: 1, z: 1}
  m_Children:
  - {fileID: 482970}
  m_Father: {fileID: 415570}
  m_RootOrder: 0
  m_LocalEulerAnglesHint: {x: -3.5995, y: 0.2075, z: -2.8695}
--- !u!4 &438210
Transform:
  m_ObjectHideFlags: 1
  m_CorrespondingSourceObject: {fileID: 0}
  m_PrefabInternal: {fileID: 100100000}
  m_GameObject: {fileID: 115706}
  m_LocalRotation: {x: 0.00004327384, y: 0.0016360878, z: -0.036882486, w: 0.9993183}
  m_LocalPosition: {x: 0.0058173058, y: 0.09206205, z: 5.684342e-16}
  m_LocalScale: {x: 1, y: 1, z: 1}
  m_Children:
  - {fileID: 452410}
  m_Father: {fileID: 407146}
  m_RootOrder: 0
  m_LocalEulerAnglesHint: {x: 0.011899999, y: 0.1872, z: -4.2274}
--- !u!4 &438676
Transform:
  m_ObjectHideFlags: 1
  m_CorrespondingSourceObject: {fileID: 0}
  m_PrefabInternal: {fileID: 100100000}
  m_GameObject: {fileID: 120204}
  m_LocalRotation: {x: 0.000003853307, y: -0.0005950831, z: -0.010748514, w: 0.99994206}
  m_LocalPosition: {x: 0.0002296707, y: 0.058301404, z: -5.684342e-16}
  m_LocalScale: {x: 1, y: 1, z: 1}
  m_Children:
  - {fileID: 410384}
  m_Father: {fileID: 432024}
  m_RootOrder: 0
  m_LocalEulerAnglesHint: {x: -0.00029999999, y: -0.0682, z: -1.2317}
--- !u!4 &438802
Transform:
  m_ObjectHideFlags: 1
  m_CorrespondingSourceObject: {fileID: 0}
  m_PrefabInternal: {fileID: 100100000}
  m_GameObject: {fileID: 154106}
  m_LocalRotation: {x: -0.0016173241, y: -0.00095457677, z: -0.029066531, w: 0.99957573}
  m_LocalPosition: {x: -0.06968742, y: 0.22512868, z: 0.0041108266}
  m_LocalScale: {x: 1, y: 1, z: 1}
  m_Children:
  - {fileID: 473370}
  m_Father: {fileID: 471774}
  m_RootOrder: 2
  m_LocalEulerAnglesHint: {x: -0.1885, y: -0.103999995, z: -3.3311}
--- !u!4 &438984
Transform:
  m_ObjectHideFlags: 1
  m_CorrespondingSourceObject: {fileID: 0}
  m_PrefabInternal: {fileID: 100100000}
  m_GameObject: {fileID: 179618}
  m_LocalRotation: {x: 0, y: -0, z: -2.4532192e-19, w: 1}
  m_LocalPosition: {x: 4.440892e-18, y: 0.2561352, z: 0}
  m_LocalScale: {x: 1, y: 1, z: 1}
  m_Children:
  - {fileID: 497538}
  - {fileID: 435658}
  - {fileID: 406714}
  m_Father: {fileID: 434120}
  m_RootOrder: 0
  m_LocalEulerAnglesHint: {x: 0, y: 0, z: 0}
--- !u!4 &441992
Transform:
  m_ObjectHideFlags: 1
  m_CorrespondingSourceObject: {fileID: 0}
  m_PrefabInternal: {fileID: 100100000}
  m_GameObject: {fileID: 187410}
  m_LocalRotation: {x: -0.0000042041324, y: -0.00036660835, z: -0.013268328, w: 0.9999119}
  m_LocalPosition: {x: 0.0013857553, y: 0.05819727, z: 5.684342e-16}
  m_LocalScale: {x: 1, y: 1, z: 1}
  m_Children:
  - {fileID: 413468}
  m_Father: {fileID: 429596}
  m_RootOrder: 0
  m_LocalEulerAnglesHint: {x: -0.0009999999, y: -0.042, z: -1.5205}
--- !u!4 &443246
Transform:
  m_ObjectHideFlags: 1
  m_CorrespondingSourceObject: {fileID: 0}
  m_PrefabInternal: {fileID: 100100000}
  m_GameObject: {fileID: 166604}
  m_LocalRotation: {x: -0.0000001891898, y: -0.00064252684, z: -0.00000023320281,
    w: 0.9999998}
  m_LocalPosition: {x: -0, y: 0.57108754, z: -5.684342e-16}
  m_LocalScale: {x: 1, y: 1, z: 1}
  m_Children:
  - {fileID: 451776}
  m_Father: {fileID: 496898}
  m_RootOrder: 0
  m_LocalEulerAnglesHint: {x: 0, y: -0.0736, z: 0}
--- !u!4 &447508
Transform:
  m_ObjectHideFlags: 1
  m_CorrespondingSourceObject: {fileID: 0}
  m_PrefabInternal: {fileID: 100100000}
  m_GameObject: {fileID: 104678}
  m_LocalRotation: {x: 0, y: 0, z: 0, w: 1}
  m_LocalPosition: {x: 3.5527136e-17, y: 0.1932727, z: 0}
  m_LocalScale: {x: 1, y: 1, z: 1}
  m_Children: []
  m_Father: {fileID: 418254}
  m_RootOrder: 0
  m_LocalEulerAnglesHint: {x: 0, y: 0, z: 0}
--- !u!4 &448414
Transform:
  m_ObjectHideFlags: 1
  m_CorrespondingSourceObject: {fileID: 0}
  m_PrefabInternal: {fileID: 100100000}
  m_GameObject: {fileID: 170026}
  m_LocalRotation: {x: -0, y: -1.4105932e-37, z: -1.0285576e-37, w: 1}
  m_LocalPosition: {x: 0.07208668, y: 0.1521666, z: 0.18697971}
  m_LocalScale: {x: 1, y: 1, z: 1}
  m_Children: []
  m_Father: {fileID: 430470}
  m_RootOrder: 2
  m_LocalEulerAnglesHint: {x: 0, y: 0, z: 0}
--- !u!4 &448568
Transform:
  m_ObjectHideFlags: 1
  m_CorrespondingSourceObject: {fileID: 0}
  m_PrefabInternal: {fileID: 100100000}
  m_GameObject: {fileID: 199176}
  m_LocalRotation: {x: 0, y: 0, z: 0, w: 1}
  m_LocalPosition: {x: -0.005039903, y: 0.06148714, z: 0}
  m_LocalScale: {x: 1, y: 1, z: 1}
  m_Children: []
  m_Father: {fileID: 452410}
  m_RootOrder: 0
  m_LocalEulerAnglesHint: {x: 0, y: 0, z: 0}
--- !u!4 &451776
Transform:
  m_ObjectHideFlags: 1
  m_CorrespondingSourceObject: {fileID: 0}
  m_PrefabInternal: {fileID: 100100000}
  m_GameObject: {fileID: 161724}
  m_LocalRotation: {x: 0.008385634, y: -0.115450695, z: -0.036321238, w: 0.99261355}
  m_LocalPosition: {x: 1.4210854e-16, y: 0.5463653, z: 0}
  m_LocalScale: {x: 1, y: 1, z: 1}
  m_Children:
  - {fileID: 461456}
  - {fileID: 488904}
  - {fileID: 426690}
  - {fileID: 429596}
  - {fileID: 407146}
  m_Father: {fileID: 443246}
  m_RootOrder: 0
  m_LocalEulerAnglesHint: {x: 0.47329998, y: -13.286099, z: -4.2462997}
--- !u!4 &452410
Transform:
  m_ObjectHideFlags: 1
  m_CorrespondingSourceObject: {fileID: 0}
  m_PrefabInternal: {fileID: 100100000}
  m_GameObject: {fileID: 123660}
  m_LocalRotation: {x: -0.00007030402, y: 0.0015126194, z: -0.0355459, w: 0.9993669}
  m_LocalPosition: {x: -0.0007774028, y: 0.07275665, z: 0}
  m_LocalScale: {x: 1, y: 1, z: 1}
  m_Children:
  - {fileID: 448568}
  m_Father: {fileID: 438210}
  m_RootOrder: 0
  m_LocalEulerAnglesHint: {x: -0.0018999999, y: 0.1735, z: -4.0741}
--- !u!4 &452488
Transform:
  m_ObjectHideFlags: 1
  m_CorrespondingSourceObject: {fileID: 0}
  m_PrefabInternal: {fileID: 100100000}
  m_GameObject: {fileID: 125264}
  m_LocalRotation: {x: 0.000000075708094, y: -0.000015236952, z: 0.011350476, w: 0.9999356}
  m_LocalPosition: {x: -0.0005541826, y: 0.05408933, z: 0}
  m_LocalScale: {x: 1, y: 1, z: 1}
  m_Children:
  - {fileID: 464296}
  m_Father: {fileID: 413914}
  m_RootOrder: 0
  m_LocalEulerAnglesHint: {x: 0, y: -0.0016999999, z: 1.3007}
--- !u!4 &457094
Transform:
  m_ObjectHideFlags: 1
  m_CorrespondingSourceObject: {fileID: 0}
  m_PrefabInternal: {fileID: 100100000}
  m_GameObject: {fileID: 146262}
  m_LocalRotation: {x: 0, y: 0, z: 0, w: 1}
  m_LocalPosition: {x: 0, y: 0, z: 0}
  m_LocalScale: {x: 1, y: 1, z: 1}
  m_Children: []
  m_Father: {fileID: 413922}
  m_RootOrder: 6
  m_LocalEulerAnglesHint: {x: 0, y: 0, z: 0}
--- !u!4 &459398
Transform:
  m_ObjectHideFlags: 1
  m_CorrespondingSourceObject: {fileID: 0}
  m_PrefabInternal: {fileID: 100100000}
  m_GameObject: {fileID: 143138}
  m_LocalRotation: {x: -0.000007710095, y: 0.00051426614, z: -0.000424757, w: 0.9999998}
  m_LocalPosition: {x: -0.0008285994, y: 0.058648963, z: -5.684342e-16}
  m_LocalScale: {x: 1, y: 1, z: 1}
  m_Children:
  - {fileID: 432322}
  m_Father: {fileID: 427410}
  m_RootOrder: 0
  m_LocalEulerAnglesHint: {x: -0.0009, y: 0.0589, z: -0.048699997}
--- !u!4 &460022
Transform:
  m_ObjectHideFlags: 1
  m_CorrespondingSourceObject: {fileID: 0}
  m_PrefabInternal: {fileID: 100100000}
  m_GameObject: {fileID: 117982}
  m_LocalRotation: {x: -0.0000018748609, y: 0.00022100208, z: -0.008477881, w: 0.99996406}
  m_LocalPosition: {x: 0.0000317498, y: 0.06073875, z: -5.684342e-16}
  m_LocalScale: {x: 1, y: 1, z: 1}
  m_Children:
  - {fileID: 427508}
  m_Father: {fileID: 436294}
  m_RootOrder: 0
  m_LocalEulerAnglesHint: {x: 0, y: 0.0253, z: -0.9715}
--- !u!4 &461456
Transform:
  m_ObjectHideFlags: 1
  m_CorrespondingSourceObject: {fileID: 0}
  m_PrefabInternal: {fileID: 100100000}
  m_GameObject: {fileID: 191834}
  m_LocalRotation: {x: -0.0041272733, y: -0.00016947663, z: 0.035774797, w: 0.9993514}
  m_LocalPosition: {x: -0.07238724, y: 0.2569009, z: 0.0030807336}
  m_LocalScale: {x: 1, y: 1, z: 1}
  m_Children:
  - {fileID: 413914}
  m_Father: {fileID: 451776}
  m_RootOrder: 0
  m_LocalEulerAnglesHint: {x: -0.472, y: -0.036399998, z: 4.1006}
--- !u!4 &464162
Transform:
  m_ObjectHideFlags: 1
  m_CorrespondingSourceObject: {fileID: 0}
  m_PrefabInternal: {fileID: 100100000}
  m_GameObject: {fileID: 182198}
  m_LocalRotation: {x: -0.00007349287, y: -0.0016795889, z: 0.038025875, w: 0.9992753}
  m_LocalPosition: {x: 0.00042882081, y: 0.074198164, z: -5.684342e-16}
  m_LocalScale: {x: 1, y: 1, z: 1}
  m_Children:
  - {fileID: 494324}
  m_Father: {fileID: 479380}
  m_RootOrder: 0
  m_LocalEulerAnglesHint: {x: -0.0011, y: -0.1926, z: 4.3585}
--- !u!4 &464296
Transform:
  m_ObjectHideFlags: 1
  m_CorrespondingSourceObject: {fileID: 0}
  m_PrefabInternal: {fileID: 100100000}
  m_GameObject: {fileID: 136602}
  m_LocalRotation: {x: 0, y: 0, z: 0, w: 1}
  m_LocalPosition: {x: 0.0007226354, y: 0.058024526, z: 5.684342e-16}
  m_LocalScale: {x: 1, y: 1, z: 1}
  m_Children: []
  m_Father: {fileID: 452488}
  m_RootOrder: 0
  m_LocalEulerAnglesHint: {x: 0, y: 0, z: 0}
--- !u!4 &464518
Transform:
  m_ObjectHideFlags: 1
  m_CorrespondingSourceObject: {fileID: 0}
  m_PrefabInternal: {fileID: 100100000}
  m_GameObject: {fileID: 120978}
  m_LocalRotation: {x: 0.22603023, y: -0.03914055, z: -0.30439118, w: 0.9245131}
  m_LocalPosition: {x: 0.063776284, y: 0.105425104, z: 0.034477163}
  m_LocalScale: {x: 1, y: 1, z: 1}
  m_Children:
  - {fileID: 479380}
  m_Father: {fileID: 471774}
  m_RootOrder: 4
  m_LocalEulerAnglesHint: {x: 23.210299, y: -13.2067995, z: -39.171497}
--- !u!4 &466466
Transform:
  m_ObjectHideFlags: 1
  m_CorrespondingSourceObject: {fileID: 0}
  m_PrefabInternal: {fileID: 100100000}
  m_GameObject: {fileID: 116346}
  m_LocalRotation: {x: 0, y: 0, z: 0, w: 1}
  m_LocalPosition: {x: 0.0009018136, y: 0.371989, z: 0.12932587}
  m_LocalScale: {x: 1, y: 1, z: 1}
  m_Children: []
  m_Father: {fileID: 430470}
  m_RootOrder: 0
  m_LocalEulerAnglesHint: {x: 0, y: 0, z: 0}
--- !u!4 &471774
Transform:
  m_ObjectHideFlags: 1
  m_CorrespondingSourceObject: {fileID: 0}
  m_PrefabInternal: {fileID: 100100000}
  m_GameObject: {fileID: 104556}
  m_LocalRotation: {x: 0.006062436, y: 0.1219688, z: 0.036399778, w: 0.99184775}
  m_LocalPosition: {x: -0, y: 0.5274463, z: 5.684342e-16}
  m_LocalScale: {x: 1, y: 1, z: 1}
  m_Children:
  - {fileID: 402712}
  - {fileID: 421888}
  - {fileID: 438802}
  - {fileID: 489098}
  - {fileID: 464518}
  m_Father: {fileID: 476044}
  m_RootOrder: 0
  m_LocalEulerAnglesHint: {x: 0.1803, y: 14.027699, z: 4.2257}
--- !u!4 &473370
Transform:
  m_ObjectHideFlags: 1
  m_CorrespondingSourceObject: {fileID: 0}
  m_PrefabInternal: {fileID: 100100000}
  m_GameObject: {fileID: 194048}
  m_LocalRotation: {x: 0.00000186897, y: 0.00017349038, z: -0.0026335544, w: 0.99999654}
  m_LocalPosition: {x: 0.000948257, y: 0.060733855, z: 5.684342e-16}
  m_LocalScale: {x: 1, y: 1, z: 1}
  m_Children:
  - {fileID: 427872}
  m_Father: {fileID: 438802}
  m_RootOrder: 0
  m_LocalEulerAnglesHint: {x: 0.00029999999, y: 0.0199, z: -0.30179998}
--- !u!4 &476044
Transform:
  m_ObjectHideFlags: 1
  m_CorrespondingSourceObject: {fileID: 0}
  m_PrefabInternal: {fileID: 100100000}
  m_GameObject: {fileID: 193824}
  m_LocalRotation: {x: -0.00000016417235, y: 0.00051908573, z: 0.00000024978124, w: 0.9999999}
  m_LocalPosition: {x: -0, y: 0.5945888, z: -5.684342e-16}
  m_LocalScale: {x: 1, y: 1, z: 1}
  m_Children:
  - {fileID: 471774}
  m_Father: {fileID: 414150}
  m_RootOrder: 0
  m_LocalEulerAnglesHint: {x: 0, y: 0.059499998, z: 0}
--- !u!4 &479380
Transform:
  m_ObjectHideFlags: 1
  m_CorrespondingSourceObject: {fileID: 0}
  m_PrefabInternal: {fileID: 100100000}
  m_GameObject: {fileID: 169360}
  m_LocalRotation: {x: 0.000015020062, y: -0.0006643745, z: 0.028144091, w: 0.9996037}
  m_LocalPosition: {x: -0.004799859, y: 0.09494449, z: 0}
  m_LocalScale: {x: 1, y: 1, z: 1}
  m_Children:
  - {fileID: 464162}
  m_Father: {fileID: 464518}
  m_RootOrder: 0
  m_LocalEulerAnglesHint: {x: 0.0039, y: -0.076, z: 3.2254999}
--- !u!4 &481402
Transform:
  m_ObjectHideFlags: 1
  m_CorrespondingSourceObject: {fileID: 0}
  m_PrefabInternal: {fileID: 100100000}
  m_GameObject: {fileID: 136674}
  m_LocalRotation: {x: 0, y: 0, z: 0, w: 1}
  m_LocalPosition: {x: -0, y: 0.19913648, z: 0}
  m_LocalScale: {x: 1, y: 1, z: 1}
  m_Children: []
  m_Father: {fileID: 406838}
  m_RootOrder: 0
  m_LocalEulerAnglesHint: {x: 0, y: 0, z: 0}
--- !u!4 &482448
Transform:
  m_ObjectHideFlags: 1
  m_CorrespondingSourceObject: {fileID: 0}
  m_PrefabInternal: {fileID: 100100000}
  m_GameObject: {fileID: 172040}
  m_LocalRotation: {x: -0.000011892819, y: -0.0006052697, z: 0.02616189, w: 0.9996576}
  m_LocalPosition: {x: -0.00025285155, y: 0.03530046, z: -5.684342e-16}
  m_LocalScale: {x: 1, y: 1, z: 1}
  m_Children:
  - {fileID: 428176}
  m_Father: {fileID: 415276}
  m_RootOrder: 0
  m_LocalEulerAnglesHint: {x: 0.00049999997, y: -0.069299996, z: 2.9982998}
--- !u!4 &482970
Transform:
  m_ObjectHideFlags: 1
  m_CorrespondingSourceObject: {fileID: 0}
  m_PrefabInternal: {fileID: 100100000}
  m_GameObject: {fileID: 131388}
  m_LocalRotation: {x: 0.4373749, y: 0.019349195, z: -0.014362548, w: 0.8989564}
  m_LocalPosition: {x: -0, y: 0.82583374, z: 0}
  m_LocalScale: {x: 1, y: 1, z: 1}
  m_Children:
  - {fileID: 418254}
  m_Father: {fileID: 438196}
  m_RootOrder: 0
  m_LocalEulerAnglesHint: {x: 51.8984, y: 2.0641, z: -0.8262}
--- !u!4 &486382
Transform:
  m_ObjectHideFlags: 1
  m_CorrespondingSourceObject: {fileID: 0}
  m_PrefabInternal: {fileID: 100100000}
  m_GameObject: {fileID: 147268}
  m_LocalRotation: {x: -0.00001352269, y: -0.000030037912, z: 0.00093241804, w: 0.9999996}
  m_LocalPosition: {x: 0.003953284, y: 2.1332846, z: -0.004188044}
  m_LocalScale: {x: 1.0000001, y: 0.99999994, z: 1}
  m_Children:
  - {fileID: 415570}
  - {fileID: 437882}
  - {fileID: 491300}
  m_Father: {fileID: 413922}
  m_RootOrder: 4
  m_LocalEulerAnglesHint: {x: -0.0015, y: -0.0033999998, z: 0.1068}
--- !u!4 &487218
Transform:
  m_ObjectHideFlags: 1
  m_CorrespondingSourceObject: {fileID: 0}
  m_PrefabInternal: {fileID: 100100000}
  m_GameObject: {fileID: 190186}
  m_LocalRotation: {x: 0, y: 0, z: 0, w: 1}
  m_LocalPosition: {x: 0, y: 0, z: 0}
  m_LocalScale: {x: 1, y: 1, z: 1}
  m_Children: []
  m_Father: {fileID: 413922}
  m_RootOrder: 3
  m_LocalEulerAnglesHint: {x: 0, y: 0, z: 0}
--- !u!4 &488904
Transform:
  m_ObjectHideFlags: 1
  m_CorrespondingSourceObject: {fileID: 0}
  m_PrefabInternal: {fileID: 100100000}
  m_GameObject: {fileID: 187166}
  m_LocalRotation: {x: -0.0041251816, y: -0.00024007737, z: 0.046642397, w: 0.9989031}
  m_LocalPosition: {x: -0.019637898, y: 0.26449183, z: -0.0021908334}
  m_LocalScale: {x: 1, y: 1, z: 1}
  m_Children:
  - {fileID: 436294}
  m_Father: {fileID: 451776}
  m_RootOrder: 1
  m_LocalEulerAnglesHint: {x: -0.4709, y: -0.049599998, z: 5.3469996}
--- !u!4 &489098
Transform:
  m_ObjectHideFlags: 1
  m_CorrespondingSourceObject: {fileID: 0}
  m_PrefabInternal: {fileID: 100100000}
  m_GameObject: {fileID: 192578}
  m_LocalRotation: {x: -0.0016797206, y: -0.0024249863, z: -0.03045812, w: 0.9995317}
  m_LocalPosition: {x: -0.021391489, y: 0.25486135, z: -0.004101708}
  m_LocalScale: {x: 1, y: 1, z: 1}
  m_Children:
  - {fileID: 432024}
  m_Father: {fileID: 471774}
  m_RootOrder: 3
  m_LocalEulerAnglesHint: {x: -0.20089999, y: -0.2719, z: -3.4903998}
--- !u!4 &490576
Transform:
  m_ObjectHideFlags: 1
  m_CorrespondingSourceObject: {fileID: 0}
  m_PrefabInternal: {fileID: 100100000}
  m_GameObject: {fileID: 155856}
  m_LocalRotation: {x: 0, y: 0, z: 0, w: 1}
  m_LocalPosition: {x: 0.00068135804, y: 0.06056128, z: -5.684342e-16}
  m_LocalScale: {x: 1, y: 1, z: 1}
  m_Children: []
  m_Father: {fileID: 415470}
  m_RootOrder: 0
  m_LocalEulerAnglesHint: {x: 0, y: 0, z: 0}
--- !u!4 &491300
Transform:
  m_ObjectHideFlags: 1
  m_CorrespondingSourceObject: {fileID: 0}
  m_PrefabInternal: {fileID: 100100000}
  m_GameObject: {fileID: 109688}
  m_LocalRotation: {x: -0.019819664, y: -0.00010506326, z: 0.0068052374, w: 0.9997804}
  m_LocalPosition: {x: 0.0005749729, y: 0.18534313, z: -0.020428533}
  m_LocalScale: {x: 1, y: 1, z: 1}
  m_Children:
  - {fileID: 434120}
  m_Father: {fileID: 486382}
  m_RootOrder: 2
  m_LocalEulerAnglesHint: {x: -2.2712, y: -0.0275, z: 0.7805}
--- !u!4 &494324
Transform:
  m_ObjectHideFlags: 1
  m_CorrespondingSourceObject: {fileID: 0}
  m_PrefabInternal: {fileID: 100100000}
  m_GameObject: {fileID: 137840}
  m_LocalRotation: {x: 0, y: 0, z: 0, w: 1}
  m_LocalPosition: {x: 0.004371038, y: 0.053282317, z: 0}
  m_LocalScale: {x: 1, y: 1, z: 1}
  m_Children: []
  m_Father: {fileID: 464162}
  m_RootOrder: 0
  m_LocalEulerAnglesHint: {x: 0, y: 0, z: 0}
--- !u!4 &495684
Transform:
  m_ObjectHideFlags: 1
  m_CorrespondingSourceObject: {fileID: 0}
  m_PrefabInternal: {fileID: 100100000}
  m_GameObject: {fileID: 185576}
  m_LocalRotation: {x: 0, y: 0, z: 0, w: 1}
  m_LocalPosition: {x: 0, y: 0, z: 0}
  m_LocalScale: {x: 1, y: 1, z: 1}
  m_Children: []
  m_Father: {fileID: 413922}
  m_RootOrder: 5
  m_LocalEulerAnglesHint: {x: 0, y: 0, z: 0}
--- !u!4 &496898
Transform:
  m_ObjectHideFlags: 1
  m_CorrespondingSourceObject: {fileID: 0}
  m_PrefabInternal: {fileID: 100100000}
  m_GameObject: {fileID: 160152}
  m_LocalRotation: {x: -0.0059106257, y: -0.0009760459, z: 0.10326888, w: 0.99463546}
  m_LocalPosition: {x: -0, y: 0.22766565, z: 0}
  m_LocalScale: {x: 1, y: 1, z: 1}
  m_Children:
  - {fileID: 443246}
  m_Father: {fileID: 406714}
  m_RootOrder: 0
  m_LocalEulerAnglesHint: {x: -0.6622, y: -0.1812, z: 11.8561}
--- !u!4 &497538
Transform:
  m_ObjectHideFlags: 1
  m_CorrespondingSourceObject: {fileID: 0}
  m_PrefabInternal: {fileID: 100100000}
  m_GameObject: {fileID: 163608}
  m_LocalRotation: {x: -0.5066794, y: 0.6065055, z: -0.46731663, w: -0.39628556}
  m_LocalPosition: {x: -0.12589361, y: 0.19076882, z: 0.02587634}
  m_LocalScale: {x: 1, y: 1, z: 1}
  m_Children:
  - {fileID: 414150}
  m_Father: {fileID: 438984}
  m_RootOrder: 0
  m_LocalEulerAnglesHint: {x: 75.567, y: -178.3586, z: -78.4789}
--- !u!20 &2091184
Camera:
  m_ObjectHideFlags: 1
  m_CorrespondingSourceObject: {fileID: 0}
  m_PrefabInternal: {fileID: 100100000}
  m_GameObject: {fileID: 167950}
  m_Enabled: 1
  serializedVersion: 2
  m_ClearFlags: 1
  m_BackGroundColor: {r: 0.19215687, g: 0.3019608, b: 0.4745098, a: 0.019607844}
  m_projectionMatrixMode: 1
  m_SensorSize: {x: 36, y: 24}
  m_LensShift: {x: 0, y: 0}
  m_FocalLength: 50
  m_NormalizedViewPortRect:
    serializedVersion: 2
    x: 0
    y: 0
    width: 1
    height: 1
  near clip plane: 0.3
  far clip plane: 1000
  field of view: 60
  orthographic: 0
  orthographic size: 5
  m_Depth: 0
  m_CullingMask:
    serializedVersion: 2
    m_Bits: 4294967295
  m_RenderingPath: -1
  m_TargetTexture: {fileID: 0}
  m_TargetDisplay: 0
  m_TargetEye: 3
  m_HDR: 0
  m_AllowMSAA: 1
  m_AllowDynamicResolution: 0
  m_ForceIntoRT: 0
  m_OcclusionCulling: 1
  m_StereoConvergence: 10
  m_StereoSeparation: 0.022
--- !u!111 &11162324
Animation:
  m_ObjectHideFlags: 1
  m_CorrespondingSourceObject: {fileID: 0}
  m_PrefabInternal: {fileID: 100100000}
  m_GameObject: {fileID: 167950}
  m_Enabled: 1
  serializedVersion: 3
  m_Animation: {fileID: 7400000, guid: 8d99e04d2f1e14202b292750dd504ef1, type: 3}
  m_Animations:
  - {fileID: 7400000, guid: 79eb7bd767dbf4141afa7c5af17b08a8, type: 3}
  - {fileID: 7400000, guid: 8e937ab173ff02f4db6545f3c276202f, type: 3}
  - {fileID: 7400000, guid: b955551abdf560446b2d6c5adf7b3dc5, type: 3}
  - {fileID: 7400000, guid: 25adc013f432bf948891afb2d89e066c, type: 3}
  - {fileID: 7400000, guid: 0d9ea0f99e5488b429cefb737c74a14a, type: 3}
  - {fileID: 7400000, guid: 2e1cc2b4e857a764a84174718af50873, type: 3}
  - {fileID: 7400000, guid: 0bf879ad199ee504eb3b8fb6ccfc03d5, type: 3}
  - {fileID: 7400000, guid: 3093119225087124288afbb7b7cbbe04, type: 3}
  - {fileID: 7400000, guid: ed769213b26d7ea4aa25d7bbe7b63f10, type: 3}
  - {fileID: 7400000, guid: d9680bdd25f11fd4e9108afdb323e037, type: 3}
  - {fileID: 7400000, guid: c102cab26d45d64469d2d9337509e374, type: 3}
  - {fileID: 7400000, guid: c776c92a600f01a4dacf0704b42c57e6, type: 3}
  - {fileID: 7400000, guid: 0859c7430be99634cbda5661cf68507c, type: 3}
  - {fileID: 7400000, guid: d187c45af7a768744b0246c7bde7b76e, type: 3}
  - {fileID: 7400000, guid: 5dff154b3299d1140a8a7ca1dddf8a01, type: 3}
  - {fileID: 7400000, guid: 1f4c625922a726f46b51d393ed9a028b, type: 3}
  - {fileID: 7400000, guid: b06d26fcfbddfd84bbb151007347b915, type: 3}
  - {fileID: 7400000, guid: a151ccca9adf28845bf231f6e829669a, type: 3}
  - {fileID: 7400000, guid: 7d477d502d74d8a47bccb9a3d3f1042f, type: 3}
  - {fileID: 7400000, guid: c998c5ae20cb034449fc08fb63d888ca, type: 3}
  - {fileID: 7400000, guid: 117e9c008ec7361428564e93fa79f0cd, type: 3}
  - {fileID: 7400000, guid: 8d99e04d2f1e14202b292750dd504ef1, type: 3}
  - {fileID: 7400000, guid: d4558187b478fd348b621513b411c227, type: 3}
  - {fileID: 7400000, guid: 9059171338dface488c7fc408bb3bb31, type: 3}
  - {fileID: 7400000, guid: 0c51cc3fdeaaaad46b16a4d3a609a055, type: 3}
  - {fileID: 7400000, guid: 8d99e04d2f1e14202b292750dd504ef1, type: 3}
  - {fileID: 7400000, guid: 8d99e04d2f1e14202b292750dd504ef1, type: 3}
  - {fileID: 7400000, guid: 8d99e04d2f1e14202b292750dd504ef1, type: 3}
  - {fileID: 7400000, guid: 8d99e04d2f1e14202b292750dd504ef1, type: 3}
  - {fileID: 7400000, guid: 8d99e04d2f1e14202b292750dd504ef1, type: 3}
  m_WrapMode: 0
  m_PlayAutomatically: 1
  m_AnimatePhysics: 0
  m_CullingType: 0
--- !u!114 &11401554
MonoBehaviour:
  m_ObjectHideFlags: 1
  m_CorrespondingSourceObject: {fileID: 0}
  m_PrefabInternal: {fileID: 100100000}
  m_GameObject: {fileID: 167950}
  m_Enabled: 1
  m_EditorHideFlags: 0
  m_Script: {fileID: 11500000, guid: fe014fe2d0ac4ca418e82dbd785e084c, type: 3}
  m_Name: 
  m_EditorClassIdentifier: 
  Id: 0
  InEventRadius: 0
  IsInEvent: 0
  IsEventActor: 0
  MyActingEvent: {fileID: 0}
  FirstAction: 0
  Animator: {fileID: 0}
  MyEvent: {fileID: 0}
  MovementController: {fileID: 0}
  CurrentActionPosition: {x: -1, y: -1, z: -1}
--- !u!137 &13716758
SkinnedMeshRenderer:
  m_ObjectHideFlags: 1
  m_CorrespondingSourceObject: {fileID: 0}
  m_PrefabInternal: {fileID: 100100000}
  m_GameObject: {fileID: 155290}
  m_Enabled: 1
  m_CastShadows: 1
  m_ReceiveShadows: 1
  m_DynamicOccludee: 1
  m_MotionVectors: 1
  m_LightProbeUsage: 1
  m_ReflectionProbeUsage: 1
  m_RenderingLayerMask: 4294967295
  m_Materials:
  - {fileID: 2100000, guid: dbd14a0957ed25241aac9c8f08128817, type: 2}
  m_StaticBatchInfo:
    firstSubMesh: 0
    subMeshCount: 0
  m_StaticBatchRoot: {fileID: 0}
  m_ProbeAnchor: {fileID: 0}
  m_LightProbeVolumeOverride: {fileID: 0}
  m_ScaleInLightmap: 1
  m_PreserveUVs: 0
  m_IgnoreNormalsForChartDetection: 0
  m_ImportantGI: 0
  m_StitchLightmapSeams: 0
  m_SelectedEditorRenderState: 3
  m_MinimumChartSize: 4
  m_AutoUVMaxDistance: 0.5
  m_AutoUVMaxAngle: 89
  m_LightmapParameters: {fileID: 0}
  m_SortingLayerID: 0
  m_SortingLayer: 0
  m_SortingOrder: 0
  serializedVersion: 2
  m_Quality: 0
  m_UpdateWhenOffscreen: 0
  m_SkinnedMotionVectors: 1
  m_Mesh: {fileID: 4300004, guid: ff40eba2f5bc4ec4aa03181215edfab6, type: 3}
  m_Bones:
  - {fileID: 486382}
  - {fileID: 491300}
  - {fileID: 415570}
  - {fileID: 438196}
  - {fileID: 437882}
  - {fileID: 438984}
  - {fileID: 435658}
  - {fileID: 497538}
  - {fileID: 406714}
  - {fileID: 434120}
  - {fileID: 414150}
  - {fileID: 496898}
  - {fileID: 425938}
  - {fileID: 476044}
  - {fileID: 471774}
  - {fileID: 421888}
  - {fileID: 464518}
  - {fileID: 489098}
  - {fileID: 402712}
  - {fileID: 479380}
  - {fileID: 494324}
  - {fileID: 464162}
  - {fileID: 438802}
  - {fileID: 473370}
  - {fileID: 427872}
  - {fileID: 432024}
  - {fileID: 438676}
  - {fileID: 431076}
  - {fileID: 415470}
  - {fileID: 427410}
  - {fileID: 459398}
  - {fileID: 432322}
  - {fileID: 418248}
  - {fileID: 490576}
  - {fileID: 410384}
  - {fileID: 443246}
  - {fileID: 451776}
  - {fileID: 488904}
  - {fileID: 407146}
  - {fileID: 429596}
  - {fileID: 461456}
  - {fileID: 438210}
  - {fileID: 426690}
  - {fileID: 415276}
  - {fileID: 441992}
  - {fileID: 413468}
  - {fileID: 436294}
  - {fileID: 460022}
  - {fileID: 413914}
  - {fileID: 452488}
  - {fileID: 452410}
  - {fileID: 448568}
  - {fileID: 482448}
  - {fileID: 464296}
  - {fileID: 428176}
  - {fileID: 427508}
  - {fileID: 424544}
  - {fileID: 430470}
  - {fileID: 482970}
  - {fileID: 418254}
  - {fileID: 447508}
  - {fileID: 434214}
  - {fileID: 406838}
  - {fileID: 481402}
  m_BlendShapeWeights: []
  m_RootBone: {fileID: 486382}
  m_AABB:
    m_Center: {x: -0.005781412, y: -0.2986852, z: 0.014832571}
    m_Extent: {x: 1.9352418, y: 1.8402911, z: 0.33461928}
  m_DirtyAABB: 0
--- !u!137 &13729552
SkinnedMeshRenderer:
  m_ObjectHideFlags: 1
  m_CorrespondingSourceObject: {fileID: 0}
  m_PrefabInternal: {fileID: 100100000}
  m_GameObject: {fileID: 105450}
  m_Enabled: 1
  m_CastShadows: 1
  m_ReceiveShadows: 1
  m_DynamicOccludee: 1
  m_MotionVectors: 1
  m_LightProbeUsage: 1
  m_ReflectionProbeUsage: 1
  m_RenderingLayerMask: 4294967295
  m_Materials:
  - {fileID: 2100000, guid: dbd14a0957ed25241aac9c8f08128817, type: 2}
  m_StaticBatchInfo:
    firstSubMesh: 0
    subMeshCount: 0
  m_StaticBatchRoot: {fileID: 0}
  m_ProbeAnchor: {fileID: 0}
  m_LightProbeVolumeOverride: {fileID: 0}
  m_ScaleInLightmap: 1
  m_PreserveUVs: 0
  m_IgnoreNormalsForChartDetection: 0
  m_ImportantGI: 0
  m_StitchLightmapSeams: 0
  m_SelectedEditorRenderState: 3
  m_MinimumChartSize: 4
  m_AutoUVMaxDistance: 0.5
  m_AutoUVMaxAngle: 89
  m_LightmapParameters: {fileID: 0}
  m_SortingLayerID: 0
  m_SortingLayer: 0
  m_SortingOrder: 0
  serializedVersion: 2
  m_Quality: 0
  m_UpdateWhenOffscreen: 0
  m_SkinnedMotionVectors: 1
  m_Mesh: {fileID: 4300000, guid: ff40eba2f5bc4ec4aa03181215edfab6, type: 3}
  m_Bones:
  - {fileID: 430470}
  m_BlendShapeWeights: []
  m_RootBone: {fileID: 430470}
  m_AABB:
    m_Center: {x: 0.0035916343, y: 0.14894305, z: 0.22388452}
    m_Extent: {x: 0.11116419, y: 0.01792252, z: 0.020645306}
  m_DirtyAABB: 0
--- !u!137 &13751234
SkinnedMeshRenderer:
  m_ObjectHideFlags: 1
  m_CorrespondingSourceObject: {fileID: 0}
  m_PrefabInternal: {fileID: 100100000}
  m_GameObject: {fileID: 163744}
  m_Enabled: 1
  m_CastShadows: 1
  m_ReceiveShadows: 1
  m_DynamicOccludee: 1
  m_MotionVectors: 1
  m_LightProbeUsage: 1
  m_ReflectionProbeUsage: 1
  m_RenderingLayerMask: 4294967295
  m_Materials:
  - {fileID: 2100000, guid: 7f4d1a9aa707b344296af8bdfd73401f, type: 2}
  m_StaticBatchInfo:
    firstSubMesh: 0
    subMeshCount: 0
  m_StaticBatchRoot: {fileID: 0}
  m_ProbeAnchor: {fileID: 0}
  m_LightProbeVolumeOverride: {fileID: 0}
  m_ScaleInLightmap: 1
  m_PreserveUVs: 0
  m_IgnoreNormalsForChartDetection: 0
  m_ImportantGI: 0
  m_StitchLightmapSeams: 0
  m_SelectedEditorRenderState: 3
  m_MinimumChartSize: 4
  m_AutoUVMaxDistance: 0.5
  m_AutoUVMaxAngle: 89
  m_LightmapParameters: {fileID: 0}
  m_SortingLayerID: 0
  m_SortingLayer: 0
  m_SortingOrder: 0
  serializedVersion: 2
  m_Quality: 0
  m_UpdateWhenOffscreen: 0
  m_SkinnedMotionVectors: 1
  m_Mesh: {fileID: 4300008, guid: ff40eba2f5bc4ec4aa03181215edfab6, type: 3}
  m_Bones:
  - {fileID: 486382}
  - {fileID: 491300}
  - {fileID: 434120}
  - {fileID: 438984}
  - {fileID: 415570}
  - {fileID: 437882}
  - {fileID: 425938}
  - {fileID: 438196}
  - {fileID: 482970}
  - {fileID: 418254}
  - {fileID: 447508}
  - {fileID: 434214}
  - {fileID: 406838}
  - {fileID: 481402}
  m_BlendShapeWeights: []
  m_RootBone: {fileID: 486382}
  m_AABB:
    m_Center: {x: -0.011381373, y: -0.98089117, z: -0.09418845}
    m_Extent: {x: 0.4556796, y: 1.1813474, z: 0.6654572}
  m_DirtyAABB: 0
--- !u!137 &13756454
SkinnedMeshRenderer:
  m_ObjectHideFlags: 1
  m_CorrespondingSourceObject: {fileID: 0}
  m_PrefabInternal: {fileID: 100100000}
  m_GameObject: {fileID: 190186}
  m_Enabled: 1
  m_CastShadows: 1
  m_ReceiveShadows: 1
  m_DynamicOccludee: 1
  m_MotionVectors: 1
  m_LightProbeUsage: 1
  m_ReflectionProbeUsage: 1
  m_RenderingLayerMask: 4294967295
  m_Materials:
  - {fileID: 2100000, guid: dbd14a0957ed25241aac9c8f08128817, type: 2}
  m_StaticBatchInfo:
    firstSubMesh: 0
    subMeshCount: 0
  m_StaticBatchRoot: {fileID: 0}
  m_ProbeAnchor: {fileID: 0}
  m_LightProbeVolumeOverride: {fileID: 0}
  m_ScaleInLightmap: 1
  m_PreserveUVs: 0
  m_IgnoreNormalsForChartDetection: 0
  m_ImportantGI: 0
  m_StitchLightmapSeams: 0
  m_SelectedEditorRenderState: 3
  m_MinimumChartSize: 4
  m_AutoUVMaxDistance: 0.5
  m_AutoUVMaxAngle: 89
  m_LightmapParameters: {fileID: 0}
  m_SortingLayerID: 0
  m_SortingLayer: 0
  m_SortingOrder: 0
  serializedVersion: 2
  m_Quality: 0
  m_UpdateWhenOffscreen: 0
  m_SkinnedMotionVectors: 1
  m_Mesh: {fileID: 4300002, guid: ff40eba2f5bc4ec4aa03181215edfab6, type: 3}
  m_Bones:
  - {fileID: 430470}
  - {fileID: 427924}
  - {fileID: 448414}
  m_BlendShapeWeights: []
  m_RootBone: {fileID: 430470}
  m_AABB:
    m_Center: {x: 0.003123641, y: 0.15394199, z: 0.18757823}
    m_Extent: {x: 0.10279432, y: 0.035933852, z: 0.03467118}
  m_DirtyAABB: 0
--- !u!137 &13763222
SkinnedMeshRenderer:
  m_ObjectHideFlags: 1
  m_CorrespondingSourceObject: {fileID: 0}
  m_PrefabInternal: {fileID: 100100000}
  m_GameObject: {fileID: 185576}
  m_Enabled: 1
  m_CastShadows: 1
  m_ReceiveShadows: 1
  m_DynamicOccludee: 1
  m_MotionVectors: 1
  m_LightProbeUsage: 1
  m_ReflectionProbeUsage: 1
  m_RenderingLayerMask: 4294967295
  m_Materials:
  - {fileID: 2100000, guid: 90a24519b6dd39446aa7da46566ec386, type: 2}
  m_StaticBatchInfo:
    firstSubMesh: 0
    subMeshCount: 0
  m_StaticBatchRoot: {fileID: 0}
  m_ProbeAnchor: {fileID: 0}
  m_LightProbeVolumeOverride: {fileID: 0}
  m_ScaleInLightmap: 1
  m_PreserveUVs: 0
  m_IgnoreNormalsForChartDetection: 0
  m_ImportantGI: 0
  m_StitchLightmapSeams: 0
  m_SelectedEditorRenderState: 3
  m_MinimumChartSize: 4
  m_AutoUVMaxDistance: 0.5
  m_AutoUVMaxAngle: 89
  m_LightmapParameters: {fileID: 0}
  m_SortingLayerID: 0
  m_SortingLayer: 0
  m_SortingOrder: 0
  serializedVersion: 2
  m_Quality: 0
  m_UpdateWhenOffscreen: 0
  m_SkinnedMotionVectors: 1
  m_Mesh: {fileID: 4300010, guid: ff40eba2f5bc4ec4aa03181215edfab6, type: 3}
  m_Bones:
  - {fileID: 434214}
  - {fileID: 406838}
  - {fileID: 481402}
  - {fileID: 425938}
  - {fileID: 418254}
  - {fileID: 482970}
  - {fileID: 447508}
  - {fileID: 438196}
  m_BlendShapeWeights: []
  m_RootBone: {fileID: 438196}
  m_AABB:
    m_Center: {x: -0.20832253, y: 0.9762001, z: 0.14497894}
    m_Extent: {x: 0.38362032, y: 0.37091807, z: 0.37719327}
  m_DirtyAABB: 0
--- !u!137 &13786286
SkinnedMeshRenderer:
  m_ObjectHideFlags: 1
  m_CorrespondingSourceObject: {fileID: 0}
  m_PrefabInternal: {fileID: 100100000}
  m_GameObject: {fileID: 146262}
  m_Enabled: 1
  m_CastShadows: 1
  m_ReceiveShadows: 1
  m_DynamicOccludee: 1
  m_MotionVectors: 1
  m_LightProbeUsage: 1
  m_ReflectionProbeUsage: 1
  m_RenderingLayerMask: 4294967295
  m_Materials:
  - {fileID: 2100000, guid: 8866f7b254a2a994ca9da58e5dcfc05f, type: 2}
  m_StaticBatchInfo:
    firstSubMesh: 0
    subMeshCount: 0
  m_StaticBatchRoot: {fileID: 0}
  m_ProbeAnchor: {fileID: 0}
  m_LightProbeVolumeOverride: {fileID: 0}
  m_ScaleInLightmap: 1
  m_PreserveUVs: 0
  m_IgnoreNormalsForChartDetection: 0
  m_ImportantGI: 0
  m_StitchLightmapSeams: 0
  m_SelectedEditorRenderState: 3
  m_MinimumChartSize: 4
  m_AutoUVMaxDistance: 0.5
  m_AutoUVMaxAngle: 89
  m_LightmapParameters: {fileID: 0}
  m_SortingLayerID: 0
  m_SortingLayer: 0
  m_SortingOrder: 0
  serializedVersion: 2
  m_Quality: 0
  m_UpdateWhenOffscreen: 0
  m_SkinnedMotionVectors: 1
  m_Mesh: {fileID: 4300006, guid: ff40eba2f5bc4ec4aa03181215edfab6, type: 3}
  m_Bones:
  - {fileID: 414150}
  - {fileID: 476044}
  - {fileID: 471774}
  - {fileID: 421888}
  - {fileID: 464518}
  - {fileID: 494324}
  - {fileID: 402712}
  - {fileID: 489098}
  - {fileID: 479380}
  - {fileID: 491300}
  - {fileID: 434120}
  - {fileID: 438984}
  - {fileID: 497538}
  - {fileID: 435658}
  - {fileID: 430470}
  - {fileID: 406714}
  - {fileID: 486382}
  - {fileID: 415570}
  - {fileID: 437882}
  - {fileID: 496898}
  - {fileID: 443246}
  - {fileID: 451776}
  - {fileID: 407146}
  - {fileID: 488904}
  - {fileID: 448568}
  - {fileID: 461456}
  - {fileID: 429596}
  - {fileID: 438210}
  - {fileID: 452410}
  m_BlendShapeWeights: []
  m_RootBone: {fileID: 486382}
  m_AABB:
    m_Center: {x: 0.005325198, y: 0.57333803, z: -0.05540444}
    m_Extent: {x: 1.6138947, y: 0.61885476, z: 0.5106455}
  m_DirtyAABB: 0
--- !u!1001 &100100000
Prefab:
  m_ObjectHideFlags: 1
  serializedVersion: 2
  m_Modification:
    m_TransformParent: {fileID: 0}
    m_Modifications: []
    m_RemovedComponents: []
  m_SourcePrefab: {fileID: 0}
  m_RootGameObject: {fileID: 167950}
  m_IsPrefabAsset: 1
